<?xml version="1.0" standalone="no"?>
<!DOCTYPE svg PUBLIC "-//W3C//DTD SVG 1.1//EN" "http://www.w3.org/Graphics/SVG/1.1/DTD/svg11.dtd">
<svg xmlns="http://www.w3.org/2000/svg">
    <defs >
        <font id="Roboto" horiz-adv-x="1173" >
            <font-face
                font-family="Roboto Medium"
                units-per-em="2048"
                panose-1="2 0 0 0 0 0 0 0 0 0"
                ascent="1900"
                descent="-500"
                alphabetic="0" />
            <glyph unicode=" " horiz-adv-x="510" />
            <glyph unicode="!" horiz-adv-x="549" d="M382 429H173L150 1456H406L382 429ZM143 115Q143 172 180 209T281 247T382 210T419 115Q419 60 383 23T281 -14T179 23T143 115Z" />
            <glyph unicode="&quot;" horiz-adv-x="664" d="M275 1399L240 1012H101V1536H275V1399ZM576 1399L541 1012H402V1536H576V1399Z" />
            <glyph unicode="#" horiz-adv-x="1250" d="M719 410H495L419 0H251L327 410H96V568H357L415 881H172V1040H445L523 1456H690L612 1040H837L915 1456H1082L1004 1040H1212V881H974L916 568H1137V410H886L810 0H643L719 410ZM525 568H749L807 881H583L525 568Z" />
            <glyph unicode="$" horiz-adv-x="1164" d="M819 380Q819 465 765 520T585 620T389 703Q156 828 156 1073Q156 1239 257 1346T531 1473V1691H691V1471Q865 1446 960 1324T1055 1005H813Q813 1131 757 1203T603 1276Q507 1276 453 1224T399 1075Q399 988 452 936T634
836T835 749T958 658T1035 539T1062 382Q1062 213 959 108T670 -16V-211H511V-17Q313 5 207 125T100 443H343Q343 317 406 248T586 179Q700 179 759 234T819 380Z" />
            <glyph unicode="%" horiz-adv-x="1504" d="M99 1176Q99 1308 184 1392T407 1477Q547 1477 631 1393T716 1171V1099Q716 968 632 884T409 800Q274 800 187 882T99 1105V1176ZM269 1099Q269 1030 307 988T409 945Q471 945 509 987T547 1103V1176Q547 1245 509 1288T407
1331T307 1288T269 1173V1099ZM799 357Q799 491 886 574T1108 657Q1244 657 1330 574T1417 350V279Q1417 149 1334 65T1110 -20T885 63T799 284V357ZM969 279Q969 211 1008 168T1110 124Q1174 124 1210 165T1247 282V357Q1247 427 1208 469T1108 511Q1046 511 1008
469T969 353V279ZM459 109L334 181L1045 1319L1170 1247L459 109Z" />
            <glyph unicode="&amp;" horiz-adv-x="1309" d="M86 393Q86 494 141 578T358 779Q273 886 240 961T206 1106Q206 1277 310 1376T590 1476Q749 1476 850 1383T952 1151Q952 1060 906 984T755 831L656 759L937 427Q998 547 998 694H1209Q1209 425 1083 253L1297 0H1015L933
97Q777 -20 561 -20T216 94T86 393ZM568 174Q691 174 798 256L480 631L449 609Q329 518 329 401Q329 300 394 237T568 174ZM434 1112Q434 1028 537 901L648 977L679 1002Q741 1057 741 1143Q741 1200 698 1240T589 1281Q518 1281 476 1233T434 1112Z" />
            <glyph unicode="&apos;" horiz-adv-x="346" d="M267 1411L241 1020H82V1536H267V1411Z" />
            <glyph unicode="(" horiz-adv-x="714" d="M128 592Q128 823 190 1030T372 1401T626 1631L674 1489Q533 1382 446 1163T350 660L349 574Q349 271 434 34T674 -328L626 -463Q492 -397 372 -233T190 138T128 592Z" />
            <glyph unicode=")" horiz-adv-x="722" d="M593 576Q593 354 532 148T347 -228T88 -463L40 -328Q190 -212 277 26T365 571V594Q365 872 289 1100T71 1467L40 1495L88 1631Q216 1569 336 1411T520 1058T592 654L593 576Z" />
            <glyph unicode="*" horiz-adv-x="905" d="M332 972L27 1060L82 1229L384 1112L369 1456H548L533 1106L830 1221L884 1049L574 961L774 695L629 589L449 877L271 598L125 700L332 972Z" />
            <glyph unicode="+" horiz-adv-x="1141" d="M686 801H1066V579H686V146H450V579H68V801H450V1206H686V801Z" />
            <glyph unicode="," horiz-adv-x="450" d="M159 -328L28 -250Q86 -159 107 -92T130 46V235H349L348 60Q347 -46 295 -152T159 -328Z" />
            <glyph unicode="-" horiz-adv-x="672" d="M596 521H71V717H596V521Z" />
            <glyph unicode="." horiz-adv-x="572" d="M276 256Q344 256 381 218T418 121Q418 64 381 27T276 -11Q211 -11 173 26T135 121T172 217T276 256Z" />
            <glyph unicode="/" horiz-adv-x="810" d="M193 -125H2L575 1456H766L193 -125Z" />
            <glyph unicode="0" horiz-adv-x="1164" d="M1058 613Q1058 299 941 140T583 -20Q347 -20 228 135T105 596V848Q105 1162 222 1319T581 1476Q820 1476 937 1323T1058 865V613ZM815 885Q815 1090 759 1185T581 1281Q462 1281 406 1191T347 908V578Q347 374 404 274T583
174Q700 174 756 266T815 556V885Z" />
            <glyph unicode="1" horiz-adv-x="1164" d="M767 0H525V1169L168 1047V1252L736 1461H767V0Z" />
            <glyph unicode="2" horiz-adv-x="1164" d="M1088 0H109V167L594 696Q699 813 743 891T788 1049Q788 1153 730 1217T572 1281Q454 1281 389 1209T324 1012H81Q81 1145 141 1251T314 1417T574 1476Q786 1476 908 1370T1031 1075Q1031 966 970 847T768 575L412 194H1088V0Z" />
            <glyph unicode="3" horiz-adv-x="1164" d="M390 839H538Q650 840 715 897T781 1062Q781 1166 727 1223T560 1281Q462 1281 399 1225T336 1077H93Q93 1189 152 1281T318 1424T557 1476Q775 1476 899 1367T1024 1062Q1024 964 962 878T800 747Q920 706 982 618T1045
408Q1045 212 911 96T557 -20Q347 -20 213 92T79 390H322Q322 294 386 234T560 174Q673 174 738 234T803 408Q803 523 735 585T533 647H390V839Z" />
            <glyph unicode="4" horiz-adv-x="1164" d="M931 519H1112V324H931V0H688V324H59L52 472L680 1456H931V519ZM307 519H688V1127L670 1095L307 519Z" />
            <glyph unicode="5" horiz-adv-x="1164" d="M174 722L253 1456H1035V1246H455L415 898Q516 956 643 956Q851 956 966 823T1082 465Q1082 243 954 112T603 -20Q403 -20 272 93T129 393H364Q378 287 440 231T602 174Q714 174 776 254T839 472Q839 605 770 682T580
760Q514 760 468 743T368 674L174 722Z" />
            <glyph unicode="6" horiz-adv-x="1164" d="M865 1463V1262H835Q631 1259 509 1150T364 841Q481 964 663 964Q856 964 967 828T1079 477Q1079 255 949 118T606 -20Q388 -20 253 141T117 563V646Q117 1029 303 1246T840 1463H865ZM604 768Q524 768 458 723T360 603V529Q360
367 428 272T604 176T775 257T838 470T774 685T604 768Z" />
            <glyph unicode="7" horiz-adv-x="1164" d="M1078 1321L496 0H241L822 1261H69V1456H1078V1321Z" />
            <glyph unicode="8" horiz-adv-x="1164" d="M1026 1072Q1026 965 971 882T821 750Q935 697 996 605T1058 397Q1058 205 928 93T582 -20Q365 -20 235 93T104 397Q104 514 166 607T340 750Q246 798 192 881T137 1072Q137 1258 257 1367T581 1476Q786 1476 906 1367T1026
1072ZM815 409Q815 517 751 583T580 650T411 584T347 409Q347 302 409 238T582 174T753 236T815 409ZM784 1063Q784 1158 729 1219T581 1281T434 1223T380 1063Q380 963 434 904T582 845T729 904T784 1063Z" />
            <glyph unicode="9" horiz-adv-x="1164" d="M798 609Q676 480 513 480Q321 480 207 614T93 968Q93 1112 151 1229T316 1411T564 1476Q784 1476 913 1312T1042 873V805Q1042 411 864 204T333 -6H304V195H339Q554 198 669 298T798 609ZM564 670Q637 670 701 712T800
828V923Q800 1084 734 1182T563 1280T396 1194T333 975Q333 838 396 754T564 670Z" />
            <glyph unicode=":" horiz-adv-x="543" d="M527 256Q595 256 632 218T669 121Q669 64 632 27T527 -11Q462 -11 424 26T386 121T423 217T527 256ZM271 1105Q339 1105 376 1067T413 970Q413 913 376 876T271 838Q206 838 168 875T130 970T167 1066T271 1105Z" />
            <glyph unicode=";" horiz-adv-x="487" d="M250 1105Q318 1105 355 1067T392 970Q392 913 355 876T250 838Q185 838 147 875T109 970T146 1066T250 1105ZM177 -328L46 -250Q104 -159 125 -92T148 46V235H367L366 60Q365 -46 313 -152T177 -328Z" />
            <glyph unicode="&lt;" horiz-adv-x="1041" d="M310 631L900 407V164L63 537V730L900 1102V859L310 631Z" />
            <glyph unicode="=" horiz-adv-x="1146" d="M1007 780H145V982H1007V780ZM1007 356H145V557H1007V356Z" />
            <glyph unicode="&gt;" horiz-adv-x="1066" d="M746 636L128 863V1102L992 730V537L128 165V404L746 636Z" />
            <glyph unicode="?" horiz-adv-x="996" d="M350 428Q350 561 383 640T513 813T637 948Q677 1009 677 1080Q677 1174 631 1223T494 1273Q408 1273 356 1225T303 1093H60Q62 1270 180 1373T494 1476Q695 1476 807 1374T920 1089Q920 926 768 768L645 647Q579 572
577 428H350ZM333 117Q333 176 370 212T470 249Q534 249 571 212T608 117Q608 62 572 25T470 -12T369 25T333 117Z" />
            <glyph unicode="@" horiz-adv-x="1832" d="M1741 518Q1729 268 1618 124T1317 -21Q1136 -21 1075 133Q1024 57 957 19T815 -19Q669 -19 594 101T536 422Q552 585 615 716T776 918T984 990Q1068 990 1132 969T1284 882L1232 319Q1213 121 1346 121Q1448 121 1513
230T1585 514Q1602 883 1443 1079T963 1275Q767 1275 616 1177T375 894T277 471Q265 230 334 56T547 -210T898 -301Q982 -301 1073 -281T1229 -227L1267 -364Q1206 -404 1103 -428T894 -453Q640 -453 458 -346T185 -34Q91 177 102 471Q114 745 225 963T528 1303T967
1424Q1216 1424 1395 1315T1664 1000T1741 518ZM732 422Q719 286 756 216T874 145Q928 145 976 192T1054 323L1099 816Q1049 835 1002 835Q891 835 821 731T732 422Z" />
            <glyph unicode="A" horiz-adv-x="1363" d="M963 339H399L281 0H18L568 1456H795L1346 0H1082L963 339ZM470 543H892L681 1147L470 543Z" />
            <glyph unicode="B" horiz-adv-x="1292" d="M148 0V1456H647Q894 1456 1023 1357T1152 1062Q1152 962 1098 882T940 758Q1058 726 1122 638T1187 425Q1187 220 1056 110T679 0H148ZM401 657V202H682Q801 202 868 261T935 425Q935 652 703 657H401ZM401 843H649Q767
843 833 896T900 1048Q900 1156 839 1204T647 1252H401V843Z" />
            <glyph unicode="C" horiz-adv-x="1337" d="M1259 474Q1237 241 1087 111T688 -20Q514 -20 382 62T177 297T102 650V786Q102 992 175 1149T384 1391T700 1476Q941 1476 1088 1345T1259 975H1007Q989 1132 916 1201T700 1271Q535 1271 447 1151T356 797V668Q356
432 440 308T688 184Q837 184 912 251T1007 474H1259Z" />
            <glyph unicode="D" horiz-adv-x="1338" d="M148 0V1456H578Q771 1456 920 1370T1152 1126T1234 764V691Q1234 484 1152 327T917 85T567 0H148ZM401 1252V202H566Q765 202 871 326T980 684V765Q980 1002 877 1127T578 1252H401Z" />
            <glyph unicode="E" horiz-adv-x="1158" d="M999 650H401V202H1100V0H148V1456H1093V1252H401V850H999V650Z" />
            <glyph unicode="F" horiz-adv-x="1125" d="M987 617H401V0H148V1456H1073V1252H401V819H987V617Z" />
            <glyph unicode="G" horiz-adv-x="1394" d="M1264 189Q1185 86 1045 33T727 -20Q544 -20 403 63T186 300T106 661V775Q106 1105 264 1290T705 1476Q948 1476 1091 1356T1263 1010H1015Q973 1273 710 1273Q540 1273 452 1151T360 791V679Q360 443 459 313T736 182Q930
182 1012 270V555H712V747H1264V189Z" />
            <glyph unicode="H" horiz-adv-x="1455" d="M1304 0H1052V647H401V0H148V1456H401V850H1052V1456H1304V0Z" />
            <glyph unicode="I" horiz-adv-x="578" d="M415 0H163V1456H415V0Z" />
            <glyph unicode="J" horiz-adv-x="1137" d="M744 1456H996V435Q996 226 866 103T521 -20Q293 -20 169 95T45 415H297Q297 299 354 241T521 182Q623 182 683 249T744 436V1456Z" />
            <glyph unicode="K" horiz-adv-x="1291" d="M566 629L401 454V0H148V1456H401V773L541 946L967 1456H1273L732 811L1304 0H1004L566 629Z" />
            <glyph unicode="L" horiz-adv-x="1108" d="M401 202H1062V0H148V1456H401V202Z" />
            <glyph unicode="M" horiz-adv-x="1793" d="M476 1456L896 340L1315 1456H1642V0H1390V480L1415 1122L985 0H804L375 1121L400 480V0H148V1456H476Z" />
            <glyph unicode="N" horiz-adv-x="1454" d="M1303 0H1050L401 1033V0H148V1456H401L1052 419V1456H1303V0Z" />
            <glyph unicode="O" horiz-adv-x="1414" d="M1310 690Q1310 476 1236 315T1025 67T708 -20Q531 -20 393 66T179 313T102 682V764Q102 977 177 1140T390 1389T706 1476T1021 1391T1234 1145T1310 771V690ZM1057 766Q1057 1008 966 1137T706 1266Q542 1266 450 1138T355
774V690Q355 450 448 319T708 188Q876 188 966 316T1057 690V766Z" />
            <glyph unicode="P" horiz-adv-x="1309" d="M401 541V0H148V1456H705Q949 1456 1092 1329T1236 993Q1236 779 1096 660T702 541H401ZM401 744H705Q840 744 911 807T982 991Q982 1109 910 1179T712 1252H401V744Z" />
            <glyph unicode="Q" horiz-adv-x="1414" d="M1305 690Q1305 483 1240 332T1056 91L1306 -104L1142 -252L832 -7Q771 -20 701 -20Q525 -20 387 66T173 313T96 682V764Q96 977 171 1140T384 1389T699 1476Q879 1476 1016 1391T1229 1145T1305 771V690ZM1051 766Q1051
1012 959 1139T699 1266Q536 1266 444 1138T349 775V690Q349 454 441 321T701 188Q870 188 960 316T1051 690V766Z" />
            <glyph unicode="R" horiz-adv-x="1278" d="M683 561H401V0H148V1456H660Q912 1456 1049 1343T1186 1016Q1186 870 1116 772T919 620L1246 13V0H975L683 561ZM401 764H661Q789 764 861 828T933 1005Q933 1122 867 1186T668 1252H401V764Z" />
            <glyph unicode="S" horiz-adv-x="1236" d="M909 375Q909 471 842 523T598 628T318 746Q119 871 119 1072Q119 1248 262 1362T635 1476Q787 1476 906 1420T1093 1261T1161 1031H909Q909 1145 838 1209T633 1274Q509 1274 441 1221T372 1073Q372 993 446 940T690
836T963 721T1114 573T1162 377Q1162 195 1023 88T644 -20Q486 -20 354 38T148 200T74 440H327Q327 316 409 248T644 180Q776 180 842 233T909 375Z" />
            <glyph unicode="T" horiz-adv-x="1243" d="M1200 1252H746V0H495V1252H45V1456H1200V1252Z" />
            <glyph unicode="U" horiz-adv-x="1335" d="M1213 1456V483Q1213 251 1065 116T669 -20Q419 -20 272 113T125 484V1456H377V482Q377 336 451 259T669 182Q961 182 961 490V1456H1213Z" />
            <glyph unicode="V" horiz-adv-x="1325" d="M661 317L1031 1456H1309L785 0H540L18 1456H295L661 317Z" />
            <glyph unicode="W" horiz-adv-x="1802" d="M1290 360L1514 1456H1765L1429 0H1187L910 1063L627 0H384L48 1456H299L525 362L803 1456H1015L1290 360Z" />
            <glyph unicode="X" horiz-adv-x="1296" d="M649 930L955 1456H1247L807 734L1257 0H962L649 534L335 0H41L492 734L51 1456H343L649 930Z" />
            <glyph unicode="Y" horiz-adv-x="1248" d="M623 766L958 1456H1238L750 536V0H496V536L7 1456H288L623 766Z" />
            <glyph unicode="Z" horiz-adv-x="1233" d="M386 202H1164V0H80V164L833 1252H85V1456H1140V1296L386 202Z" />
            <glyph unicode="[" horiz-adv-x="561" d="M540 1488H375V-135H540V-324H132V1678H540V1488Z" />
            <glyph unicode="\" horiz-adv-x="856" d="M20 1456H260L868 -125H628L20 1456Z" />
            <glyph unicode="]" horiz-adv-x="561" d="M12 1678H422V-324H12V-135H179V1488H12V1678Z" />
            <glyph unicode="^" horiz-adv-x="875" d="M437 1190L259 729H53L352 1456H523L821 729H616L437 1190Z" />
            <glyph unicode="_" horiz-adv-x="924" d="M920 -191H3V0H920V-191Z" />
            <glyph unicode="`" horiz-adv-x="660" d="M521 1233H319L49 1536H326L521 1233Z" />
            <glyph unicode="a" horiz-adv-x="1108" d="M771 0Q755 31 743 101Q627 -20 459 -20Q296 -20 193 73T90 303Q90 476 218 568T586 661H735V732Q735 816 688 866T545 917Q462 917 409 876T356 770H113Q113 859 172 936T332 1058T559 1102Q749 1102 862 1007T978 738V250Q978
104 1019 17V0H771ZM504 175Q576 175 639 210T735 304V508H604Q469 508 401 461T333 328Q333 258 379 217T504 175Z" />
            <glyph unicode="b" horiz-adv-x="1153" d="M1074 530Q1074 278 962 129T652 -20Q462 -20 356 117L344 0H124V1536H367V978Q472 1102 650 1102Q848 1102 961 955T1074 544V530ZM831 551Q831 727 769 815T589 903Q431 903 367 765V319Q432 178 591 178Q705 178 767
263T831 520V551Z" />
            <glyph unicode="c" horiz-adv-x="1072" d="M569 174Q660 174 720 227T784 358H1013Q1009 257 950 170T790 31T572 -20Q345 -20 212 127T79 533V558Q79 805 211 953T571 1102Q764 1102 885 990T1013 694H784Q780 787 721 847T569 907Q451 907 387 822T322 562V523Q322
347 385 261T569 174Z" />
            <glyph unicode="d" horiz-adv-x="1156" d="M79 549Q79 799 195 950T506 1102Q678 1102 784 982V1536H1027V0H807L795 112Q686 -20 504 -20Q314 -20 197 133T79 549ZM322 528Q322 363 385 271T566 178Q715 178 784 311V773Q717 903 568 903Q450 903 386 810T322 528Z" />
            <glyph unicode="e" horiz-adv-x="1099" d="M601 -20Q370 -20 227 125T83 513V543Q83 705 145 832T321 1031T573 1102Q794 1102 914 961T1035 562V464H328Q339 330 417 252T615 174Q782 174 887 309L1018 184Q953 87 845 34T601 -20ZM572 907Q472 907 411 837T332
642H795V660Q787 782 730 844T572 907Z" />
            <glyph unicode="f" horiz-adv-x="726" d="M210 0V902H45V1082H210V1181Q210 1361 310 1459T590 1557Q654 1557 726 1539L720 1349Q680 1357 627 1357Q453 1357 453 1178V1082H673V902H453V0H210Z" />
            <glyph unicode="g" horiz-adv-x="1161" d="M82 549Q82 801 200 951T515 1102Q700 1102 806 973L817 1082H1036V33Q1036 -180 904 -303T546 -426Q427 -426 314 -377T141 -247L256 -101Q368 -234 532 -234Q653 -234 723 -169T793 24V97Q688 -20 513 -20Q323 -20
203 131T82 549ZM324 528Q324 365 390 272T575 178Q722 178 793 304V780Q724 903 577 903Q457 903 391 808T324 528Z" />
            <glyph unicode="h" horiz-adv-x="1137" d="M364 964Q483 1102 665 1102Q1011 1102 1016 707V0H773V698Q773 810 725 856T582 903Q436 903 364 773V0H121V1536H364V964Z" />
            <glyph unicode="i" horiz-adv-x="523" d="M383 0H140V1082H383V0ZM125 1363Q125 1419 160 1456T262 1493T364 1456T400 1363Q400 1308 364 1272T262 1235T161 1271T125 1363Z" />
            <glyph unicode="j" horiz-adv-x="513" d="M378 1082V-96Q378 -262 296 -349T54 -437Q-13 -437 -75 -420V-228Q-37 -237 11 -237Q132 -237 135 -105V1082H378ZM114 1363Q114 1419 149 1456T251 1493T353 1456T389 1363Q389 1308 353 1272T251 1235T150 1271T114 1363Z" />
            <glyph unicode="k" horiz-adv-x="1069" d="M476 464L368 353V0H125V1536H368V650L444 745L743 1082H1035L633 631L1078 0H797L476 464Z" />
            <glyph unicode="l" horiz-adv-x="523" d="M383 0H140V1536H383V0Z" />
            <glyph unicode="m" horiz-adv-x="1782" d="M353 1082L360 969Q474 1102 672 1102Q889 1102 969 936Q1087 1102 1301 1102Q1480 1102 1567 1003T1657 711V0H1414V704Q1414 807 1369 855T1220 903Q1137 903 1085 859T1011 742L1012 0H769V712Q764 903 574 903Q428
903 367 784V0H124V1082H353Z" />
            <glyph unicode="n" horiz-adv-x="1139" d="M350 1082L357 957Q477 1102 672 1102Q1010 1102 1016 715V0H773V701Q773 804 729 853T583 903Q436 903 364 770V0H121V1082H350Z" />
            <glyph unicode="o" horiz-adv-x="1166" d="M79 551Q79 710 142 837T319 1033T581 1102Q800 1102 936 961T1084 587L1085 530Q1085 370 1024 244T848 49T583 -20Q354 -20 217 132T79 539V551ZM322 530Q322 363 391 269T583 174T774 270T843 551Q843 715 773 811T581
907Q462 907 392 813T322 530Z" />
            <glyph unicode="p" horiz-adv-x="1153" d="M1072 530Q1072 279 958 130T652 -20Q474 -20 367 97V-416H124V1082H348L358 972Q465 1102 649 1102Q847 1102 959 955T1072 545V530ZM830 551Q830 713 766 808T581 903Q432 903 367 780V300Q433 174 583 174Q699 174
764 267T830 551Z" />
            <glyph unicode="q" horiz-adv-x="1163" d="M79 550Q79 804 195 953T509 1102Q690 1102 796 975L810 1082H1026V-416H783V92Q677 -20 507 -20Q313 -20 196 131T79 550ZM322 529Q322 363 387 269T569 174Q713 174 783 297V789Q713 907 571 907Q455 907 389 814T322 529Z" />
            <glyph unicode="r" horiz-adv-x="720" d="M691 860Q643 868 592 868Q425 868 367 740V0H124V1082H356L362 961Q450 1102 606 1102Q658 1102 692 1088L691 860Z" />
            <glyph unicode="s" horiz-adv-x="1057" d="M731 294Q731 359 678 393T500 453T293 519Q111 607 111 774Q111 914 229 1008T529 1102Q723 1102 842 1006T962 757H719Q719 827 667 873T529 920Q449 920 399 883T348 784Q348 728 395 697T585 635T809 560T930 455T970
307Q970 161 849 71T532 -20Q399 -20 295 28T133 160T75 341H311Q316 255 376 209T535 162Q631 162 681 198T731 294Z" />
            <glyph unicode="t" horiz-adv-x="681" d="M429 1345V1082H620V902H429V298Q429 236 453 209T541 181Q583 181 626 191V3Q543 -20 466 -20Q186 -20 186 289V902H8V1082H186V1345H429Z" />
            <glyph unicode="u" horiz-adv-x="1138" d="M780 106Q673 -20 476 -20Q300 -20 210 83T119 381V1082H362V384Q362 178 533 178Q710 178 772 305V1082H1015V0H786L780 106Z" />
            <glyph unicode="v" horiz-adv-x="1013" d="M506 308L735 1082H986L611 0H400L22 1082H274L506 308Z" />
            <glyph unicode="w" horiz-adv-x="1522" d="M1075 335L1247 1082H1484L1189 0H989L757 743L529 0H329L33 1082H270L445 343L667 1082H850L1075 335Z" />
            <glyph unicode="x" horiz-adv-x="1030" d="M513 726L719 1082H989L658 549L1000 0H732L516 370L301 0H31L373 549L43 1082H311L513 726Z" />
            <glyph unicode="y" horiz-adv-x="997" d="M503 348L723 1082H982L552 -164Q453 -437 216 -437Q163 -437 99 -419V-231L145 -234Q237 -234 283 -201T357 -88L392 5L12 1082H274L503 348Z" />
            <glyph unicode="z" horiz-adv-x="1030" d="M384 194H960V0H82V159L631 886H92V1082H939V928L384 194Z" />
            <glyph unicode="{" horiz-adv-x="687" d="M609 -360Q256 -261 249 91V304Q249 529 56 529V707Q249 707 249 933V1145Q252 1325 342 1436T609 1597L657 1457Q484 1401 478 1151V935Q478 710 305 619Q478 527 478 300V87Q484 -163 657 -219L609 -360Z" />
            <glyph unicode="|" horiz-adv-x="514" d="M341 -270H174V1456H341V-270Z" />
            <glyph unicode="}" horiz-adv-x="687" d="M27 -219Q203 -162 207 93V301Q207 532 389 618Q207 704 207 938V1145Q203 1400 27 1457L75 1597Q257 1546 346 1432T435 1132V932Q435 707 629 707V529Q435 529 435 304V107Q435 -80 346 -194T75 -360L27 -219Z" />
            <glyph unicode="~" horiz-adv-x="1361" d="M1244 786Q1244 610 1149 499T912 387Q838 387 776 415T636 511T526 596T454 613Q387 613 349 561T310 425H117Q117 596 208 705T447 815Q521 815 587 786T726 690T832 607T905 590Q972 590 1014 646T1056 786H1244Z" />
            <glyph unicode="&#xa0;" horiz-adv-x="510" />
            <glyph unicode="&#xa1;" horiz-adv-x="542" d="M170 662H379L403 -364H146L170 662ZM409 971Q409 915 373 878T272 840Q206 840 170 877T134 971Q134 1026 170 1063T272 1101Q337 1101 373 1064T409 971Z" />
            <glyph unicode="&#xa2;" horiz-adv-x="1149" d="M591 174Q680 174 740 226T806 358H1034Q1030 222 932 120T687 -11V-245H487V-11Q304 23 202 166T100 530V558Q100 771 202 915T487 1093V1318H687V1094Q845 1066 937 958T1034 694H806Q799 790 740 848T590 907Q360
907 344 595L343 523Q343 347 406 261T591 174Z" />
            <glyph unicode="&#xa3;" horiz-adv-x="1205" d="M509 598L516 422Q516 287 452 202H1148L1147 0H98V202H180Q219 211 240 266T262 413L255 598H94V797H249L241 1039Q241 1241 366 1358T694 1475T1013 1366T1129 1073H884Q884 1168 832 1220T685 1273Q596 1273
545 1208T493 1039L502 797H813V598H509Z" />
            <glyph unicode="&#xa4;" horiz-adv-x="1437" d="M1085 107Q926 -20 723 -20Q521 -20 363 106L234 -26L93 118L228 255Q128 411 128 608Q128 808 237 973L93 1120L234 1264L376 1119Q531 1234 723 1234Q917 1234 1072 1117L1217 1265L1359 1120L1211 969Q1318 810
1318 608Q1318 415 1220 259L1359 118L1217 -27L1085 107ZM313 608Q313 488 368 385T518 224T723 165T928 224T1077 386T1132 608T1078 829T929 989T723 1048T517 990T368 829T313 608Z" />
            <glyph unicode="&#xa5;" horiz-adv-x="1248" d="M621 820L936 1456H1216L823 742H1092V590H743V452H1092V301H743V0H491V301H137V452H491V590H137V742H418L25 1456H306L621 820Z" />
            <glyph unicode="&#xa6;" horiz-adv-x="508" d="M136 -270V525H365V-270H136ZM365 698H136V1456H365V698Z" />
            <glyph unicode="&#xa7;" horiz-adv-x="1272" d="M1164 455Q1164 271 993 182Q1128 82 1128 -103Q1128 -276 993 -375T624 -474Q378 -474 234 -366T90 -50L332 -49Q332 -159 410 -219T624 -279Q745 -279 815 -232T886 -105Q886 -28 819 17T565 118Q377 169 282
224T141 356T94 542Q94 726 263 816Q198 866 164 934T130 1102Q130 1272 267 1374T635 1476Q875 1476 1009 1364T1143 1047H900Q900 1153 828 1217T635 1281Q512 1281 443 1234T373 1104Q373 1020 433 977T686 881T977 773T1119 640T1164 455ZM601 673Q520 694
444 722Q336 682 336 558Q336 477 385 434T584 344L763 291L809 275Q924 322 924 439Q924 520 856 568T601 673Z" />
            <glyph unicode="&#xa8;" horiz-adv-x="901" d="M93 1366Q93 1416 126 1450T219 1484T312 1450T346 1366T312 1282T219 1248T127 1282T93 1366ZM549 1365Q549 1415 583 1449T676 1483T769 1449T803 1365T769 1281T676 1247T583 1281T549 1365Z" />
            <glyph unicode="&#xa9;" horiz-adv-x="1604" d="M1118 596Q1118 444 1031 363T783 282T529 388T434 675V788Q434 962 529 1068T783 1175Q946 1175 1032 1093T1119 861H963Q963 957 917 998T783 1040Q691 1040 640 972T588 786V669Q588 551 640 484T783 417Q872
417 917 457T962 596H1118ZM1384 729Q1384 895 1309 1037T1097 1265T797 1351Q638 1351 502 1269T287 1043T209 729T286 415T500 188T797 104T1094 189T1308 418T1384 729ZM87 729Q87 931 180 1104T439 1376T797 1476T1154 1377T1412 1104T1506 729T1413 354T1155
81T797 -20Q604 -20 440 80T181 353T87 729Z" />
            <glyph unicode="&#xaa;" horiz-adv-x="913" d="M608 705L591 773Q514 691 390 691Q272 691 207 752T141 919Q141 1029 225 1089T482 1150H584V1201Q584 1328 468 1328Q403 1328 367 1303T330 1229L157 1243Q157 1347 244 1411T468 1476Q605 1476 682 1404T759
1199V883Q759 786 785 705H608ZM433 835Q473 835 515 853T584 896V1033H478Q402 1032 359 1002T316 923Q316 835 433 835Z" />
            <glyph unicode="&#xab;" horiz-adv-x="994" d="M551 537L798 138H631L343 528V547L631 937H798L551 537ZM654 537L901 138H734L446 528V547L734 937H901L654 537Z" />
            <glyph unicode="&#xac;" horiz-adv-x="1133" d="M962 374H762V634H127V805H962V374Z" />
            <glyph unicode="&#xad;" horiz-adv-x="672" d="M596 521H71V717H596V521Z" />
            <glyph unicode="&#xae;" horiz-adv-x="1604" d="M87 729Q87 931 180 1104T439 1376T797 1476T1154 1377T1412 1104T1506 729T1413 354T1155 81T797 -20Q604 -20 440 80T181 353T87 729ZM1384 729Q1384 895 1309 1037T1097 1265T797 1351Q638 1351 502 1269T287
1043T209 729T286 415T500 188T797 104T1094 189T1308 418T1384 729ZM653 653V316H502V1166H783Q936 1166 1022 1099T1108 906Q1108 789 988 726Q1053 697 1079 642T1105 505T1108 389T1122 332V316H967Q954 350 954 510Q954 586 921 619T811 653H653ZM653 787H796Q865
787 911 818T958 903Q958 973 923 1002T794 1033H653V787Z" />
            <glyph unicode="&#xaf;" horiz-adv-x="987" d="M862 1298H135V1456H862V1298Z" />
            <glyph unicode="&#xb0;" horiz-adv-x="778" d="M391 1476Q497 1476 574 1397T651 1208T575 1021T391 943Q282 943 205 1020T127 1208T205 1397T391 1476ZM391 1084Q444 1084 478 1119T513 1208Q513 1260 479 1298T391 1336T302 1298T266 1208T302 1120T391 1084Z" />
            <glyph unicode="&#xb1;" horiz-adv-x="1098" d="M668 899H1011V700H668V312H452V700H95V899H452V1276H668V899ZM974 1H125V197H974V1Z" />
            <glyph unicode="&#xb2;" horiz-adv-x="758" d="M690 667H78V792L363 1053Q476 1156 476 1223Q476 1265 449 1291T370 1318Q312 1318 279 1285T246 1198H60Q60 1314 144 1390T364 1467Q507 1467 585 1403T663 1224Q663 1117 557 1015L459 928L319 815H690V667Z" />
            <glyph unicode="&#xb3;" horiz-adv-x="758" d="M268 1132H349Q481 1132 481 1229Q481 1264 454 1290T365 1317Q317 1317 285 1298T252 1243H66Q66 1342 148 1404T361 1466Q504 1466 585 1406T667 1240Q667 1121 532 1070Q681 1029 681 887Q681 781 593 718T361
655Q226 655 141 718T55 895H241Q241 857 275 831T370 804Q433 804 463 831T494 901Q494 1002 360 1003H268V1132Z" />
            <glyph unicode="&#xb4;" horiz-adv-x="667" d="M307 1536H584L307 1233H112L307 1536Z" />
            <glyph unicode="&#xb5;" horiz-adv-x="1211" d="M388 1082V446Q390 305 434 240T585 175Q753 175 812 296V1082H1055V0H832L825 86Q733 -21 586 -21Q465 -21 388 34V-416H146V1082H388Z" />
            <glyph unicode="&#xb6;" horiz-adv-x="1005" d="M644 0V520H564Q334 520 202 647T69 988Q69 1201 202 1328T565 1456H854V0H644Z" />
            <glyph unicode="&#xb7;" horiz-adv-x="578" d="M142 714Q142 772 179 811T283 850T387 811T425 714Q425 655 386 618T283 581Q218 581 180 618T142 714Z" />
            <glyph unicode="&#xb8;" horiz-adv-x="528" d="M318 3L307 -51Q457 -78 457 -224Q457 -329 371 -388T130 -447L123 -310Q189 -310 224 -287T260 -221Q260 -176 225 -159T109 -136L141 3H318Z" />
            <glyph unicode="&#xb9;" horiz-adv-x="758" d="M514 672H329V1242L128 1194V1340L495 1459H514V672Z" />
            <glyph unicode="&#xba;" horiz-adv-x="935" d="M119 1121Q119 1281 214 1378T465 1476T716 1379T812 1116V1044Q812 885 718 788T467 690Q309 690 214 788T119 1049V1121ZM294 1044Q294 946 340 891T467 836Q545 836 590 890T637 1041V1121Q637 1218 591 1273T465
1328Q387 1328 341 1274T294 1117V1044Z" />
            <glyph unicode="&#xbb;" horiz-adv-x="994" d="M260 937L548 547V528L260 138H93L340 537L93 937H260ZM633 937L921 547V528L633 138H466L713 537L466 937H633Z" />
            <glyph unicode="&#xbc;" horiz-adv-x="1488" d="M475 664H290V1234L89 1186V1332L456 1451H475V664ZM453 117L328 189L1039 1327L1164 1255L453 117ZM1316 314H1411V163H1316V0H1129V163H771L762 284L1127 789H1316V314ZM943 314H1129V556L1115 534L943 314Z" />
            <glyph unicode="&#xbd;" horiz-adv-x="1579" d="M410 117L285 189L996 1327L1121 1255L410 117ZM466 667H281V1237L80 1189V1335L447 1454H466V667ZM1484 0H872V125L1157 386Q1270 489 1270 556Q1270 598 1243 624T1164 651Q1106 651 1073 618T1040 531H854Q854
647 938 723T1158 800Q1301 800 1379 736T1457 557Q1457 450 1351 348L1253 261L1113 148H1484V0Z" />
            <glyph unicode="&#xbe;" horiz-adv-x="1623" d="M594 117L469 189L1180 1327L1305 1255L594 117ZM1437 314H1532V163H1437V0H1250V163H892L883 284L1248 789H1437V314ZM1064 314H1250V556L1236 534L1064 314ZM316 1133H397Q529 1133 529 1230Q529 1265 502 1291T413
1318Q365 1318 333 1299T300 1244H114Q114 1343 196 1405T409 1467Q552 1467 633 1407T715 1241Q715 1122 580 1071Q729 1030 729 888Q729 782 641 719T409 656Q274 656 189 719T103 896H289Q289 858 323 832T418 805Q481 805 511 832T542 902Q542 1003 408 1004H316V1133Z"
            />
            <glyph unicode="&#xbf;" horiz-adv-x="996" d="M630 661Q628 537 602 465T502 313L399 207Q309 110 309 4Q309 -90 358 -136T496 -183Q584 -183 637 -133T690 0H933Q931 -177 812 -281T498 -385Q292 -385 179 -285T66 0Q66 165 221 328L313 421Q391 493 401 608L403
661H630ZM650 972Q650 916 615 879T513 841T411 878T375 972Q375 1027 411 1064T513 1102T614 1065T650 972Z" />
            <glyph unicode="&#xc0;" horiz-adv-x="1363" d="M963 339H399L281 0H18L568 1456H795L1346 0H1082L963 339ZM470 543H892L681 1147L470 543ZM812 1543H610L340 1846H617L812 1543Z" />
            <glyph unicode="&#xc1;" horiz-adv-x="1363" d="M963 339H399L281 0H18L568 1456H795L1346 0H1082L963 339ZM470 543H892L681 1147L470 543ZM757 1846H1034L757 1543H562L757 1846Z" />
            <glyph unicode="&#xc2;" horiz-adv-x="1363" d="M963 339H399L281 0H18L568 1456H795L1346 0H1082L963 339ZM470 543H892L681 1147L470 543ZM1030 1569V1558H835L685 1714L536 1558H343V1571L614 1847H757L1030 1569Z" />
            <glyph unicode="&#xc3;" horiz-adv-x="1363" d="M963 339H399L281 0H18L568 1456H795L1346 0H1082L963 339ZM470 543H892L681 1147L470 543ZM1052 1824Q1052 1714 989 1641T829 1568Q790 1568 762 1576T681 1615T607 1651T559 1657Q521 1657 495 1629T468 1554L319
1562Q319 1672 382 1747T541 1822Q598 1822 678 1777T811 1732Q849 1732 876 1760T903 1836L1052 1824Z" />
            <glyph unicode="&#xc4;" horiz-adv-x="1363" d="M963 339H399L281 0H18L568 1456H795L1346 0H1082L963 339ZM470 543H892L681 1147L470 543ZM331 1676Q331 1726 364 1760T457 1794T550 1760T584 1676T550 1592T457 1558T365 1592T331 1676ZM787 1675Q787 1725
821 1759T914 1793T1007 1759T1041 1675T1007 1591T914 1557T821 1591T787 1675Z" />
            <glyph unicode="&#xc5;" horiz-adv-x="1363" d="M963 339H399L281 0H18L568 1456H795L1346 0H1082L963 339ZM470 543H892L681 1147L470 543ZM686 1940Q779 1940 843 1879T907 1732T845 1587T686 1527Q589 1527 527 1587T464 1732T527 1878T686 1940ZM574 1732Q574
1685 607 1653T686 1620Q733 1620 765 1652T798 1732Q798 1778 767 1811T686 1845T606 1812T574 1732Z" />
            <glyph unicode="&#xc6;" horiz-adv-x="1925" d="M1879 0H981L966 340H464L280 0H-10L825 1456H1817V1259H1171L1188 851H1736V654H1196L1216 196H1879V0ZM580 555H957L930 1203L580 555Z" />
            <glyph unicode="&#xc7;" horiz-adv-x="1337" d="M1259 474Q1237 241 1087 111T688 -20Q514 -20 382 62T177 297T102 650V786Q102 992 175 1149T384 1391T700 1476Q941 1476 1088 1345T1259 975H1007Q989 1132 916 1201T700 1271Q535 1271 447 1151T356 797V668Q356
432 440 308T688 184Q837 184 912 251T1007 474H1259ZM775 -2L764 -56Q914 -83 914 -229Q914 -334 828 -393T587 -452L580 -315Q646 -315 681 -292T717 -226Q717 -181 682 -164T566 -141L598 -2H775Z" />
            <glyph unicode="&#xc8;" horiz-adv-x="1158" d="M999 650H401V202H1100V0H148V1456H1093V1252H401V850H999V650ZM753 1550H551L281 1853H558L753 1550Z" />
            <glyph unicode="&#xc9;" horiz-adv-x="1158" d="M999 650H401V202H1100V0H148V1456H1093V1252H401V850H999V650ZM698 1853H975L698 1550H503L698 1853Z" />
            <glyph unicode="&#xca;" horiz-adv-x="1158" d="M999 650H401V202H1100V0H148V1456H1093V1252H401V850H999V650ZM971 1576V1565H776L626 1721L477 1565H284V1578L555 1854H698L971 1576Z" />
            <glyph unicode="&#xcb;" horiz-adv-x="1158" d="M999 650H401V202H1100V0H148V1456H1093V1252H401V850H999V650ZM272 1683Q272 1733 305 1767T398 1801T491 1767T525 1683T491 1599T398 1565T306 1599T272 1683ZM728 1682Q728 1732 762 1766T855 1800T948 1766T982
1682T948 1598T855 1564T762 1598T728 1682Z" />
            <glyph unicode="&#xcc;" horiz-adv-x="578" d="M415 0H163V1456H415V0ZM416 1550H214L-56 1853H221L416 1550Z" />
            <glyph unicode="&#xcd;" horiz-adv-x="578" d="M415 0H163V1456H415V0ZM360 1853H637L360 1550H165L360 1853Z" />
            <glyph unicode="&#xce;" horiz-adv-x="578" d="M415 0H163V1456H415V0ZM634 1576V1565H439L289 1721L140 1565H-53V1578L218 1854H361L634 1576Z" />
            <glyph unicode="&#xcf;" horiz-adv-x="578" d="M415 0H163V1456H415V0ZM-65 1683Q-65 1733 -32 1767T61 1801T154 1767T188 1683T154 1599T61 1565T-31 1599T-65 1683ZM391 1682Q391 1732 425 1766T518 1800T611 1766T645 1682T611 1598T518 1564T425 1598T391 1682Z" />
            <glyph unicode="&#xd0;" horiz-adv-x="1368" d="M178 0V652H-9V822H178V1456H608Q801 1456 950 1370T1182 1126T1264 764V691Q1264 484 1182 327T947 85T597 0H178ZM660 652H431V202H594Q797 202 903 328T1010 695V765Q1010 1002 907 1127T608 1252H431V822H660V652Z" />
            <glyph unicode="&#xd1;" horiz-adv-x="1454" d="M1303 0H1050L401 1033V0H148V1456H401L1052 419V1456H1303V0ZM1093 1824Q1093 1714 1030 1641T870 1568Q831 1568 803 1576T722 1615T648 1651T600 1657Q562 1657 536 1629T509 1554L360 1562Q360 1672 423 1747T582
1822Q639 1822 719 1777T852 1732Q890 1732 917 1760T944 1836L1093 1824Z" />
            <glyph unicode="&#xd2;" horiz-adv-x="1414" d="M1310 690Q1310 476 1236 315T1025 67T708 -20Q531 -20 393 66T179 313T102 682V764Q102 977 177 1140T390 1389T706 1476T1021 1391T1234 1145T1310 771V690ZM1057 766Q1057 1008 966 1137T706 1266Q542 1266 450
1138T355 774V690Q355 450 448 319T708 188Q876 188 966 316T1057 690V766ZM835 1543H633L363 1846H640L835 1543Z" />
            <glyph unicode="&#xd3;" horiz-adv-x="1414" d="M1310 690Q1310 476 1236 315T1025 67T708 -20Q531 -20 393 66T179 313T102 682V764Q102 977 177 1140T390 1389T706 1476T1021 1391T1234 1145T1310 771V690ZM1057 766Q1057 1008 966 1137T706 1266Q542 1266 450
1138T355 774V690Q355 450 448 319T708 188Q876 188 966 316T1057 690V766ZM780 1846H1057L780 1543H585L780 1846Z" />
            <glyph unicode="&#xd4;" horiz-adv-x="1414" d="M1310 690Q1310 476 1236 315T1025 67T708 -20Q531 -20 393 66T179 313T102 682V764Q102 977 177 1140T390 1389T706 1476T1021 1391T1234 1145T1310 771V690ZM1057 766Q1057 1008 966 1137T706 1266Q542 1266 450
1138T355 774V690Q355 450 448 319T708 188Q876 188 966 316T1057 690V766ZM1053 1569V1558H858L708 1714L559 1558H366V1571L637 1847H780L1053 1569Z" />
            <glyph unicode="&#xd5;" horiz-adv-x="1414" d="M1310 690Q1310 476 1236 315T1025 67T708 -20Q531 -20 393 66T179 313T102 682V764Q102 977 177 1140T390 1389T706 1476T1021 1391T1234 1145T1310 771V690ZM1057 766Q1057 1008 966 1137T706 1266Q542 1266 450
1138T355 774V690Q355 450 448 319T708 188Q876 188 966 316T1057 690V766ZM1075 1824Q1075 1714 1012 1641T852 1568Q813 1568 785 1576T704 1615T630 1651T582 1657Q544 1657 518 1629T491 1554L342 1562Q342 1672 405 1747T564 1822Q621 1822 701 1777T834 1732Q872
1732 899 1760T926 1836L1075 1824Z" />
            <glyph unicode="&#xd6;" horiz-adv-x="1414" d="M1310 690Q1310 476 1236 315T1025 67T708 -20Q531 -20 393 66T179 313T102 682V764Q102 977 177 1140T390 1389T706 1476T1021 1391T1234 1145T1310 771V690ZM1057 766Q1057 1008 966 1137T706 1266Q542 1266 450
1138T355 774V690Q355 450 448 319T708 188Q876 188 966 316T1057 690V766ZM354 1676Q354 1726 387 1760T480 1794T573 1760T607 1676T573 1592T480 1558T388 1592T354 1676ZM810 1675Q810 1725 844 1759T937 1793T1030 1759T1064 1675T1030 1591T937 1557T844
1591T810 1675Z" />
            <glyph unicode="&#xd7;" horiz-adv-x="1092" d="M77 364L393 686L77 1008L225 1158L540 836L856 1158L1004 1008L688 686L1004 364L856 214L540 535L225 214L77 364Z" />
            <glyph unicode="&#xd8;" horiz-adv-x="1412" d="M1314 690Q1314 476 1240 315T1029 67T711 -20Q547 -20 415 55L324 -95H155L300 143Q105 338 105 697V764Q105 977 180 1139T393 1388T709 1476Q906 1476 1049 1375L1136 1518H1303L1156 1275Q1313 1082 1314 765V690ZM358
690Q358 483 429 355L931 1181Q844 1266 709 1266Q545 1266 453 1138T358 774V690ZM1061 766Q1061 932 1017 1046L528 242Q606 188 711 188Q880 188 970 316T1061 690V766Z" />
            <glyph unicode="&#xd9;" horiz-adv-x="1335" d="M1213 1456V483Q1213 251 1065 116T669 -20Q419 -20 272 113T125 484V1456H377V482Q377 336 451 259T669 182Q961 182 961 490V1456H1213ZM794 1543H592L322 1846H599L794 1543Z" />
            <glyph unicode="&#xda;" horiz-adv-x="1335" d="M1213 1456V483Q1213 251 1065 116T669 -20Q419 -20 272 113T125 484V1456H377V482Q377 336 451 259T669 182Q961 182 961 490V1456H1213ZM739 1846H1016L739 1543H544L739 1846Z" />
            <glyph unicode="&#xdb;" horiz-adv-x="1335" d="M1213 1456V483Q1213 251 1065 116T669 -20Q419 -20 272 113T125 484V1456H377V482Q377 336 451 259T669 182Q961 182 961 490V1456H1213ZM1012 1569V1558H817L667 1714L518 1558H325V1571L596 1847H739L1012 1569Z" />
            <glyph unicode="&#xdc;" horiz-adv-x="1335" d="M1213 1456V483Q1213 251 1065 116T669 -20Q419 -20 272 113T125 484V1456H377V482Q377 336 451 259T669 182Q961 182 961 490V1456H1213ZM313 1676Q313 1726 346 1760T439 1794T532 1760T566 1676T532 1592T439
1558T347 1592T313 1676ZM769 1675Q769 1725 803 1759T896 1793T989 1759T1023 1675T989 1591T896 1557T803 1591T769 1675Z" />
            <glyph unicode="&#xdd;" horiz-adv-x="1248" d="M623 766L958 1456H1238L750 536V0H496V536L7 1456H288L623 766ZM698 1846H975L698 1543H503L698 1846Z" />
            <glyph unicode="&#xde;" horiz-adv-x="1226" d="M391 1456V1176H632Q876 1176 1013 1057T1150 738Q1150 539 1013 420T633 300H391V0H148V1456H391ZM391 981V495H637Q762 495 834 560T907 736T837 913T645 981H391Z" />
            <glyph unicode="&#xdf;" horiz-adv-x="1255" d="M378 0H136V1105Q136 1319 250 1438T571 1557Q758 1557 865 1464T973 1201Q973 1139 960 1090T912 985T866 896T855 824Q855 780 887 738T1009 622T1138 480T1179 336Q1179 165 1071 73T764 -20Q684 -20 599 -1T475
44L524 239Q569 211 632 193T750 174Q847 174 892 217T937 327Q937 376 902 421T780 535T653 671T612 819Q612 907 675 1007T738 1185Q738 1266 692 1314T566 1363Q382 1363 378 1116V0Z" />
            <glyph unicode="&#xe0;" horiz-adv-x="1108" d="M771 0Q755 31 743 101Q627 -20 459 -20Q296 -20 193 73T90 303Q90 476 218 568T586 661H735V732Q735 816 688 866T545 917Q462 917 409 876T356 770H113Q113 859 172 936T332 1058T559 1102Q749 1102 862 1007T978
738V250Q978 104 1019 17V0H771ZM504 175Q576 175 639 210T735 304V508H604Q469 508 401 461T333 328Q333 258 379 217T504 175ZM694 1233H492L222 1536H499L694 1233Z" />
            <glyph unicode="&#xe1;" horiz-adv-x="1108" d="M771 0Q755 31 743 101Q627 -20 459 -20Q296 -20 193 73T90 303Q90 476 218 568T586 661H735V732Q735 816 688 866T545 917Q462 917 409 876T356 770H113Q113 859 172 936T332 1058T559 1102Q749 1102 862 1007T978
738V250Q978 104 1019 17V0H771ZM504 175Q576 175 639 210T735 304V508H604Q469 508 401 461T333 328Q333 258 379 217T504 175ZM639 1536H916L639 1233H444L639 1536Z" />
            <glyph unicode="&#xe2;" horiz-adv-x="1108" d="M771 0Q755 31 743 101Q627 -20 459 -20Q296 -20 193 73T90 303Q90 476 218 568T586 661H735V732Q735 816 688 866T545 917Q462 917 409 876T356 770H113Q113 859 172 936T332 1058T559 1102Q749 1102 862 1007T978
738V250Q978 104 1019 17V0H771ZM504 175Q576 175 639 210T735 304V508H604Q469 508 401 461T333 328Q333 258 379 217T504 175ZM912 1259V1248H717L567 1404L418 1248H225V1261L496 1537H639L912 1259Z" />
            <glyph unicode="&#xe3;" horiz-adv-x="1108" d="M771 0Q755 31 743 101Q627 -20 459 -20Q296 -20 193 73T90 303Q90 476 218 568T586 661H735V732Q735 816 688 866T545 917Q462 917 409 876T356 770H113Q113 859 172 936T332 1058T559 1102Q749 1102 862 1007T978
738V250Q978 104 1019 17V0H771ZM504 175Q576 175 639 210T735 304V508H604Q469 508 401 461T333 328Q333 258 379 217T504 175ZM934 1514Q934 1404 871 1331T711 1258Q672 1258 644 1266T563 1305T489 1341T441 1347Q403 1347 377 1319T350 1244L201 1252Q201
1362 264 1437T423 1512Q480 1512 560 1467T693 1422Q731 1422 758 1450T785 1526L934 1514Z" />
            <glyph unicode="&#xe4;" horiz-adv-x="1108" d="M771 0Q755 31 743 101Q627 -20 459 -20Q296 -20 193 73T90 303Q90 476 218 568T586 661H735V732Q735 816 688 866T545 917Q462 917 409 876T356 770H113Q113 859 172 936T332 1058T559 1102Q749 1102 862 1007T978
738V250Q978 104 1019 17V0H771ZM504 175Q576 175 639 210T735 304V508H604Q469 508 401 461T333 328Q333 258 379 217T504 175ZM213 1366Q213 1416 246 1450T339 1484T432 1450T466 1366T432 1282T339 1248T247 1282T213 1366ZM669 1365Q669 1415 703 1449T796
1483T889 1449T923 1365T889 1281T796 1247T703 1281T669 1365Z" />
            <glyph unicode="&#xe5;" horiz-adv-x="1108" d="M771 0Q755 31 743 101Q627 -20 459 -20Q296 -20 193 73T90 303Q90 476 218 568T586 661H735V732Q735 816 688 866T545 917Q462 917 409 876T356 770H113Q113 859 172 936T332 1058T559 1102Q749 1102 862 1007T978
738V250Q978 104 1019 17V0H771ZM504 175Q576 175 639 210T735 304V508H604Q469 508 401 461T333 328Q333 258 379 217T504 175ZM568 1630Q661 1630 725 1569T789 1422T727 1277T568 1217Q471 1217 409 1277T346 1422T409 1568T568 1630ZM456 1422Q456 1375 489
1343T568 1310Q615 1310 647 1342T680 1422Q680 1468 649 1501T568 1535T488 1502T456 1422Z" />
            <glyph unicode="&#xe6;" horiz-adv-x="1729" d="M1254 -20Q1001 -20 861 141Q796 64 689 22T448 -20Q272 -20 172 68T72 312Q72 470 191 556T543 642H734V713Q734 804 687 855T551 907Q460 907 403 863T345 752L103 771Q103 917 229 1009T553 1102Q776 1102 887
969Q1018 1104 1218 1102Q1430 1102 1549 973T1668 608V471H973Q982 332 1058 253T1268 174Q1405 174 1512 232L1573 266L1646 100Q1576 44 1472 12T1254 -20ZM495 164Q553 164 621 193T734 266V475H538Q434 473 374 426T314 308Q314 243 360 204T495 164ZM1218
907Q1119 907 1056 838T976 642H1428V672Q1428 785 1374 846T1218 907Z" />
            <glyph unicode="&#xe7;" horiz-adv-x="1072" d="M569 174Q660 174 720 227T784 358H1013Q1009 257 950 170T790 31T572 -20Q345 -20 212 127T79 533V558Q79 805 211 953T571 1102Q764 1102 885 990T1013 694H784Q780 787 721 847T569 907Q451 907 387 822T322
562V523Q322 347 385 261T569 174ZM635 -2L624 -56Q774 -83 774 -229Q774 -334 688 -393T447 -452L440 -315Q506 -315 541 -292T577 -226Q577 -181 542 -164T426 -141L458 -2H635Z" />
            <glyph unicode="&#xe8;" horiz-adv-x="1099" d="M601 -20Q370 -20 227 125T83 513V543Q83 705 145 832T321 1031T573 1102Q794 1102 914 961T1035 562V464H328Q339 330 417 252T615 174Q782 174 887 309L1018 184Q953 87 845 34T601 -20ZM572 907Q472 907 411
837T332 642H795V660Q787 782 730 844T572 907ZM682 1233H480L210 1536H487L682 1233Z" />
            <glyph unicode="&#xe9;" horiz-adv-x="1099" d="M601 -20Q370 -20 227 125T83 513V543Q83 705 145 832T321 1031T573 1102Q794 1102 914 961T1035 562V464H328Q339 330 417 252T615 174Q782 174 887 309L1018 184Q953 87 845 34T601 -20ZM572 907Q472 907 411
837T332 642H795V660Q787 782 730 844T572 907ZM627 1536H904L627 1233H432L627 1536Z" />
            <glyph unicode="&#xea;" horiz-adv-x="1099" d="M601 -20Q370 -20 227 125T83 513V543Q83 705 145 832T321 1031T573 1102Q794 1102 914 961T1035 562V464H328Q339 330 417 252T615 174Q782 174 887 309L1018 184Q953 87 845 34T601 -20ZM572 907Q472 907 411
837T332 642H795V660Q787 782 730 844T572 907ZM900 1259V1248H705L555 1404L406 1248H213V1261L484 1537H627L900 1259Z" />
            <glyph unicode="&#xeb;" horiz-adv-x="1099" d="M601 -20Q370 -20 227 125T83 513V543Q83 705 145 832T321 1031T573 1102Q794 1102 914 961T1035 562V464H328Q339 330 417 252T615 174Q782 174 887 309L1018 184Q953 87 845 34T601 -20ZM572 907Q472 907 411
837T332 642H795V660Q787 782 730 844T572 907ZM201 1366Q201 1416 234 1450T327 1484T420 1450T454 1366T420 1282T327 1248T235 1282T201 1366ZM657 1365Q657 1415 691 1449T784 1483T877 1449T911 1365T877 1281T784 1247T691 1281T657 1365Z" />
            <glyph unicode="&#xec;" horiz-adv-x="538" d="M386 0H143V1082H386V0ZM652 1482H450L180 1785H457L652 1482Z" />
            <glyph unicode="&#xed;" horiz-adv-x="538" d="M386 0H143V1082H386V0ZM340 1785H617L340 1482H145L340 1785Z" />
            <glyph unicode="&#xee;" horiz-adv-x="538" d="M386 0H143V1082H386V0ZM614 1252V1241H419L269 1397L120 1241H-73V1254L198 1530H341L614 1252Z" />
            <glyph unicode="&#xef;" horiz-adv-x="538" d="M386 0H143V1082H386V0ZM-85 1359Q-85 1409 -52 1443T41 1477T134 1443T168 1359T134 1275T41 1241T-51 1275T-85 1359ZM371 1358Q371 1408 405 1442T498 1476T591 1442T625 1358T591 1274T498 1240T405 1274T371 1358Z" />
            <glyph unicode="&#xf0;" horiz-adv-x="1191" d="M834 1303Q1088 1038 1088 637V555Q1088 389 1025 258T848 53T593 -20Q455 -20 342 43T166 219T103 468Q103 617 159 732T319 910T554 973Q700 973 813 882Q764 1051 638 1173L434 1038L356 1147L528 1261Q402 1343
240 1385L315 1580Q553 1530 730 1395L910 1515L988 1406L834 1303ZM845 663L844 681Q812 729 751 757T611 785Q485 785 416 701T346 468Q346 342 416 258T597 174Q708 174 776 274T845 547V663Z" />
            <glyph unicode="&#xf1;" horiz-adv-x="1139" d="M350 1082L357 957Q477 1102 672 1102Q1010 1102 1016 715V0H773V701Q773 804 729 853T583 903Q436 903 364 770V0H121V1082H350ZM940 1514Q940 1404 877 1331T717 1258Q678 1258 650 1266T569 1305T495 1341T447
1347Q409 1347 383 1319T356 1244L207 1252Q207 1362 270 1437T429 1512Q486 1512 566 1467T699 1422Q737 1422 764 1450T791 1526L940 1514Z" />
            <glyph unicode="&#xf2;" horiz-adv-x="1166" d="M79 551Q79 710 142 837T319 1033T581 1102Q800 1102 936 961T1084 587L1085 530Q1085 370 1024 244T848 49T583 -20Q354 -20 217 132T79 539V551ZM322 530Q322 363 391 269T583 174T774 270T843 551Q843 715 773
811T581 907Q462 907 392 813T322 530ZM703 1233H501L231 1536H508L703 1233Z" />
            <glyph unicode="&#xf3;" horiz-adv-x="1166" d="M79 551Q79 710 142 837T319 1033T581 1102Q800 1102 936 961T1084 587L1085 530Q1085 370 1024 244T848 49T583 -20Q354 -20 217 132T79 539V551ZM322 530Q322 363 391 269T583 174T774 270T843 551Q843 715 773
811T581 907Q462 907 392 813T322 530ZM648 1536H925L648 1233H453L648 1536Z" />
            <glyph unicode="&#xf4;" horiz-adv-x="1166" d="M79 551Q79 710 142 837T319 1033T581 1102Q800 1102 936 961T1084 587L1085 530Q1085 370 1024 244T848 49T583 -20Q354 -20 217 132T79 539V551ZM322 530Q322 363 391 269T583 174T774 270T843 551Q843 715 773
811T581 907Q462 907 392 813T322 530ZM921 1259V1248H726L576 1404L427 1248H234V1261L505 1537H648L921 1259Z" />
            <glyph unicode="&#xf5;" horiz-adv-x="1166" d="M79 551Q79 710 142 837T319 1033T581 1102Q800 1102 936 961T1084 587L1085 530Q1085 370 1024 244T848 49T583 -20Q354 -20 217 132T79 539V551ZM322 530Q322 363 391 269T583 174T774 270T843 551Q843 715 773
811T581 907Q462 907 392 813T322 530ZM943 1514Q943 1404 880 1331T720 1258Q681 1258 653 1266T572 1305T498 1341T450 1347Q412 1347 386 1319T359 1244L210 1252Q210 1362 273 1437T432 1512Q489 1512 569 1467T702 1422Q740 1422 767 1450T794 1526L943 1514Z"
            />
            <glyph unicode="&#xf6;" horiz-adv-x="1166" d="M79 551Q79 710 142 837T319 1033T581 1102Q800 1102 936 961T1084 587L1085 530Q1085 370 1024 244T848 49T583 -20Q354 -20 217 132T79 539V551ZM322 530Q322 363 391 269T583 174T774 270T843 551Q843 715 773
811T581 907Q462 907 392 813T322 530ZM222 1366Q222 1416 255 1450T348 1484T441 1450T475 1366T441 1282T348 1248T256 1282T222 1366ZM678 1365Q678 1415 712 1449T805 1483T898 1449T932 1365T898 1281T805 1247T712 1281T678 1365Z" />
            <glyph unicode="&#xf7;" horiz-adv-x="1169" d="M1079 582H67V794H1079V582ZM576 1228Q644 1228 681 1190T718 1095T681 1001T576 963Q509 963 472 1000T435 1095T472 1190T576 1228ZM435 278Q435 336 472 374T576 412Q644 412 681 374T718 278Q718 221 681 184T576
147Q509 147 472 184T435 278Z" />
            <glyph unicode="&#xf8;" horiz-adv-x="1160" d="M79 551Q79 710 142 837T319 1033T581 1102Q687 1102 775 1068L846 1211H991L889 1003Q1085 850 1085 530Q1085 370 1024 244T848 49T583 -20Q490 -20 400 10L328 -137H183L285 70Q79 220 79 551ZM322 530Q322 374
386 276L685 885Q638 907 581 907Q462 907 392 813T322 530ZM843 551Q843 699 785 792L489 191Q532 174 583 174Q706 174 774 270T843 551Z" />
            <glyph unicode="&#xf9;" horiz-adv-x="1138" d="M780 106Q673 -20 476 -20Q300 -20 210 83T119 381V1082H362V384Q362 178 533 178Q710 178 772 305V1082H1015V0H786L780 106ZM696 1233H494L224 1536H501L696 1233Z" />
            <glyph unicode="&#xfa;" horiz-adv-x="1138" d="M780 106Q673 -20 476 -20Q300 -20 210 83T119 381V1082H362V384Q362 178 533 178Q710 178 772 305V1082H1015V0H786L780 106ZM641 1536H918L641 1233H446L641 1536Z" />
            <glyph unicode="&#xfb;" horiz-adv-x="1138" d="M780 106Q673 -20 476 -20Q300 -20 210 83T119 381V1082H362V384Q362 178 533 178Q710 178 772 305V1082H1015V0H786L780 106ZM914 1259V1248H719L569 1404L420 1248H227V1261L498 1537H641L914 1259Z" />
            <glyph unicode="&#xfc;" horiz-adv-x="1138" d="M780 106Q673 -20 476 -20Q300 -20 210 83T119 381V1082H362V384Q362 178 533 178Q710 178 772 305V1082H1015V0H786L780 106ZM215 1366Q215 1416 248 1450T341 1484T434 1450T468 1366T434 1282T341 1248T249 1282T215
1366ZM671 1365Q671 1415 705 1449T798 1483T891 1449T925 1365T891 1281T798 1247T705 1281T671 1365Z" />
            <glyph unicode="&#xfd;" horiz-adv-x="997" d="M503 348L723 1082H982L552 -164Q453 -437 216 -437Q163 -437 99 -419V-231L145 -234Q237 -234 283 -201T357 -88L392 5L12 1082H274L503 348ZM585 1536H862L585 1233H390L585 1536Z" />
            <glyph unicode="&#xfe;" horiz-adv-x="1175" d="M1079 530Q1079 283 966 132T658 -20Q480 -20 373 97V-416H130V1536H373V983Q479 1102 655 1102Q852 1102 965 955T1079 546V530ZM836 551Q836 717 771 810T587 903Q438 903 373 780V300Q439 174 589 174Q705 174
770 267T836 551Z" />
            <glyph unicode="&#xff;" horiz-adv-x="997" d="M503 348L723 1082H982L552 -164Q453 -437 216 -437Q163 -437 99 -419V-231L145 -234Q237 -234 283 -201T357 -88L392 5L12 1082H274L503 348ZM159 1366Q159 1416 192 1450T285 1484T378 1450T412 1366T378 1282T285
1248T193 1282T159 1366ZM615 1365Q615 1415 649 1449T742 1483T835 1449T869 1365T835 1281T742 1247T649 1281T615 1365Z" />
            <glyph unicode="&#x2013;" horiz-adv-x="1321" d="M1432 621H414V817H1432V621Z" />
            <glyph unicode="&#x2014;" horiz-adv-x="1584" d="M1744 621H386V817H1744V621Z" />
            <glyph unicode="&#x2018;" horiz-adv-x="448" d="M282 1562L406 1485Q315 1352 312 1208V1056H99V1194Q100 1290 151 1394T282 1562Z" />
            <glyph unicode="&#x2019;" horiz-adv-x="444" d="M175 1024L51 1101Q141 1232 144 1378V1536H357V1398Q357 1295 305 1191T175 1024Z" />
            <glyph unicode="&#x201a;" horiz-adv-x="462" d="M173 -298L50 -220Q135 -93 138 55V202H356V69Q355 -24 304 -128T173 -298Z" />
            <glyph unicode="&#x201c;" horiz-adv-x="788" d="M291 1562L415 1485Q324 1352 321 1208V1056H108V1194Q109 1290 160 1394T291 1562ZM627 1562L751 1485Q660 1352 657 1208V1056H444V1194Q445 1290 496 1394T627 1562Z" />
            <glyph unicode="&#x201d;" horiz-adv-x="795" d="M188 1024L64 1101Q154 1232 157 1378V1536H370V1398Q370 1295 318 1191T188 1024ZM522 1024L398 1101Q488 1232 491 1378V1536H704V1398Q704 1295 652 1191T522 1024Z" />
            <glyph unicode="&#x201e;" horiz-adv-x="776" d="M177 -318L50 -240Q135 -103 138 54V255H356V69Q355 -39 300 -153Q251 -253 177 -318ZM499 -318L372 -240Q460 -98 464 52V255H682V73Q682 -26 631 -136T499 -318Z" />
            <glyph unicode="&#x2022;" horiz-adv-x="715" d="M136 771Q136 866 196 926T357 987Q460 987 520 927T580 768V731Q580 637 521 578T358 518Q259 518 199 575T136 726V771Z" />
            <glyph unicode="&#x2039;" horiz-adv-x="626" d="M316 537L563 138H396L108 528V547L396 937H563L316 537Z" />
            <glyph unicode="&#x203a;" horiz-adv-x="617" d="M251 937L539 547V528L251 138H84L331 537L84 937H251Z" />
        </font>
    </defs>
</svg>
