<?xml version="1.0" standalone="no"?>
<!DOCTYPE svg PUBLIC "-//W3C//DTD SVG 1.1//EN" "http://www.w3.org/Graphics/SVG/1.1/DTD/svg11.dtd">
<svg xmlns="http://www.w3.org/2000/svg">
    <defs >
        <font id="SourceSansPro" horiz-adv-x="481" >
            <font-face
                font-family="Source Sans Pro"
                units-per-em="1000"
                panose-1="2 11 7 3 3 4 3 2 2 4"
                ascent="984"
                descent="-273"
                alphabetic="0" />
            <glyph unicode=" " glyph-name="space" horiz-adv-x="208" />
            <glyph unicode="!" glyph-name="exclam" horiz-adv-x="340" d="M101 537L96 670H244L239 537L218 231H122L101 537ZM81 80Q81 120 106 146T170 173Q208 173 233 147T259 80Q259 41 234 15T170 -12Q132 -12 107 14T81 80Z" />
            <glyph unicode="&quot;" glyph-name="quotedbl" horiz-adv-x="536" d="M81 553L76 686H224L219 553L190 354H110L81 553ZM317 553L312 686H460L455 553L426 354H346L317 553Z" />
            <glyph unicode="#" glyph-name="numbersign" horiz-adv-x="528" d="M108 187H34V281H119L133 391H54V485H145L166 650H250L230 485H334L355 650H439L419 485H498V391H407L394 281H478V187H383L360 0H275L297 187H194L171 0H86L108 187ZM308 281L322 391H218L205 281H308Z" />
            <glyph unicode="$" glyph-name="dollar" horiz-adv-x="528" d="M387 478Q360 503 335 515T278 528Q242 528 223 513T204 464Q204 440 223 424T272 392T336 361T399 322T448 267T468 186Q468 114 429 63T312 -6V-110H215V-10Q171 -5 123 14T39 66L103 165Q141 136
175 122T246 107Q288 107 307 124T327 176Q327 202 308 220T259 254T195 287T132 327T83 381T63 457Q63 531 103 579T215 642V745H312V644Q360 637 396 615T461 562L387 478Z" />
            <glyph unicode="%" glyph-name="percent" horiz-adv-x="857" d="M188 250Q153 250 123 264T72 305T38 370T26 458Q26 507 38 545T71 609T123 650T188 664Q223 664 253 650T304 610T338 545T351 458Q351 409 339 371T305 305T253 264T188 250ZM188 332Q213 332
230 360T248 458Q248 528 231 555T188 582Q163 582 146 555T128 458Q128 388 145 360T188 332ZM210 -12L562 664H647L295 -12H210ZM669 -12Q634 -12 604 2T553 43T519 108T507 196Q507 245 519 283T552 347T604 388T669 402Q704 402 734 388T785 348T819 283T832
196Q832 147 820 109T786 43T734 2T669 -12ZM669 70Q694 70 711 98T729 196Q729 266 712 293T669 320Q644 320 627 293T609 196Q609 126 626 98T669 70Z" />
            <glyph unicode="&amp;" glyph-name="ampersand" horiz-adv-x="667" d="M164 183Q164 146 190 123T261 100Q301 100 344 126Q306 157 272 191T208 261Q188 244 176 225T164 183ZM225 494Q225 476 230 456T246 416Q281 437 305 460T329 516Q329 539 318 553T284
567Q259 567 242 548T225 494ZM614 -12Q573 -4 531 13T447 54Q405 23 355 6T242 -12Q189 -12 149 3T81 43T39 102T25 174Q25 208 34 235T60 285T98 325T144 358Q125 393 115 427T104 493Q104 528 116 559T152 613T207 650T281 664Q355 664 398 624T441 516Q441
484 430 458T399 409T355 367T305 331Q333 299 366 269T436 212Q461 244 480 283T511 368H645Q627 308 601 254T536 148Q567 132 595 122T649 107L614 -12Z" />
            <glyph unicode="&apos;" glyph-name="quotesingle" horiz-adv-x="300" d="M81 553L76 686H224L219 553L190 354H110L81 553Z" />
            <glyph unicode="(" glyph-name="parenleft" horiz-adv-x="344" d="M204 -179Q141 -76 107 35T72 278Q72 410 106 521T204 735L296 697Q241 599 216 492T191 278Q191 171 216 64T296 -141L204 -179V-179Z" />
            <glyph unicode=")" glyph-name="parenright" horiz-adv-x="344" d="M48 -141Q104 -43 129 64T154 278Q154 385 129 492T48 697L140 735Q203 632 237 521T272 278Q272 146 238 35T140 -179L48 -141V-141Z" />
            <glyph unicode="*" glyph-name="asterisk" horiz-adv-x="457" d="M87 393L146 497L38 546L61 618L177 594L190 712H267L280 593L395 618L419 546L311 497L370 393L309 349L229 438L148 349L87 393Z" />
            <glyph unicode="+" glyph-name="plus" horiz-adv-x="528" d="M210 278H34V382H210V566H318V382H494V278H318V94H210V278Z" />
            <glyph unicode="," glyph-name="comma" horiz-adv-x="300" d="M46 -116Q101 -96 130 -64T159 6H151Q116 6 89 27T62 89Q62 127 89 150T154 173Q204 173 230 137T256 34Q256 -49 210 -108T76 -194L46 -116Z" />
            <glyph unicode="-" glyph-name="hyphen" horiz-adv-x="332" d="M43 305H289V201H43V305Z" />
            <glyph unicode="." glyph-name="period" horiz-adv-x="300" d="M61 80Q61 120 86 146T150 173Q188 173 213 147T239 80Q239 41 214 15T150 -12Q112 -12 87 14T61 80Z" />
            <glyph unicode="/" glyph-name="slash" horiz-adv-x="339" d="M214 710H310L109 -160H13L214 710Z" />
            <glyph unicode="0" glyph-name="zero" horiz-adv-x="528" d="M264 -12Q213 -12 171 9T100 73T54 177T37 320Q37 401 53 462T99 564T171 626T264 647Q315 647 357 627T428 565T474 462T491 320Q491 239 475 177T429 73T357 10T264 -12ZM264 102Q283 102 299 111T327
146T345 213T352 320Q352 385 346 426T327 491T299 524T264 533Q246 533 230 524T202 492T183 427T176 320Q176 255 183 213T202 146T230 112T264 102Z" />
            <glyph unicode="1" glyph-name="one" horiz-adv-x="528" d="M70 119H208V486H89V577Q141 587 177 601T247 635H355V119H474V0H70V119Z" />
            <glyph unicode="2" glyph-name="two" horiz-adv-x="528" d="M37 84Q98 141 148 190T235 283T292 364T313 436Q313 483 289 507T223 532Q188 532 161 513T110 467L30 546Q77 596 126 621T243 647Q290 647 328 633T395 592T438 528T453 445Q453 405 436 364T391
281T326 198T250 116Q274 119 303 121T356 124H484V0H37V84Z" />
            <glyph unicode="3" glyph-name="three" horiz-adv-x="528" d="M90 171Q119 143 153 125T229 107Q276 107 304 126T332 182Q332 203 325 220T298 248T246 266T161 273V377Q204 377 232 383T278 400T303 427T311 462Q311 495 291 513T233 532Q199 532 172 517T114
476L40 566Q84 604 132 625T240 647Q289 647 329 636T398 602T443 547T459 473Q459 423 432 389T353 332V328Q408 312 443 274T479 173Q479 129 460 95T409 37T334 1T243 -12Q165 -12 111 12T22 78L90 171Z" />
            <glyph unicode="4" glyph-name="four" horiz-adv-x="528" d="M294 264V367Q294 398 296 438T300 509H296Q284 483 271 456T244 402L160 264H294ZM504 152H431V0H294V152H19V253L251 635H431V264H504V152Z" />
            <glyph unicode="5" glyph-name="five" horiz-adv-x="528" d="M89 170Q118 144 151 126T226 107Q275 107 304 132T333 206Q333 254 306 279T233 304Q219 304 208 303T187 297T165 287T139 272L73 314L91 635H451V511H218L207 392Q225 400 241 403T278 407Q319 407
355 395T420 359T464 298T480 210Q480 157 461 116T410 47T336 3T247 -12Q169 -12 115 13T23 77L89 170Z" />
            <glyph unicode="6" glyph-name="six" horiz-adv-x="528" d="M278 98Q311 98 334 122T358 201Q358 252 335 272T275 293Q251 293 226 279T179 230Q184 192 194 167T217 127T245 105T278 98ZM406 483Q389 501 362 514T307 528Q281 528 258 518T218 485T189 423T176
330Q188 346 204 358T237 379T271 392T303 397Q344 397 378 385T438 349T478 288T492 201Q492 151 475 112T430 45T363 3T281 -12Q235 -12 192 6T115 62T61 159T41 303Q41 392 62 457T119 564T201 626T298 647Q361 647 407 625T483 571L406 483Z" />
            <glyph unicode="7" glyph-name="seven" horiz-adv-x="528" d="M159 0Q163 79 173 145T203 272T253 391T329 511H44V635H486V545Q431 478 398 420T346 299T319 165T307 0H159V0Z" />
            <glyph unicode="8" glyph-name="eight" horiz-adv-x="528" d="M168 179Q168 137 197 114T266 90Q303 90 327 109T351 169Q351 190 342 205T314 232T272 256T217 280Q196 260 182 234T168 179ZM303 370Q342 415 342 463Q342 500 322 522T265 545Q236 545 215 527T194
472Q194 433 224 411T303 370ZM42 162Q42 220 73 257T150 318V322Q113 350 89 385T65 472Q65 512 80 544T122 600T186 635T268 647Q311 647 347 635T408 600T447 545T461 473Q461 427 436 392T378 334V330Q424 305 456 266T488 164Q488 126 472 94T427 39T356 2T263
-12Q215 -12 175 0T105 36T59 91T42 162Z" />
            <glyph unicode="9" glyph-name="nine" horiz-adv-x="528" d="M252 342Q276 342 301 356T347 405Q337 480 310 508T248 537Q216 537 192 513T168 434Q168 383 192 363T252 342ZM121 152Q137 134 164 121T219 107Q246 107 269 117T309 150T337 211T350 305Q338 289
322 277T289 256T255 243T223 238Q182 238 148 250T88 286T49 347T34 434Q34 483 51 522T96 590T163 632T245 647Q291 647 334 629T411 573T465 476T486 332Q486 243 465 178T408 71T326 9T229 -12Q166 -12 120 11T43 64L121 152Z" />
            <glyph unicode=":" glyph-name="colon" horiz-adv-x="300" d="M61 404Q61 444 86 470T150 497Q188 497 213 471T239 404Q239 365 214 339T150 312Q112 312 87 338T61 404ZM61 80Q61 120 86 146T150 173Q188 173 213 147T239 80Q239 41 214 15T150 -12Q112 -12
87 14T61 80Z" />
            <glyph unicode=";" glyph-name="semicolon" horiz-adv-x="300" d="M61 404Q61 444 86 470T150 497Q188 497 213 471T239 404Q239 365 214 339T150 312Q112 312 87 338T61 404ZM46 -116Q101 -96 130 -64T159 6H151Q116 6 89 27T62 89Q62 127 89 150T154 173Q204
173 230 137T256 34Q256 -49 210 -108T76 -194L46 -116Z" />
            <glyph unicode="&lt;" glyph-name="less" horiz-adv-x="528" d="M34 383L494 560V439L318 381L183 334V330L318 283L494 225V104L34 281V383Z" />
            <glyph unicode="=" glyph-name="equal" horiz-adv-x="528" d="M34 498H494V394H34V498ZM34 523H494V419H34V523Z" />
            <glyph unicode="&gt;" glyph-name="greater" horiz-adv-x="528" d="M494 281L34 104V225L210 283L345 330V334L210 381L34 439V560L494 383V281Z" />
            <glyph unicode="?" glyph-name="question" horiz-adv-x="463" d="M154 231Q149 265 156 293T178 345T209 389T243 427T269 463T280 500Q280 531 262 547T213 563Q185 563 164 550T122 517L41 591Q75 632 121 657T223 682Q265 682 301 672T364 641T406 588T421
511Q421 480 410 456T383 410T348 370T314 329T289 285T283 231H154ZM130 80Q130 120 155 146T218 173Q256 173 281 147T307 80Q307 41 282 15T218 -12Q180 -12 155 14T130 80Z" />
            <glyph unicode="@" glyph-name="at" horiz-adv-x="903" d="M49 205Q49 310 85 395T182 542T326 636T500 669Q581 669 646 643T758 570T829 457T854 313Q854 244 833 193T779 107T706 55T626 38Q583 38 551 58T511 114H509Q488 85 454 67T389 48Q329 48 293 88T257
198Q257 244 272 288T315 366T379 422T459 443Q484 443 503 432T535 393H537L551 435H642L596 215Q575 129 642 129Q664 129 685 141T724 177T751 234T761 309Q761 363 746 412T698 498T613 558T488 580Q424 580 363 554T254 479T177 362T148 209Q148 135 171 80T235
-11T328 -65T440 -83Q479 -83 519 -72T592 -44L624 -124Q578 -149 530 -160T428 -172Q353 -172 285 -149T164 -79T80 38T49 205ZM368 207Q368 140 420 140Q436 140 451 150T486 185L510 320Q495 349 464 349Q441 349 424 335T394 300T375 254T368 207Z" />
            <glyph unicode="A" glyph-name="A" horiz-adv-x="573" d="M353 270L338 330Q324 379 311 434T285 540H281Q269 488 257 434T230 330L214 270H353ZM383 155H184L144 0H-6L198 652H375L579 0H423L383 155Z" />
            <glyph unicode="B" glyph-name="B" horiz-adv-x="605" d="M77 652H300Q351 652 394 645T470 618T521 568T540 490Q540 468 534 446T514 405T480 371T431 349V345Q501 332 536 295T572 192Q572 142 553 106T499 47T418 12T319 0H77V652ZM293 389Q347 389 371 410T396
469Q396 506 371 522T294 538H224V389H293ZM307 114Q428 114 428 203Q428 246 398 265T307 285H224V114H307Z" />
            <glyph unicode="C" glyph-name="C" horiz-adv-x="582" d="M46 322Q46 403 71 466T138 574T237 641T357 664Q418 664 467 639T550 579L469 488Q444 511 419 524T359 537Q325 537 296 523T244 481T210 415T197 327Q197 226 240 171T355 115Q395 115 425 131T479
173L560 84Q519 36 467 12T353 -12Q290 -12 234 9T136 73T70 177T46 322Z" />
            <glyph unicode="D" glyph-name="D" horiz-adv-x="635" d="M77 652H261Q336 652 396 633T499 575T565 474T588 329Q588 245 565 183T500 81T400 20T269 0H77V652ZM252 119Q294 119 328 130T386 165T423 230T437 329Q437 387 424 426T386 489T328 523T252 533H224V119H252Z" />
            <glyph unicode="E" glyph-name="E" horiz-adv-x="548" d="M77 652H485V528H224V397H446V274H224V124H495V0H77V652Z" />
            <glyph unicode="F" glyph-name="F" horiz-adv-x="524" d="M77 652H488V528H224V377H450V253H224V0H77V652Z" />
            <glyph unicode="G" glyph-name="G" horiz-adv-x="638" d="M46 322Q46 403 71 466T140 574T242 641T367 664Q436 664 486 638T569 579L488 488Q464 511 438 524T369 537Q331 537 300 523T245 481T210 415T197 327Q197 226 242 171T380 115Q400 115 419 120T450
135V247H342V367H580V67Q545 34 488 11T362 -12Q296 -12 239 9T138 73T71 177T46 322Z" />
            <glyph unicode="H" glyph-name="H" horiz-adv-x="674" d="M77 652H224V401H449V652H597V0H449V272H224V0H77V652Z" />
            <glyph unicode="I" glyph-name="I" horiz-adv-x="301" d="M77 652H224V0H77V652Z" />
            <glyph unicode="J" glyph-name="J" horiz-adv-x="509" d="M116 180Q134 147 158 131T207 115Q247 115 267 139T288 229V652H435V217Q435 170 423 128T385 55T320 6T226 -12Q151 -12 101 17T16 106L116 180Z" />
            <glyph unicode="K" glyph-name="K" horiz-adv-x="614" d="M77 652H224V385H228L422 652H584L387 392L620 0H459L300 275L224 175V0H77V652Z" />
            <glyph unicode="L" glyph-name="L" horiz-adv-x="518" d="M77 652H224V124H482V0H77V652Z" />
            <glyph unicode="M" glyph-name="M" horiz-adv-x="762" d="M77 652H233L342 359L381 245H385L424 359L530 652H685V0H548V239Q548 263 550 292T555 350T561 408T567 461H563L509 310L409 57H350L250 310L198 461H194Q197 437 200 409T205 351T210 292T212 239V0H77V652Z" />
            <glyph unicode="N" glyph-name="N" horiz-adv-x="665" d="M77 652H228L398 328L462 184H466Q461 236 455 300T448 422V652H588V0H437L267 325L203 467H199Q204 413 210 351T217 231V0H77V652Z" />
            <glyph unicode="O" glyph-name="O" horiz-adv-x="684" d="M342 -12Q276 -12 222 11T128 79T68 186T46 329Q46 409 67 471T128 576T221 641T342 664Q408 664 462 642T556 576T616 471T638 329Q638 249 617 186T556 79T463 12T342 -12ZM342 115Q409 115 448 172T487
329Q487 427 448 482T342 537Q275 537 236 482T197 329Q197 230 236 173T342 115Z" />
            <glyph unicode="P" glyph-name="P" horiz-adv-x="606" d="M77 652H315Q368 652 414 642T495 607T550 542T570 442Q570 385 550 343T494 274T413 234T315 221H224V0H77V652ZM306 338Q426 338 426 442Q426 493 396 514T306 535H224V338H306Z" />
            <glyph unicode="Q" glyph-name="Q" horiz-adv-x="684" d="M197 329Q197 224 236 166T342 108Q409 108 448 166T487 329Q487 427 448 482T342 537Q275 537 236 482T197 329ZM672 -157Q654 -166 625 -172T557 -178Q453 -178 382 -130T275 -5Q223 6 181 33T108 104T62
203T46 329Q46 409 67 471T128 576T221 641T342 664Q408 664 462 642T556 576T616 471T638 329Q638 197 582 112T431 0Q454 -34 493 -47T574 -61Q595 -61 613 -58T646 -49L672 -157Z" />
            <glyph unicode="R" glyph-name="R" horiz-adv-x="616" d="M224 352H300Q358 352 388 376T419 449Q419 497 389 516T300 535H224V352ZM430 0L305 235H224V0H77V652H312Q364 652 409 642T489 609T543 546T563 449Q563 377 532 331T447 261L595 0H430Z" />
            <glyph unicode="S" glyph-name="S" horiz-adv-x="556" d="M119 183Q154 153 196 134T280 115Q326 115 348 132T371 178Q371 193 365 204T346 223T316 239T277 256L192 292Q167 302 144 318T102 355T72 405T61 470Q61 510 78 545T126 607T199 649T293 664Q350 664
405 642T503 578L428 485Q396 510 364 523T293 537Q255 537 233 522T210 478Q210 463 217 453T238 434T270 418T309 401L393 367Q453 343 487 301T522 190Q522 149 506 113T458 49T380 5T276 -12Q212 -12 149 11T35 82L119 183Z" />
            <glyph unicode="T" glyph-name="T" horiz-adv-x="556" d="M204 528H25V652H531V528H352V0H204V528Z" />
            <glyph unicode="U" glyph-name="U" horiz-adv-x="665" d="M73 652H221V287Q221 191 250 153T334 115Q389 115 419 153T449 287V652H591V302Q591 138 526 63T334 -12Q207 -12 140 63T73 302V652Z" />
            <glyph unicode="V" glyph-name="V" horiz-adv-x="556" d="M-7 652H149L227 348Q242 294 253 244T280 139H284Q298 193 310 243T336 348L413 652H563L367 0H190L-7 652Z" />
            <glyph unicode="W" glyph-name="W" horiz-adv-x="813" d="M14 652H165L210 347Q216 296 223 245T236 141H240Q250 193 259 244T279 347L349 652H474L544 347Q554 297 563 246T583 141H587Q594 194 600 245T614 347L659 652H800L684 0H499L435 296Q427 334 421
372T409 447H405Q399 411 393 373T378 296L317 0H135L14 652Z" />
            <glyph unicode="X" glyph-name="X" horiz-adv-x="567" d="M192 335L22 652H186L243 529Q254 506 265 481T290 424H294Q305 455 315 480T336 529L388 652H545L376 328L556 0H392L327 133Q315 159 304 184T278 240H274Q263 210 252 185T230 133L169 0H11L192 335Z" />
            <glyph unicode="Y" glyph-name="Y" horiz-adv-x="525" d="M189 232L-8 652H150L208 502Q222 465 234 431T261 358H265Q279 396 292 430T320 502L379 652H533L336 232V0H189V232Z" />
            <glyph unicode="Z" glyph-name="Z" horiz-adv-x="541" d="M36 89L324 528H63V652H505V563L217 124H508V0H36V89Z" />
            <glyph unicode="[" glyph-name="bracketleft" horiz-adv-x="344" d="M87 708H298V630H197V-74H298V-152H87V708Z" />
            <glyph unicode="\" glyph-name="backslash" horiz-adv-x="339" d="M28 710H124L326 -160H230L28 710Z" />
            <glyph unicode="]" glyph-name="bracketright" horiz-adv-x="344" d="M148 -74V630H46V708H257V-152H46V-74H148Z" />
            <glyph unicode="^" glyph-name="asciicircum" horiz-adv-x="528" d="M205 670H323L478 274H357L311 402L266 537H262L217 402L171 274H50L205 670Z" />
            <glyph unicode="_" glyph-name="underscore" horiz-adv-x="500" d="M488 -57V-140H12V-57H488Z" />
            <glyph unicode="`" glyph-name="grave" horiz-adv-x="555" d="M129 724H271L360 574H253L129 724Z" />
            <glyph unicode="a" glyph-name="a" horiz-adv-x="534" d="M47 138Q47 216 113 260T326 319Q324 352 306 371T248 391Q216 391 184 379T116 346L64 443Q112 472 164 490T276 508Q372 508 422 454T473 284V0H353L342 51H339Q307 23 272 6T194 -12Q160 -12 133 -1T87
31T58 79T47 138ZM187 149Q187 125 202 114T244 102Q270 102 288 113T326 144V231Q247 220 217 199T187 149Z" />
            <glyph unicode="b" glyph-name="b" horiz-adv-x="573" d="M65 701H212V529L208 453Q237 479 270 493T339 508Q384 508 420 490T481 440T520 361T534 257Q534 193 517 143T470 59T403 6T325 -12Q292 -12 259 4T196 52H192L180 0H65V701ZM212 140Q232 122 252 115T291
108Q329 108 356 142T383 254Q383 388 297 388Q253 388 212 343V140Z" />
            <glyph unicode="c" glyph-name="c" horiz-adv-x="467" d="M36 248Q36 310 57 358T113 440T196 490T294 508Q340 508 377 493T439 451L372 360Q337 389 303 389Q249 389 218 351T187 248Q187 183 218 145T298 107Q325 107 347 118T387 143L446 50Q410 18 366 3T281
-12Q229 -12 185 5T107 56T55 137T36 248Z" />
            <glyph unicode="d" glyph-name="d" horiz-adv-x="573" d="M39 248Q39 309 56 357T102 438T168 490T245 508Q287 508 314 494T367 456L361 532V701H508V0H388L378 49H374Q348 23 313 6T242 -12Q196 -12 159 6T95 57T54 139T39 248ZM190 250Q190 176 213 142T280
108Q304 108 323 118T361 153V356Q341 374 320 381T279 388Q244 388 217 355T190 250Z" />
            <glyph unicode="e" glyph-name="e" horiz-adv-x="518" d="M36 248Q36 308 56 356T108 438T183 490T270 508Q323 508 362 490T428 440T468 365T481 270Q481 250 479 234T475 208H178Q188 151 222 126T307 100Q360 100 414 133L463 44Q425 18 379 3T287 -12Q234
-12 188 5T108 56T55 138T36 248ZM356 299Q356 342 337 369T273 396Q238 396 212 373T177 299H356Z" />
            <glyph unicode="f" glyph-name="f" horiz-adv-x="341" d="M345 587Q317 597 294 597Q267 597 252 581T237 526V496H326V381H237V0H90V381H24V490L90 495V522Q90 561 99 596T131 657T188 698T273 713Q304 713 329 707T372 695L345 587Z" />
            <glyph unicode="g" glyph-name="g" horiz-adv-x="534" d="M155 -62Q155 -90 185 -104T265 -119Q315 -119 347 -102T379 -58Q379 -35 360 -27T303 -19H252Q226 -19 210 -18T182 -13Q155 -37 155 -62ZM34 -85Q34 -25 105 15V19Q85 32 72 52T59 103Q59 130 75 154T115
196V200Q89 218 69 251T48 329Q48 374 65 407T110 463T176 497T253 508Q297 508 330 496H511V389H432Q439 378 443 361T448 324Q448 281 433 250T392 198T330 167T253 157Q224 157 193 167Q183 159 179 151T175 130Q175 111 191 102T250 93H330Q422 93 470 64T519
-33Q519 -72 500 -104T444 -160T357 -197T242 -211Q198 -211 161 -204T95 -181T50 -142T34 -85ZM253 246Q282 246 301 266T321 329Q321 368 302 388T253 409Q224 409 205 389T185 329Q185 287 204 267T253 246Z" />
            <glyph unicode="h" glyph-name="h" horiz-adv-x="571" d="M65 701H212V529L205 440Q233 465 270 486T358 508Q439 508 475 455T512 308V0H365V289Q365 343 351 363T304 383Q276 383 256 371T212 335V0H65V701Z" />
            <glyph unicode="i" glyph-name="i" horiz-adv-x="276" d="M138 569Q101 569 77 590T53 646Q53 680 77 701T138 722Q176 722 199 701T223 646Q223 612 200 591T138 569ZM65 496H212V0H65V496Z" />
            <glyph unicode="j" glyph-name="j" horiz-adv-x="278" d="M66 496H213V3Q213 -38 205 -74T176 -137T121 -180T36 -196Q5 -196 -15 -192T-51 -182L-25 -74Q-15 -77 -6 -79T14 -81Q43 -81 54 -62T66 -1V496ZM140 569Q103 569 79 590T55 646Q55 680 79 701T140 722Q177
722 201 701T225 646Q225 612 201 591T140 569Z" />
            <glyph unicode="k" glyph-name="k" horiz-adv-x="548" d="M65 701H208V299H212L369 496H529L355 292L542 0H383L271 193L208 122V0H65V701Z" />
            <glyph unicode="l" glyph-name="l" horiz-adv-x="286" d="M65 701H212V148Q212 125 220 116T238 107Q243 107 246 107T256 109L274 0Q262 -5 244 -8T200 -12Q162 -12 136 0T95 33T72 85T65 154V701Z" />
            <glyph unicode="m" glyph-name="m" horiz-adv-x="857" d="M65 496H185L195 432H199Q230 463 265 485T349 508Q402 508 434 487T486 425Q519 459 555 483T642 508Q722 508 759 455T797 308V0H650V289Q650 343 636 363T589 383Q552 383 504 335V0H357V289Q357 343
343 363T296 383Q258 383 212 335V0H65V496Z" />
            <glyph unicode="n" glyph-name="n" horiz-adv-x="572" d="M65 496H185L195 433H199Q231 463 269 485T358 508Q439 508 475 455T512 308V0H365V289Q365 343 351 363T304 383Q276 383 256 371T212 335V0H65V496Z" />
            <glyph unicode="o" glyph-name="o" horiz-adv-x="555" d="M36 248Q36 310 56 358T109 440T187 490T278 508Q325 508 368 491T445 440T499 359T519 248Q519 186 499 138T446 56T369 6T278 -12Q231 -12 187 5T110 56T56 137T36 248ZM187 248Q187 183 209 145T278
107Q323 107 346 145T369 248Q369 313 346 351T278 389Q232 389 210 351T187 248Z" />
            <glyph unicode="p" glyph-name="p" horiz-adv-x="573" d="M212 -39V-184H65V496H185L195 447H199Q228 473 264 490T340 508Q385 508 421 490T482 439T520 360T534 256Q534 192 517 143T470 59T403 6T325 -12Q293 -12 263 1T207 40L212 -39ZM212 140Q232 122 252
115T291 108Q329 108 356 142T383 254Q383 388 297 388Q254 388 212 343V140Z" />
            <glyph unicode="q" glyph-name="q" horiz-adv-x="572" d="M39 248Q39 309 56 357T102 438T168 490T245 508Q286 508 317 494T377 447H381L393 496H508V-184H361V-33L367 43Q342 19 309 4T242 -12Q196 -12 159 6T95 57T54 139T39 248ZM190 250Q190 176 213 142T280
108Q304 108 323 118T361 153V356Q341 374 320 381T279 388Q244 388 217 355T190 250Z" />
            <glyph unicode="r" glyph-name="r" horiz-adv-x="398" d="M65 496H185L195 409H199Q226 460 264 484T340 508Q361 508 374 506T399 498L375 371Q361 375 349 377T321 379Q293 379 263 359T212 288V0H65V496Z" />
            <glyph unicode="s" glyph-name="s" horiz-adv-x="443" d="M87 149Q121 123 152 110T215 97Q248 97 263 108T278 139Q278 151 270 160T247 178T214 192T177 207Q154 216 131 228T89 257T58 298T46 353Q46 387 59 416T98 465T158 496T236 508Q293 508 336 489T411
445L345 357Q318 377 292 388T240 399Q184 399 184 360Q184 348 192 340T213 324T244 311T281 297Q305 288 328 277T371 248T403 207T415 148Q415 114 402 85T363 35T299 1T211 -12Q162 -12 111 7T21 57L87 149Z" />
            <glyph unicode="t" glyph-name="t" horiz-adv-x="383" d="M85 381H17V490L93 496L110 628H232V496H351V381H232V182Q232 140 249 122T296 103Q308 103 320 106T343 113L366 6Q346 0 319 -6T256 -12Q210 -12 178 2T125 41T95 101T85 180V381Z" />
            <glyph unicode="u" glyph-name="u" horiz-adv-x="568" d="M60 496H207V207Q207 153 222 133T269 113Q297 113 316 126T357 168V496H504V0H384L373 69H370Q338 31 302 10T214 -12Q133 -12 97 41T60 188V496Z" />
            <glyph unicode="v" glyph-name="v" horiz-adv-x="523" d="M12 496H160L224 262Q234 225 243 187T263 109H267Q276 148 285 186T305 262L370 496H511L349 0H179L12 496Z" />
            <glyph unicode="w" glyph-name="w" horiz-adv-x="776" d="M24 496H170L218 266Q224 229 229 193T240 119H244Q251 157 257 194T273 266L328 496H455L511 266Q520 229 527 193T542 119H546Q553 157 557 193T569 266L616 496H752L633 0H461L416 198Q408 233 402
268T389 343H385Q378 303 373 268T360 198L316 0H148L24 496Z" />
            <glyph unicode="x" glyph-name="x" horiz-adv-x="514" d="M166 258L23 496H181L225 416Q235 395 245 374T267 331H271Q279 352 288 373T305 416L339 496H491L347 241L500 0H342L294 82Q282 103 271 125T247 168H243Q234 147 224 126T205 82L166 0H14L166 258Z" />
            <glyph unicode="y" glyph-name="y" horiz-adv-x="521" d="M76 -72Q83 -74 92 -76T109 -78Q146 -78 166 -60T196 -13L203 13L12 496H160L231 283Q242 249 251 214T270 142H274Q282 177 290 212T308 283L368 496H509L337 -5Q319 -52 300 -87T255 -146T197 -182T120
-194Q97 -194 81 -192T50 -184L76 -72V-72Z" />
            <glyph unicode="z" glyph-name="z" horiz-adv-x="460" d="M38 79L246 381H61V496H429V418L221 115H436V0H38V79Z" />
            <glyph unicode="{" glyph-name="braceleft" horiz-adv-x="344" d="M298 -74V-152H235Q169 -152 138 -122T107 -10Q107 17 108 38T112 78T115 117T117 161Q117 174 113 187T98 210T72 227T31 235V321Q55 322 71 328T98 345T112 369T117 395Q117 419 116 438T112
477T109 518T107 566Q107 647 138 677T235 708H298V630H279Q248 630 237 616T226 560Q226 519 228 481T230 397Q230 340 212 315T156 280V276Q194 267 212 242T230 159Q230 113 228 75T226 -4Q226 -45 237 -59T279 -74H298Z" />
            <glyph unicode="|" glyph-name="bar" horiz-adv-x="268" d="M86 750H182V-250H86V750Z" />
            <glyph unicode="}" glyph-name="braceright" horiz-adv-x="344" d="M65 -74Q96 -74 107 -60T118 -4Q118 37 116 75T114 159Q114 216 132 241T188 276V280Q150 289 132 314T114 397Q114 443 116 481T118 560Q118 601 107 615T65 630H46V708H109Q175 708 206 678T237
566Q237 539 236 518T232 478T229 439T227 395Q227 382 231 369T246 346T272 329T313 321V235Q289 234 273 228T246 211T232 187T227 161Q227 137 228 118T232 79T235 38T237 -10Q237 -91 206 -121T109 -152H46V-74H65Z" />
            <glyph unicode="~" glyph-name="asciitilde" horiz-adv-x="528" d="M29 317Q66 374 103 397T179 420Q210 420 233 408T275 382T312 356T351 344Q372 344 389 359T423 402L499 343Q462 286 425 263T349 240Q318 240 295 252T253 278T216 304T177 316Q157 316 139
301T105 258L29 317Z" />
            <glyph unicode="&#xa0;" glyph-name="uni00A0" horiz-adv-x="208" />
            <glyph unicode="&#xa1;" glyph-name="exclamdown" horiz-adv-x="340" d="M239 -41L244 -174H96L101 -41L122 265H218L239 -41ZM259 416Q259 376 234 350T170 323Q132 323 107 349T81 416Q81 455 106 481T170 508Q208 508 233 482T259 416Z" />
            <glyph unicode="&#xa2;" glyph-name="cent" horiz-adv-x="528" d="M275 432Q239 416 221 384T203 307Q203 262 221 230T275 182V432ZM487 113Q458 88 424 74T356 54V-41H275V54Q226 60 187 80T119 132T76 209T60 307Q60 360 76 403T121 477T189 529T275 558V655H356V562Q395
558 426 544T480 506L413 416Q383 440 356 443V171Q377 175 395 184T428 206L487 113Z" />
            <glyph unicode="&#xa3;" glyph-name="sterling" horiz-adv-x="528" d="M238 124H497V0H48V91Q93 111 123 150T154 244Q154 251 154 257T152 271H52V357L120 362H126Q119 382 115 402T110 442Q110 489 126 527T170 591T238 632T324 647Q380 647 421 626T497 566L417
486Q400 507 381 517T338 528Q298 528 275 505T251 434Q251 416 254 398T262 362H410V271H281Q282 264 282 257T283 243Q283 207 273 181T238 128V124Z" />
            <glyph unicode="&#xa4;" glyph-name="currency" horiz-adv-x="528" d="M20 157L81 219Q47 265 47 330Q47 362 55 389T80 439L20 501L93 575L162 505Q210 530 264 530Q316 530 366 505L435 575L508 501L447 439Q481 394 481 330Q481 297 472 270T447 219L508 157L435
83L365 154Q342 142 316 136T264 130Q209 130 163 154L93 83L20 157ZM178 330Q178 285 203 259T264 232Q300 232 325 258T350 330Q350 375 325 401T264 428Q228 428 203 402T178 330Z" />
            <glyph unicode="&#xa5;" glyph-name="yen" horiz-adv-x="528" d="M163 635L214 502Q226 469 238 436T264 371H268Q281 404 293 437T318 502L368 635H516L369 342H491V272H337V217H491V147H337V0H190V147H37V217H190V272H37V342H159L12 635H163Z" />
            <glyph unicode="&#xa6;" glyph-name="brokenbar" horiz-adv-x="268" d="M86 750H182V312H86V750ZM182 204V-250H86V204H182Z" />
            <glyph unicode="&#xa7;" glyph-name="section" horiz-adv-x="528" d="M161 337Q161 313 177 297T218 267T273 241T333 213Q367 234 367 272Q367 296 351 312T311 342T256 368T196 395Q161 372 161 337ZM379 533Q356 553 328 567T274 581Q220 581 220 542Q220 524
240 511T290 484T355 454T421 416T471 361T491 284Q491 240 470 208T409 151Q420 135 426 116T432 74Q432 40 420 11T383 -39T323 -72T240 -84Q185 -84 133 -64T46 0L131 75Q180 24 240 24Q271 24 285 36T300 67Q300 86 281 100T232 127T169 155T105 192T57 247T37
326Q37 364 58 397T117 454Q103 470 96 490T88 537Q88 605 134 647T266 690Q324 690 369 670T446 625L379 533Z" />
            <glyph unicode="&#xa8;" glyph-name="dieresis" horiz-adv-x="555" d="M179 571Q148 571 129 591T109 641Q109 670 128 690T179 710Q210 710 229 690T249 641Q249 611 230 591T179 571ZM377 571Q346 571 327 591T307 641Q307 670 326 690T377 710Q408 710 427
690T447 641Q447 611 428 591T377 571Z" />
            <glyph unicode="&#xa9;" glyph-name="copyright" horiz-adv-x="750" d="M45 325Q45 403 71 464T143 567T249 632T375 655Q441 655 501 633T606 568T677 464T704 325Q704 247 678 186T606 81T501 14T375 -9Q309 -9 249 14T144 80T72 185T45 325ZM113 325Q113 263
133 213T189 127T272 72T375 52Q430 52 478 71T561 127T616 213T637 325Q637 386 617 436T561 521T478 576T375 595Q320 595 272 576T189 522T134 436T113 325ZM194 324Q194 368 210 403T252 464T314 502T387 516Q433 516 464 499T519 457L464 396Q448 413 432
421T396 430Q348 430 324 400T299 324Q299 273 324 243T391 213Q416 213 434 222T471 247L519 179Q490 156 458 142T387 127Q345 127 310 141T249 180T209 242T194 324Z" />
            <glyph unicode="&#xaa;" glyph-name="ordfeminine" horiz-adv-x="359" d="M130 254Q83 254 56 283T29 354Q29 407 73 435T216 473Q214 495 203 506T167 517Q147 517 124 509T77 487L40 555Q73 575 109 587T185 599Q249 599 284 563T320 451V262H237L227 295H223Q205
277 182 266T130 254ZM165 332Q180 332 191 339T216 358V413Q166 408 147 394T128 362Q128 332 165 332Z" />
            <glyph unicode="&#xab;" glyph-name="guillemotleft" horiz-adv-x="480" d="M49 200V304L183 448L238 404L127 252L238 100L183 56L49 200ZM237 200V304L371 448L426 404L315 252L426 100L371 56L237 200Z" />
            <glyph unicode="&#xac;" glyph-name="logicalnot" horiz-adv-x="528" d="M34 382H494V94H386V278H34V382Z" />
            <glyph unicode="&#xad;" glyph-name="uni00AD" horiz-adv-x="332" d="M43 305H289V201H43V305Z" />
            <glyph unicode="&#xae;" glyph-name="registered" horiz-adv-x="462" d="M231 311Q190 311 154 326T90 368T48 432T32 513Q32 557 47 594T90 658T153 700T231 715Q272 715 308 700T371 658T413 594T429 513Q429 469 414 432T371 368T308 326T231 311ZM231 360Q294
360 334 401T374 513Q374 583 334 624T231 666Q199 666 173 655T128 624T98 576T87 513Q87 478 97 450T127 402T173 371T231 360ZM150 613H239Q274 613 297 597T320 547Q320 510 285 493L326 416H266L236 476H207V416H150V613ZM228 516Q243 516 250 524T258 544Q258
555 251 562T228 570H207V516H228Z" />
            <glyph unicode="&#xaf;" glyph-name="overscore" horiz-adv-x="555" d="M140 685H416V592H140V685Z" />
            <glyph unicode="&#xb0;" glyph-name="degree" horiz-adv-x="365" d="M183 398Q153 398 127 408T81 438T50 484T39 542Q39 573 50 599T80 645T126 675T183 686Q213 686 239 676T285 646T316 600T328 542Q328 510 317 484T286 439T240 409T183 398ZM183 468Q213
468 231 488T250 542Q250 574 232 594T183 615Q154 615 135 595T116 542Q116 509 135 489T183 468Z" />
            <glyph unicode="&#xb1;" glyph-name="plusminus" horiz-adv-x="528" d="M210 294H34V398H210V566H318V398H494V294H318V158H210V294ZM34 104H494V0H34V104Z" />
            <glyph unicode="&#xb2;" glyph-name="two.sups" horiz-adv-x="376" d="M45 498Q120 560 168 607T216 692Q216 721 201 737T159 753Q139 753 122 741T88 706L27 762Q87 842 176 842Q241 842 280 808T320 710Q320 686 312 664T289 619T256 575T216 530H334V440H45V498Z" />
            <glyph unicode="&#xb3;" glyph-name="three.sups" horiz-adv-x="376" d="M92 558Q127 510 175 510Q198 510 214 522T231 557Q231 608 138 608V670Q174 670 195 681T217 718Q217 738 204 749T168 760Q149 760 134 749T104 721L43 775Q75 810 108 826T187 842Q214
842 238 835T282 813T312 779T323 733Q323 702 308 681T266 643Q296 631 316 608T337 549Q337 522 325 500T292 462T244 437T186 428Q135 428 94 448T27 507L92 558Z" />
            <glyph unicode="&#xb4;" glyph-name="acute" horiz-adv-x="555" d="M303 574H196L285 724H427L303 574Z" />
            <glyph unicode="&#xb5;" glyph-name="uni00B5" horiz-adv-x="573" d="M65 496H212V207Q212 153 226 133T273 113Q301 113 320 126T362 168V496H509V0H389L378 69H374Q355 33 327 15T265 -4Q247 -4 232 0T203 18L212 -72V-200H65V496Z" />
            <glyph unicode="&#xb6;" glyph-name="paragraph" horiz-adv-x="636" d="M393 652H540V-80H393V652ZM297 197Q244 197 197 211T115 255T60 328T39 429Q39 492 59 534T113 603T194 641T293 652H337V197H297Z" />
            <glyph unicode="&#xb7;" glyph-name="middot" horiz-adv-x="300" d="M61 320Q61 360 86 386T150 413Q188 413 213 387T239 320Q239 281 214 255T150 228Q112 228 87 254T61 320Z" />
            <glyph unicode="&#xb8;" glyph-name="cedilla" horiz-adv-x="555" d="M240 4H326L306 -43Q332 -51 348 -68T364 -117Q364 -143 350 -161T311 -193T255 -212T187 -221L176 -162Q212 -158 235 -148T259 -118Q259 -105 247 -95T200 -76L240 4Z" />
            <glyph unicode="&#xb9;" glyph-name="one.sups" horiz-adv-x="376" d="M165 721H76V787Q96 790 111 794T140 803T164 814T188 830H274V440H165V721Z" />
            <glyph unicode="&#xba;" glyph-name="ordmasculine" horiz-adv-x="373" d="M186 254Q154 254 125 265T74 299T38 353T24 426Q24 467 37 499T73 553T125 587T186 599Q218 599 247 588T298 554T334 499T348 426Q348 385 335 353T299 299T247 266T186 254ZM186 336Q215
336 229 360T243 426Q243 468 229 492T186 517Q157 517 144 493T130 426Q130 385 143 361T186 336Z" />
            <glyph unicode="&#xbb;" glyph-name="guillemotright" horiz-adv-x="480" d="M165 252L54 404L109 448L243 304V200L109 56L54 100L165 252ZM353 252L242 404L297 448L431 304V200L297 56L242 100L353 252Z" />
            <glyph unicode="&#xbc;" glyph-name="onequarter" horiz-adv-x="809" d="M136 543H47V609Q67 612 82 616T111 625T135 636T159 652H245V262H136V543ZM185 -12L537 664H622L270 -12H185ZM647 157V198L653 315H649L609 238L567 157H647ZM801 87H743V0H647V87H468V141L609
390H743V157H801V87Z" />
            <glyph unicode="&#xbd;" glyph-name="onehalf" horiz-adv-x="846" d="M136 543H47V609Q67 612 82 616T111 625T135 636T159 652H245V262H136V543ZM170 -12L522 664H607L255 -12H170ZM514 58Q589 120 637 167T685 252Q685 281 670 297T628 313Q608 313 591 301T557
266L496 322Q556 402 645 402Q710 402 749 368T789 270Q789 246 781 224T758 179T725 135T685 90H803V0H514V58Z" />
            <glyph unicode="&#xbe;" glyph-name="threequarters" horiz-adv-x="818" d="M90 380Q125 332 173 332Q196 332 212 344T229 379Q229 430 136 430V492Q172 492 193 503T215 540Q215 560 202 571T166 582Q147 582 132 571T102 543L41 597Q73 632 106 648T185 664Q212
664 236 657T280 635T310 601T321 555Q321 524 306 503T264 465Q294 453 314 430T335 371Q335 344 323 322T290 284T242 259T184 250Q133 250 92 270T25 329L90 380ZM207 -12L559 664H644L292 -12H207ZM655 157V198L661 315H657L617 238L575 157H655ZM809 87H751V0H655V87H476V141L617
390H751V157H809V87Z" />
            <glyph unicode="&#xbf;" glyph-name="questiondown" horiz-adv-x="463" d="M309 265Q314 231 307 203T285 151T254 107T220 69T194 33T183 -4Q183 -35 202 -51T250 -67Q278 -67 299 -54T341 -21L422 -95Q388 -136 342 -161T240 -186Q198 -186 162 -176T99 -145T57
-92T42 -14Q42 17 53 41T80 87T115 127T149 167T174 211T181 265H309ZM334 416Q334 376 309 350T245 323Q207 323 182 349T156 416Q156 455 181 481T245 508Q283 508 308 482T334 416Z" />
            <glyph unicode="&#xc0;" glyph-name="Agrave" horiz-adv-x="573" d="M353 270L338 330Q324 379 311 434T285 540H281Q269 488 257 434T230 330L214 270H353ZM383 155H184L144 0H-6L198 652H375L579 0H423L383 155ZM121 822H277L358 702H241L121 822Z" />
            <glyph unicode="&#xc1;" glyph-name="Aacute" horiz-adv-x="573" d="M353 270L338 330Q324 379 311 434T285 540H281Q269 488 257 434T230 330L214 270H353ZM383 155H184L144 0H-6L198 652H375L579 0H423L383 155ZM325 702H208L289 822H445L325 702Z" />
            <glyph unicode="&#xc2;" glyph-name="Acircumflex" horiz-adv-x="573" d="M353 270L338 330Q324 379 311 434T285 540H281Q269 488 257 434T230 330L214 270H353ZM383 155H184L144 0H-6L198 652H375L579 0H423L383 155ZM115 702L211 822H355L451 702H338L285 763H281L228
702H115Z" />
            <glyph unicode="&#xc3;" glyph-name="Atilde" horiz-adv-x="573" d="M353 270L338 330Q324 379 311 434T285 540H281Q269 488 257 434T230 330L214 270H353ZM383 155H184L144 0H-6L198 652H375L579 0H423L383 155ZM346 703Q326 703 309 710T278 725T251 741T226
748Q213 748 203 738T188 703H113Q121 772 151 805T220 839Q240 839 257 832T288 817T315 801T340 794Q353 794 363 804T378 839H453Q445 770 415 737T346 703Z" />
            <glyph unicode="&#xc4;" glyph-name="Adieresis" horiz-adv-x="573" d="M353 270L338 330Q324 379 311 434T285 540H281Q269 488 257 434T230 330L214 270H353ZM383 155H184L144 0H-6L198 652H375L579 0H423L383 155ZM184 700Q153 700 134 720T114 770Q114 800
133 820T184 840Q215 840 234 820T254 770Q254 740 235 720T184 700ZM382 700Q351 700 332 720T312 770Q312 800 331 820T382 840Q413 840 432 820T452 770Q452 740 433 720T382 700Z" />
            <glyph unicode="&#xc5;" glyph-name="Aring" horiz-adv-x="573" d="M353 270L338 330Q324 379 311 434T285 540H281Q269 488 257 434T230 330L214 270H353ZM383 155H184L144 0H-6L198 652H375L579 0H423L383 155ZM283 697Q232 697 201 723T170 795Q170 840 201
866T283 893Q334 893 365 867T396 795Q396 750 365 724T283 697ZM283 752Q300 752 311 763T323 795Q323 815 312 826T283 838Q266 838 254 827T242 795Q242 775 254 764T283 752Z" />
            <glyph unicode="&#xc6;" glyph-name="AE" horiz-adv-x="845" d="M386 263V541H382Q362 493 343 446T303 356L261 263H386ZM793 124V0H386V149H209L141 0H-14L296 652H783V528H533V397H744V274H533V124H793Z" />
            <glyph unicode="&#xc7;" glyph-name="Ccedilla" horiz-adv-x="582" d="M46 322Q46 403 71 466T138 574T237 641T357 664Q418 664 467 639T550 579L469 488Q444 511 419 524T359 537Q325 537 296 523T244 481T210 415T197 327Q197 226 240 171T355 115Q395 115
425 131T479 173L560 84Q519 36 467 12T353 -12Q290 -12 234 9T136 73T70 177T46 322ZM311 4H397L377 -43Q403 -51 419 -68T435 -117Q435 -143 421 -161T382 -193T326 -212T258 -221L247 -162Q283 -158 306 -148T330 -118Q330 -105 318 -95T271 -76L311 4Z" />
            <glyph unicode="&#xc8;" glyph-name="Egrave" horiz-adv-x="548" d="M77 652H485V528H224V397H446V274H224V124H495V0H77V652ZM126 822H282L363 702H246L126 822Z" />
            <glyph unicode="&#xc9;" glyph-name="Eacute" horiz-adv-x="548" d="M77 652H485V528H224V397H446V274H224V124H495V0H77V652ZM330 702H213L294 822H450L330 702Z" />
            <glyph unicode="&#xca;" glyph-name="Ecircumflex" horiz-adv-x="548" d="M77 652H485V528H224V397H446V274H224V124H495V0H77V652ZM120 702L216 822H360L456 702H343L290 763H286L233 702H120Z" />
            <glyph unicode="&#xcb;" glyph-name="Edieresis" horiz-adv-x="548" d="M77 652H485V528H224V397H446V274H224V124H495V0H77V652ZM189 700Q158 700 139 720T119 770Q119 800 138 820T189 840Q220 840 239 820T259 770Q259 740 240 720T189 700ZM387 700Q356 700
337 720T317 770Q317 800 336 820T387 840Q418 840 437 820T457 770Q457 740 438 720T387 700Z" />
            <glyph unicode="&#xcc;" glyph-name="Igrave" horiz-adv-x="301" d="M77 652H224V0H77V652ZM-12 822H144L225 702H108L-12 822Z" />
            <glyph unicode="&#xcd;" glyph-name="Iacute" horiz-adv-x="301" d="M77 652H224V0H77V652ZM192 702H75L156 822H312L192 702Z" />
            <glyph unicode="&#xce;" glyph-name="Icircumflex" horiz-adv-x="301" d="M77 652H224V0H77V652ZM-18 702L78 822H222L318 702H205L152 763H148L95 702H-18Z" />
            <glyph unicode="&#xcf;" glyph-name="Idieresis" horiz-adv-x="301" d="M77 652H224V0H77V652ZM51 700Q20 700 1 720T-19 770Q-19 800 0 820T51 840Q82 840 101 820T121 770Q121 740 102 720T51 700ZM249 700Q218 700 199 720T179 770Q179 800 198 820T249 840Q280
840 299 820T319 770Q319 740 300 720T249 700Z" />
            <glyph unicode="&#xd0;" glyph-name="Eth" horiz-adv-x="660" d="M277 119Q319 119 353 130T411 165T448 230T462 329Q462 387 449 426T411 489T353 523T277 533H249V372H374V301H249V119H277ZM286 652Q361 652 421 633T524 575T590 474T613 329Q613 245 590 183T525
81T425 20T294 0H102V301H26V367L102 372V652H286Z" />
            <glyph unicode="&#xd1;" glyph-name="Ntilde" horiz-adv-x="665" d="M77 652H228L398 328L462 184H466Q461 236 455 300T448 422V652H588V0H437L267 325L203 467H199Q204 413 210 351T217 231V0H77V652ZM396 703Q376 703 359 710T328 725T301 741T276 748Q263
748 253 738T238 703H163Q171 772 201 805T270 839Q290 839 307 832T338 817T365 801T390 794Q403 794 413 804T428 839H503Q495 770 465 737T396 703Z" />
            <glyph unicode="&#xd2;" glyph-name="Ograve" horiz-adv-x="684" d="M342 -12Q276 -12 222 11T128 79T68 186T46 329Q46 409 67 471T128 576T221 641T342 664Q408 664 462 642T556 576T616 471T638 329Q638 249 617 186T556 79T463 12T342 -12ZM342 115Q409 115
448 172T487 329Q487 427 448 482T342 537Q275 537 236 482T197 329Q197 230 236 173T342 115ZM180 822H336L417 702H300L180 822Z" />
            <glyph unicode="&#xd3;" glyph-name="Oacute" horiz-adv-x="684" d="M342 -12Q276 -12 222 11T128 79T68 186T46 329Q46 409 67 471T128 576T221 641T342 664Q408 664 462 642T556 576T616 471T638 329Q638 249 617 186T556 79T463 12T342 -12ZM342 115Q409 115
448 172T487 329Q487 427 448 482T342 537Q275 537 236 482T197 329Q197 230 236 173T342 115ZM384 702H267L348 822H504L384 702Z" />
            <glyph unicode="&#xd4;" glyph-name="Ocircumflex" horiz-adv-x="684" d="M342 -12Q276 -12 222 11T128 79T68 186T46 329Q46 409 67 471T128 576T221 641T342 664Q408 664 462 642T556 576T616 471T638 329Q638 249 617 186T556 79T463 12T342 -12ZM342 115Q409
115 448 172T487 329Q487 427 448 482T342 537Q275 537 236 482T197 329Q197 230 236 173T342 115ZM174 702L270 822H414L510 702H397L344 763H340L287 702H174Z" />
            <glyph unicode="&#xd5;" glyph-name="Otilde" horiz-adv-x="684" d="M342 -12Q276 -12 222 11T128 79T68 186T46 329Q46 409 67 471T128 576T221 641T342 664Q408 664 462 642T556 576T616 471T638 329Q638 249 617 186T556 79T463 12T342 -12ZM342 115Q409 115
448 172T487 329Q487 427 448 482T342 537Q275 537 236 482T197 329Q197 230 236 173T342 115ZM405 703Q385 703 368 710T337 725T310 741T285 748Q272 748 262 738T247 703H172Q180 772 210 805T279 839Q299 839 316 832T347 817T374 801T399 794Q412 794 422
804T437 839H512Q504 770 474 737T405 703Z" />
            <glyph unicode="&#xd6;" glyph-name="Odieresis" horiz-adv-x="684" d="M342 -12Q276 -12 222 11T128 79T68 186T46 329Q46 409 67 471T128 576T221 641T342 664Q408 664 462 642T556 576T616 471T638 329Q638 249 617 186T556 79T463 12T342 -12ZM342 115Q409
115 448 172T487 329Q487 427 448 482T342 537Q275 537 236 482T197 329Q197 230 236 173T342 115ZM243 700Q212 700 193 720T173 770Q173 800 192 820T243 840Q274 840 293 820T313 770Q313 740 294 720T243 700ZM441 700Q410 700 391 720T371 770Q371 800 390
820T441 840Q472 840 491 820T511 770Q511 740 492 720T441 700Z" />
            <glyph unicode="&#xd7;" glyph-name="multiply" horiz-adv-x="528" d="M48 186L190 329L48 473L121 547L264 403L407 547L480 473L338 329L480 186L407 112L264 256L121 112L48 186Z" />
            <glyph unicode="&#xd8;" glyph-name="Oslash" horiz-adv-x="684" d="M264 143Q298 115 343 115Q410 115 449 172T488 329Q488 374 479 410L264 143ZM431 503Q395 537 343 537Q276 537 237 482T198 329Q198 301 201 276T211 230L431 503ZM584 540Q610 499 624 447T639
329Q639 249 618 186T557 79T464 12T343 -12Q249 -12 178 36L116 -41L40 17L109 103Q80 146 64 203T47 329Q47 409 68 471T129 576T222 641T343 664Q445 664 518 611L584 693L660 634L584 540Z" />
            <glyph unicode="&#xd9;" glyph-name="Ugrave" horiz-adv-x="665" d="M73 652H221V287Q221 191 250 153T334 115Q389 115 419 153T449 287V652H591V302Q591 138 526 63T334 -12Q207 -12 140 63T73 302V652ZM170 822H326L407 702H290L170 822Z" />
            <glyph unicode="&#xda;" glyph-name="Uacute" horiz-adv-x="665" d="M73 652H221V287Q221 191 250 153T334 115Q389 115 419 153T449 287V652H591V302Q591 138 526 63T334 -12Q207 -12 140 63T73 302V652ZM374 702H257L338 822H494L374 702Z" />
            <glyph unicode="&#xdb;" glyph-name="Ucircumflex" horiz-adv-x="665" d="M73 652H221V287Q221 191 250 153T334 115Q389 115 419 153T449 287V652H591V302Q591 138 526 63T334 -12Q207 -12 140 63T73 302V652ZM164 702L260 822H404L500 702H387L334 763H330L277
702H164Z" />
            <glyph unicode="&#xdc;" glyph-name="Udieresis" horiz-adv-x="665" d="M73 652H221V287Q221 191 250 153T334 115Q389 115 419 153T449 287V652H591V302Q591 138 526 63T334 -12Q207 -12 140 63T73 302V652ZM233 700Q202 700 183 720T163 770Q163 800 182 820T233
840Q264 840 283 820T303 770Q303 740 284 720T233 700ZM431 700Q400 700 381 720T361 770Q361 800 380 820T431 840Q462 840 481 820T501 770Q501 740 482 720T431 700Z" />
            <glyph unicode="&#xdd;" glyph-name="Yacute" horiz-adv-x="525" d="M189 232L-8 652H150L208 502Q222 465 234 431T261 358H265Q279 396 292 430T320 502L379 652H533L336 232V0H189V232ZM304 702H187L268 822H424L304 702Z" />
            <glyph unicode="&#xde;" glyph-name="Thorn" horiz-adv-x="617" d="M77 652H224V553H315Q368 553 414 543T495 508T550 443T570 344Q570 286 550 245T494 176T413 136T315 123H224V0H77V652ZM306 240Q426 240 426 344Q426 395 396 415T306 436H224V240H306Z" />
            <glyph unicode="&#xdf;" glyph-name="germandbls" horiz-adv-x="632" d="M65 487Q65 535 79 576T123 647T197 694T302 711Q353 711 391 697T455 660T494 606T507 544Q507 508 495 484T468 440T441 404T429 368Q429 351 442 340T474 317T517 293T559 262T592 217T605
152Q605 118 594 88T559 36T501 1T421 -12Q376 -12 341 0T270 33L321 133Q370 97 416 97Q442 97 456 110T471 145Q471 164 458 177T426 202T383 226T341 255T308 294T295 350Q295 379 306 400T330 440T355 479T366 527Q366 556 350 575T302 595Q256 595 233 562T210
470V0H65V487Z" />
            <glyph unicode="&#xe0;" glyph-name="agrave" horiz-adv-x="534" d="M47 138Q47 216 113 260T326 319Q324 352 306 371T248 391Q216 391 184 379T116 346L64 443Q112 472 164 490T276 508Q372 508 422 454T473 284V0H353L342 51H339Q307 23 272 6T194 -12Q160
-12 133 -1T87 31T58 79T47 138ZM187 149Q187 125 202 114T244 102Q270 102 288 113T326 144V231Q247 220 217 199T187 149ZM132 724H274L363 574H256L132 724Z" />
            <glyph unicode="&#xe1;" glyph-name="aacute" horiz-adv-x="534" d="M47 138Q47 216 113 260T326 319Q324 352 306 371T248 391Q216 391 184 379T116 346L64 443Q112 472 164 490T276 508Q372 508 422 454T473 284V0H353L342 51H339Q307 23 272 6T194 -12Q160
-12 133 -1T87 31T58 79T47 138ZM187 149Q187 125 202 114T244 102Q270 102 288 113T326 144V231Q247 220 217 199T187 149ZM306 574H199L288 724H430L306 574Z" />
            <glyph unicode="&#xe2;" glyph-name="acircumflex" horiz-adv-x="534" d="M47 138Q47 216 113 260T326 319Q324 352 306 371T248 391Q216 391 184 379T116 346L64 443Q112 472 164 490T276 508Q372 508 422 454T473 284V0H353L342 51H339Q307 23 272 6T194 -12Q160
-12 133 -1T87 31T58 79T47 138ZM187 149Q187 125 202 114T244 102Q270 102 288 113T326 144V231Q247 220 217 199T187 149ZM223 724H339L435 574H336L283 653H279L226 574H127L223 724Z" />
            <glyph unicode="&#xe3;" glyph-name="atilde" horiz-adv-x="534" d="M47 138Q47 216 113 260T326 319Q324 352 306 371T248 391Q216 391 184 379T116 346L64 443Q112 472 164 490T276 508Q372 508 422 454T473 284V0H353L342 51H339Q307 23 272 6T194 -12Q160
-12 133 -1T87 31T58 79T47 138ZM187 149Q187 125 202 114T244 102Q270 102 288 113T326 144V231Q247 220 217 199T187 149ZM115 575Q123 644 151 677T219 710Q239 710 256 703T287 688T313 673T337 666Q350 666 358 676T372 710H447Q439 642 411 609T343 575Q323
575 307 582T276 597T249 613T225 620Q212 620 204 610T190 575H115V575Z" />
            <glyph unicode="&#xe4;" glyph-name="adieresis" horiz-adv-x="534" d="M47 138Q47 216 113 260T326 319Q324 352 306 371T248 391Q216 391 184 379T116 346L64 443Q112 472 164 490T276 508Q372 508 422 454T473 284V0H353L342 51H339Q307 23 272 6T194 -12Q160
-12 133 -1T87 31T58 79T47 138ZM187 149Q187 125 202 114T244 102Q270 102 288 113T326 144V231Q247 220 217 199T187 149ZM182 571Q151 571 132 591T112 641Q112 670 131 690T182 710Q213 710 232 690T252 641Q252 611 233 591T182 571ZM380 571Q349 571 330
591T310 641Q310 670 329 690T380 710Q411 710 430 690T450 641Q450 611 431 591T380 571Z" />
            <glyph unicode="&#xe5;" glyph-name="aring" horiz-adv-x="534" d="M47 138Q47 216 113 260T326 319Q324 352 306 371T248 391Q216 391 184 379T116 346L64 443Q112 472 164 490T276 508Q372 508 422 454T473 284V0H353L342 51H339Q307 23 272 6T194 -12Q160 -12
133 -1T87 31T58 79T47 138ZM187 149Q187 125 202 114T244 102Q270 102 288 113T326 144V231Q247 220 217 199T187 149ZM281 548Q230 548 199 575T168 650Q168 697 199 724T281 752Q332 752 363 725T394 650Q394 603 363 576T281 548ZM281 603Q298 603 310 616T322
650Q322 671 310 684T281 697Q264 697 252 684T240 650Q240 629 252 616T281 603Z" />
            <glyph unicode="&#xe6;" glyph-name="ae" horiz-adv-x="786" d="M187 149Q187 125 202 114T244 102Q270 102 293 113T337 144Q326 175 323 210L322 231Q249 220 218 199T187 149ZM64 443Q112 472 162 490T267 508Q313 508 348 488T405 433Q437 469 472 488T552
508Q601 508 638 490T699 439T736 362T749 267Q749 247 747 231T743 205H457Q465 153 498 128T576 103Q604 103 629 113T681 139L731 44Q693 18 647 3T556 -12Q500 -12 459 9T385 65Q332 23 288 6T194 -12Q160 -12 133 -1T87 31T58 79T47 137Q47 216 112 260T323
320Q321 352 305 371T246 391Q216 391 184 379T116 346L64 443ZM624 295Q624 340 606 368T547 396Q512 396 488 372T457 295H624Z" />
            <glyph unicode="&#xe7;" glyph-name="ccedilla" horiz-adv-x="467" d="M36 248Q36 310 57 358T113 440T196 490T294 508Q340 508 377 493T439 451L372 360Q337 389 303 389Q249 389 218 351T187 248Q187 183 218 145T298 107Q325 107 347 118T387 143L446 50Q410
18 366 3T281 -12Q229 -12 185 5T107 56T55 137T36 248ZM243 4H329L309 -43Q335 -51 351 -68T367 -117Q367 -143 353 -161T314 -193T258 -212T190 -221L179 -162Q215 -158 238 -148T262 -118Q262 -105 250 -95T203 -76L243 4Z" />
            <glyph unicode="&#xe8;" glyph-name="egrave" horiz-adv-x="518" d="M36 248Q36 308 56 356T108 438T183 490T270 508Q323 508 362 490T428 440T468 365T481 270Q481 250 479 234T475 208H178Q188 151 222 126T307 100Q360 100 414 133L463 44Q425 18 379 3T287
-12Q234 -12 188 5T108 56T55 138T36 248ZM356 299Q356 342 337 369T273 396Q238 396 212 373T177 299H356ZM121 724H263L352 574H245L121 724Z" />
            <glyph unicode="&#xe9;" glyph-name="eacute" horiz-adv-x="518" d="M36 248Q36 308 56 356T108 438T183 490T270 508Q323 508 362 490T428 440T468 365T481 270Q481 250 479 234T475 208H178Q188 151 222 126T307 100Q360 100 414 133L463 44Q425 18 379 3T287
-12Q234 -12 188 5T108 56T55 138T36 248ZM356 299Q356 342 337 369T273 396Q238 396 212 373T177 299H356ZM295 574H188L277 724H419L295 574Z" />
            <glyph unicode="&#xea;" glyph-name="ecircumflex" horiz-adv-x="518" d="M36 248Q36 308 56 356T108 438T183 490T270 508Q323 508 362 490T428 440T468 365T481 270Q481 250 479 234T475 208H178Q188 151 222 126T307 100Q360 100 414 133L463 44Q425 18 379
3T287 -12Q234 -12 188 5T108 56T55 138T36 248ZM356 299Q356 342 337 369T273 396Q238 396 212 373T177 299H356ZM212 724H328L424 574H325L272 653H268L215 574H116L212 724Z" />
            <glyph unicode="&#xeb;" glyph-name="edieresis" horiz-adv-x="518" d="M36 248Q36 308 56 356T108 438T183 490T270 508Q323 508 362 490T428 440T468 365T481 270Q481 250 479 234T475 208H178Q188 151 222 126T307 100Q360 100 414 133L463 44Q425 18 379 3T287
-12Q234 -12 188 5T108 56T55 138T36 248ZM356 299Q356 342 337 369T273 396Q238 396 212 373T177 299H356ZM171 571Q140 571 121 591T101 641Q101 670 120 690T171 710Q202 710 221 690T241 641Q241 611 222 591T171 571ZM369 571Q338 571 319 591T299 641Q299
670 318 690T369 710Q400 710 419 690T439 641Q439 611 420 591T369 571Z" />
            <glyph unicode="&#xec;" glyph-name="igrave" horiz-adv-x="276" d="M65 496H212V0H65V496ZM-11 724H131L220 574H113L-11 724Z" />
            <glyph unicode="&#xed;" glyph-name="iacute" horiz-adv-x="276" d="M65 496H212V0H65V496ZM163 574H56L145 724H287L163 574Z" />
            <glyph unicode="&#xee;" glyph-name="icircumflex" horiz-adv-x="276" d="M65 496H212V0H65V496ZM80 724H196L292 574H193L140 653H136L83 574H-16L80 724Z" />
            <glyph unicode="&#xef;" glyph-name="idieresis" horiz-adv-x="276" d="M65 496H212V0H65V496ZM39 571Q8 571 -11 591T-31 641Q-31 670 -12 690T39 710Q70 710 89 690T109 641Q109 611 90 591T39 571ZM237 571Q206 571 187 591T167 641Q167 670 186 690T237 710Q268
710 287 690T307 641Q307 611 288 591T237 571Z" />
            <glyph unicode="&#xf0;" glyph-name="eth" horiz-adv-x="560" d="M278 107Q320 107 346 143T373 258Q373 270 373 281T372 303Q349 328 325 337T275 346Q231 346 204 317T176 228Q176 169 206 138T278 107ZM375 601Q434 541 472 460T510 266Q510 206 494 155T447
67T372 9T273 -12Q226 -12 185 5T111 53T61 128T42 228Q42 282 59 324T104 395T169 439T245 455Q274 455 302 446T351 413Q325 490 266 546L124 475L86 540L202 598Q182 612 160 625T112 651L176 740Q211 722 246 701T314 655L457 727L495 662L375 601Z" />
            <glyph unicode="&#xf1;" glyph-name="ntilde" horiz-adv-x="572" d="M65 496H185L195 433H199Q231 463 269 485T358 508Q439 508 475 455T512 308V0H365V289Q365 343 351 363T304 383Q276 383 256 371T212 335V0H65V496ZM142 575Q150 644 178 677T246 710Q266
710 283 703T314 688T340 673T364 666Q377 666 385 676T399 710H474Q466 642 438 609T370 575Q350 575 334 582T303 597T276 613T252 620Q239 620 231 610T217 575H142V575Z" />
            <glyph unicode="&#xf2;" glyph-name="ograve" horiz-adv-x="555" d="M36 248Q36 310 56 358T109 440T187 490T278 508Q325 508 368 491T445 440T499 359T519 248Q519 186 499 138T446 56T369 6T278 -12Q231 -12 187 5T110 56T56 137T36 248ZM187 248Q187 183 209
145T278 107Q323 107 346 145T369 248Q369 313 346 351T278 389Q232 389 210 351T187 248ZM128 724H270L359 574H252L128 724Z" />
            <glyph unicode="&#xf3;" glyph-name="oacute" horiz-adv-x="555" d="M36 248Q36 310 56 358T109 440T187 490T278 508Q325 508 368 491T445 440T499 359T519 248Q519 186 499 138T446 56T369 6T278 -12Q231 -12 187 5T110 56T56 137T36 248ZM187 248Q187 183 209
145T278 107Q323 107 346 145T369 248Q369 313 346 351T278 389Q232 389 210 351T187 248ZM302 574H195L284 724H426L302 574Z" />
            <glyph unicode="&#xf4;" glyph-name="ocircumflex" horiz-adv-x="555" d="M36 248Q36 310 56 358T109 440T187 490T278 508Q325 508 368 491T445 440T499 359T519 248Q519 186 499 138T446 56T369 6T278 -12Q231 -12 187 5T110 56T56 137T36 248ZM187 248Q187
183 209 145T278 107Q323 107 346 145T369 248Q369 313 346 351T278 389Q232 389 210 351T187 248ZM219 724H335L431 574H332L279 653H275L222 574H123L219 724Z" />
            <glyph unicode="&#xf5;" glyph-name="otilde" horiz-adv-x="555" d="M36 248Q36 310 56 358T109 440T187 490T278 508Q325 508 368 491T445 440T499 359T519 248Q519 186 499 138T446 56T369 6T278 -12Q231 -12 187 5T110 56T56 137T36 248ZM187 248Q187 183 209
145T278 107Q323 107 346 145T369 248Q369 313 346 351T278 389Q232 389 210 351T187 248ZM111 575Q119 644 147 677T215 710Q235 710 252 703T283 688T309 673T333 666Q346 666 354 676T368 710H443Q435 642 407 609T339 575Q319 575 303 582T272 597T245 613T221
620Q208 620 200 610T186 575H111V575Z" />
            <glyph unicode="&#xf6;" glyph-name="odieresis" horiz-adv-x="555" d="M36 248Q36 310 56 358T109 440T187 490T278 508Q325 508 368 491T445 440T499 359T519 248Q519 186 499 138T446 56T369 6T278 -12Q231 -12 187 5T110 56T56 137T36 248ZM187 248Q187 183
209 145T278 107Q323 107 346 145T369 248Q369 313 346 351T278 389Q232 389 210 351T187 248ZM178 571Q147 571 128 591T108 641Q108 670 127 690T178 710Q209 710 228 690T248 641Q248 611 229 591T178 571ZM376 571Q345 571 326 591T306 641Q306 670 325 690T376
710Q407 710 426 690T446 641Q446 611 427 591T376 571Z" />
            <glyph unicode="&#xf7;" glyph-name="divide" horiz-adv-x="528" d="M264 433Q229 433 206 454T183 510Q183 544 206 565T264 587Q299 587 322 566T345 510Q345 476 322 455T264 433ZM183 150Q183 184 206 205T264 227Q299 227 322 206T345 150Q345 116 322 95T264
73Q229 73 206 94T183 150ZM34 382H494V278H34V382Z" />
            <glyph unicode="&#xf8;" glyph-name="oslash" horiz-adv-x="555" d="M220 122Q243 102 278 102Q323 102 350 139T377 240Q377 281 370 308L220 122ZM334 375Q312 394 278 394Q232 394 205 357T178 256Q178 216 185 189L334 375ZM462 422Q488 389 503 346T519 248Q519
186 499 138T446 56T369 6T278 -12Q204 -12 144 28L101 -25L46 17L93 75Q67 107 52 150T36 248Q36 310 56 358T109 440T187 490T278 508Q313 508 347 498T410 469L454 523L509 480L462 422Z" />
            <glyph unicode="&#xf9;" glyph-name="ugrave" horiz-adv-x="568" d="M60 496H207V207Q207 153 222 133T269 113Q297 113 316 126T357 168V496H504V0H384L373 69H370Q338 31 302 10T214 -12Q133 -12 97 41T60 188V496ZM136 724H278L367 574H260L136 724Z" />
            <glyph unicode="&#xfa;" glyph-name="uacute" horiz-adv-x="568" d="M60 496H207V207Q207 153 222 133T269 113Q297 113 316 126T357 168V496H504V0H384L373 69H370Q338 31 302 10T214 -12Q133 -12 97 41T60 188V496ZM310 574H203L292 724H434L310 574Z" />
            <glyph unicode="&#xfb;" glyph-name="ucircumflex" horiz-adv-x="568" d="M60 496H207V207Q207 153 222 133T269 113Q297 113 316 126T357 168V496H504V0H384L373 69H370Q338 31 302 10T214 -12Q133 -12 97 41T60 188V496ZM227 724H343L439 574H340L287 653H283L230
574H131L227 724Z" />
            <glyph unicode="&#xfc;" glyph-name="udieresis" horiz-adv-x="568" d="M60 496H207V207Q207 153 222 133T269 113Q297 113 316 126T357 168V496H504V0H384L373 69H370Q338 31 302 10T214 -12Q133 -12 97 41T60 188V496ZM186 571Q155 571 136 591T116 641Q116
670 135 690T186 710Q217 710 236 690T256 641Q256 611 237 591T186 571ZM384 571Q353 571 334 591T314 641Q314 670 333 690T384 710Q415 710 434 690T454 641Q454 611 435 591T384 571Z" />
            <glyph unicode="&#xfd;" glyph-name="yacute" horiz-adv-x="521" d="M76 -72Q83 -74 92 -76T109 -78Q146 -78 166 -60T196 -13L203 13L12 496H160L231 283Q242 249 251 214T270 142H274Q282 177 290 212T308 283L368 496H509L337 -5Q319 -52 300 -87T255 -146T197
-182T120 -194Q97 -194 81 -192T50 -184L76 -72V-72ZM291 574H184L273 724H415L291 574Z" />
            <glyph unicode="&#xfe;" glyph-name="thorn" horiz-adv-x="573" d="M212 -184H65V701H212V529L208 459Q234 482 266 495T332 508Q379 508 416 490T480 439T520 360T534 256Q534 192 517 143T470 59T403 6T325 -12Q289 -12 262 0T208 35L212 -39V-184ZM212 140Q232
122 252 115T291 108Q329 108 356 142T383 254Q383 388 297 388Q254 388 212 343V140Z" />
            <glyph unicode="&#xff;" glyph-name="ydieresis" horiz-adv-x="521" d="M76 -72Q83 -74 92 -76T109 -78Q146 -78 166 -60T196 -13L203 13L12 496H160L231 283Q242 249 251 214T270 142H274Q282 177 290 212T308 283L368 496H509L337 -5Q319 -52 300 -87T255 -146T197
-182T120 -194Q97 -194 81 -192T50 -184L76 -72V-72ZM167 571Q136 571 117 591T97 641Q97 670 116 690T167 710Q198 710 217 690T237 641Q237 611 218 591T167 571ZM365 571Q334 571 315 591T295 641Q295 670 314 690T365 710Q396 710 415 690T435 641Q435 611
416 591T365 571Z" />
            <glyph unicode="&#x2013;" glyph-name="endash" horiz-adv-x="480" d="M43 300H437V206H43V300Z" />
            <glyph unicode="&#x2014;" glyph-name="emdash" horiz-adv-x="800" d="M43 300H757V206H43V300Z" />
            <glyph unicode="&#x2018;" glyph-name="quoteleft" horiz-adv-x="300" d="M229 619Q184 596 162 567T139 492Q142 493 149 493Q181 493 203 474T226 420Q226 382 204 360T149 338Q102 338 79 372T55 469Q55 540 90 594T197 683L229 619Z" />
            <glyph unicode="&#x2019;" glyph-name="quoteright" horiz-adv-x="300" d="M71 416Q116 439 138 468T161 543Q158 542 152 542Q120 542 98 561T75 615Q75 653 96 675T152 697Q198 697 222 663T246 566Q246 495 211 441T103 352L71 416Z" />
            <glyph unicode="&#x201a;" glyph-name="quotesinglbase" horiz-adv-x="300" d="M71 -104Q116 -81 138 -52T161 23Q158 22 152 22Q120 22 98 41T75 95Q75 133 96 155T152 177Q198 177 222 143T246 46Q246 -25 211 -79T103 -168L71 -104Z" />
            <glyph unicode="&#x201c;" glyph-name="quotedblleft" horiz-adv-x="536" d="M229 619Q184 596 162 567T139 492Q142 493 149 493Q181 493 203 474T226 420Q226 382 204 360T149 338Q102 338 79 372T55 469Q55 540 90 594T197 683L229 619ZM465 619Q420 596 398
567T375 492Q378 493 385 493Q417 493 439 474T462 420Q462 382 440 360T385 338Q338 338 315 372T291 469Q291 540 326 594T433 683L465 619Z" />
            <glyph unicode="&#x201d;" glyph-name="quotedblright" horiz-adv-x="536" d="M71 416Q116 439 138 468T161 543Q158 542 152 542Q120 542 98 561T75 615Q75 653 96 675T152 697Q198 697 222 663T246 566Q246 495 211 441T103 352L71 416ZM307 416Q352 439 374
468T397 543Q394 542 388 542Q356 542 334 561T311 615Q311 653 332 675T388 697Q434 697 458 663T482 566Q482 495 447 441T339 352L307 416Z" />
            <glyph unicode="&#x201e;" glyph-name="quotedblbase" horiz-adv-x="536" d="M71 -104Q116 -81 138 -52T161 23Q158 22 152 22Q120 22 98 41T75 95Q75 133 96 155T152 177Q198 177 222 143T246 46Q246 -25 211 -79T103 -168L71 -104ZM307 -104Q352 -81 374 -52T397
23Q394 22 388 22Q356 22 334 41T311 95Q311 133 332 155T388 177Q434 177 458 143T482 46Q482 -25 447 -79T339 -168L307 -104Z" />
            <glyph unicode="&#x2022;" glyph-name="bullet" horiz-adv-x="345" d="M172 123Q144 123 120 133T78 163T50 207T40 262Q40 292 50 317T78 361T120 390T172 401Q200 401 224 391T267 362T295 318T305 262Q305 232 295 207T267 163T225 134T172 123Z" />
            <glyph unicode="&#x2039;" glyph-name="guilsinglleft" horiz-adv-x="292" d="M49 200V304L183 448L238 404L127 252L238 100L183 56L49 200Z" />
            <glyph unicode="&#x203a;" glyph-name="guilsinglright" horiz-adv-x="292" d="M165 252L54 404L109 448L243 304V200L109 56L54 100L165 252Z" />
        </font>
    </defs>
</svg>
