<?xml version="1.0" standalone="no"?>
<!DOCTYPE svg PUBLIC "-//W3C//DTD SVG 1.1//EN" "http://www.w3.org/Graphics/SVG/1.1/DTD/svg11.dtd">
<svg xmlns="http://www.w3.org/2000/svg">
    <defs >
        <font id="SourceSansPro" horiz-adv-x="439" >
            <font-face
                font-family="Source Sans Pro Light"
                units-per-em="1000"
                panose-1="2 11 4 3 3 4 3 2 2 4"
                ascent="984"
                descent="-273"
                alphabetic="0" />
            <glyph unicode=" " glyph-name="space" horiz-adv-x="199" />
            <glyph unicode="!" glyph-name="exclam" horiz-adv-x="259" d="M107 599V670H153L152 599L146 179H113L107 599ZM87 33Q87 55 100 67T130 79Q147 79 159 67T172 33Q172 12 160 0T130 -12Q113 -12 100 0T87 33Z" />
            <glyph unicode="&quot;" glyph-name="quotedbl" horiz-adv-x="360" d="M84 624L83 693H134V624L125 477H92L84 624ZM225 624L224 693H275V624L266 477H233L225 624Z" />
            <glyph unicode="#" glyph-name="numbersign" horiz-adv-x="479" d="M119 214H36V250H123L144 420H56V456H148L173 650H208L183 456H332L358 650H392L367 456H449V420H364L343 250H429V214H338L313 0H278L303 214H154L128 0H93L119 214ZM308 250L329 420H179L158 250H308Z" />
            <glyph unicode="$" glyph-name="dollar" horiz-adv-x="479" d="M376 552Q362 566 349 577T320 596T287 608T246 612Q194 612 162 580T130 497Q130 453 151 427T205 381T274 345T344 305T397 246T419 153Q419 81 376 38T265 -11V-110H226V-11Q174 -7 131 15T59
66L83 97Q112 71 152 49T244 27Q307 27 340 61T374 150Q374 199 353 229T299 281T230 320T160 359T107 412T85 495Q85 526 95 553T124 600T169 634T226 650V749H265V650Q314 647 345 627T402 580L376 552Z" />
            <glyph unicode="%" glyph-name="percent" horiz-adv-x="805" d="M181 257Q115 257 78 310T40 465Q40 565 77 618T181 671Q247 671 284 618T322 465Q322 364 285 311T181 257ZM181 290Q228 290 255 335T283 465Q283 549 256 593T181 638Q134 638 107 594T79 465Q79
381 106 336T181 290ZM198 -12L566 671H604L237 -12H198ZM624 -12Q558 -12 521 41T483 196Q483 296 520 349T624 402Q690 402 727 349T765 196Q765 95 728 42T624 -12ZM624 21Q671 21 698 66T726 196Q726 280 699 324T624 369Q577 369 550 325T522 196Q522 112
549 67T624 21Z" />
            <glyph unicode="&amp;" glyph-name="ampersand" horiz-adv-x="575" d="M230 26Q271 26 308 45T376 97Q323 145 274 205T189 329Q167 312 148 294T113 257T90 216T81 170Q81 137 93 111T125 66T172 37T230 26ZM168 526Q168 493 178 458T205 386Q230 404 253 422T294
460T322 501T333 549Q333 565 329 580T317 608T295 627T261 635Q217 635 193 603T168 526ZM547 -12Q482 11 406 71Q370 34 326 11T226 -12Q187 -12 152 0T92 36T51 93T36 167Q36 200 47 227T77 277T120 321T171 361Q151 403 139 444T127 524Q127 556 137 583T165
629T208 660T263 671Q317 671 345 637T373 551Q373 519 360 492T326 442T277 397T221 354Q256 291 304 232T404 128Q439 173 465 227T508 345H551Q531 277 503 216T434 103Q469 75 501 57T562 27L547 -12Z" />
            <glyph unicode="&apos;" glyph-name="quotesingle" horiz-adv-x="219" d="M84 624L83 693H134V624L125 477H92L84 624Z" />
            <glyph unicode="(" glyph-name="parenleft" horiz-adv-x="279" d="M220 -175Q158 -75 123 35T88 278Q88 410 123 520T220 731L247 715Q187 620 157 509T127 278Q127 159 157 48T247 -159L220 -175V-175Z" />
            <glyph unicode=")" glyph-name="parenright" horiz-adv-x="279" d="M32 -159Q92 -64 122 47T152 278Q152 397 122 508T32 715L59 731Q120 631 155 521T191 278Q191 146 156 36T59 -175L32 -159V-159Z" />
            <glyph unicode="*" glyph-name="asterisk" horiz-adv-x="395" d="M105 482L160 570L70 606L79 636L174 610L181 712H213L220 611L315 636L325 606L235 570L289 482L262 462L198 545L132 462L105 482Z" />
            <glyph unicode="+" glyph-name="plus" horiz-adv-x="479" d="M219 311H34V349H219V550H260V349H445V311H260V110H219V311Z" />
            <glyph unicode="," glyph-name="comma" horiz-adv-x="219" d="M48 -125Q82 -107 103 -77T125 -4Q121 -5 113 -5Q96 -5 84 6T71 37Q71 57 84 68T114 79Q137 79 151 60T165 8Q165 -47 136 -89T62 -155L48 -125Z" />
            <glyph unicode="-" glyph-name="hyphen" horiz-adv-x="299" d="M40 269H260V230H40V269Z" />
            <glyph unicode="." glyph-name="period" horiz-adv-x="219" d="M67 33Q67 55 80 67T110 79Q127 79 139 67T152 33Q152 12 140 0T110 -12Q93 -12 80 0T67 33Z" />
            <glyph unicode="/" glyph-name="slash" horiz-adv-x="357" d="M314 710H352L47 -160H9L314 710Z" />
            <glyph unicode="0" glyph-name="zero" horiz-adv-x="479" d="M239 -12Q147 -12 98 74T48 322Q48 482 97 566T239 651Q331 651 380 567T430 322Q430 161 381 75T239 -12ZM239 26Q306 26 345 100T385 322Q385 469 346 541T239 613Q173 613 133 541T93 322Q93 175
133 101T239 26Z" />
            <glyph unicode="1" glyph-name="one" horiz-adv-x="479" d="M84 39H234V569H120V599Q159 606 189 616T243 639H279V39H418V0H84V39Z" />
            <glyph unicode="2" glyph-name="two" horiz-adv-x="479" d="M41 28Q120 108 179 171T277 287T336 384T356 471Q356 531 323 572T217 613Q173 613 135 589T68 529L39 557Q75 597 118 624T221 651Q307 651 354 602T401 472Q401 424 380 377T321 277T229 165T108
35Q134 37 161 38T215 40H433V0H41V28Z" />
            <glyph unicode="3" glyph-name="three" horiz-adv-x="479" d="M55 109Q69 93 86 79T124 53T172 34T232 27Q264 27 291 37T339 65T370 110T381 168Q381 201 369 228T329 274T260 305T158 316V355Q213 355 251 366T313 395T347 439T358 494Q358 548 323 580T229
613Q184 613 147 593T82 543L56 573Q89 605 131 628T229 651Q266 651 298 641T353 611T390 563T404 497Q404 434 370 396T282 339V335Q312 329 338 315T384 279T415 231T427 169Q427 127 412 94T371 37T309 1T232 -12Q194 -12 163 -4T108 17T64 46T29 78L55 109Z"
            />
            <glyph unicode="4" glyph-name="four" horiz-adv-x="479" d="M310 229V463Q310 485 311 518T314 573H310Q298 553 285 534T258 493L70 229H310ZM448 191H353V0H310V191H16V217L313 639H353V229H448V191Z" />
            <glyph unicode="5" glyph-name="five" horiz-adv-x="479" d="M51 105Q65 90 82 76T120 51T167 34T226 27Q258 27 287 39T337 74T372 128T385 199Q385 277 343 320T229 364Q192 364 166 353T110 321L79 340L102 639H397V600H142L122 369Q147 384 174 393T236 403Q276
403 312 391T374 355T415 292T431 201Q431 150 414 111T368 44T303 2T227 -12Q189 -12 159 -5T104 15T60 43T26 74L51 105Z" />
            <glyph unicode="6" glyph-name="six" horiz-adv-x="479" d="M262 26Q290 26 313 38T354 73T381 124T391 188Q391 222 383 251T359 302T316 336T253 348Q219 348 178 327T98 252Q101 201 112 160T144 89T193 43T262 26ZM395 559Q374 585 346 598T287 612Q249 612
215 596T155 543T114 446T97 297Q130 338 171 362T258 386Q343 386 389 336T436 188Q436 144 422 108T384 45T329 3T261 -12Q164 -12 108 66T52 290Q52 390 71 459T123 571T198 632T287 651Q332 651 364 634T422 589L395 559Z" />
            <glyph unicode="7" glyph-name="seven" horiz-adv-x="479" d="M188 0Q192 97 204 177T240 329T298 466T381 600H44V639H437V613Q380 537 343 467T283 325T250 173T236 0H188V0Z" />
            <glyph unicode="8" glyph-name="eight" horiz-adv-x="479" d="M84 166Q84 136 96 111T129 66T179 36T243 25Q277 25 304 35T351 63T381 105T392 156Q392 193 376 218T332 263T269 297T197 327Q148 298 116 259T84 166ZM290 335Q331 368 352 404T374 483Q374 510
365 533T340 575T299 603T243 614Q216 614 194 605T155 581T129 543T120 495Q120 461 134 437T173 394T227 361T290 335ZM40 164Q40 196 51 224T81 274T122 314T168 344V348Q150 360 134 374T105 407T84 447T76 495Q76 529 89 558T124 607T177 639T243 651Q284
651 316 639T370 604T404 551T416 484Q416 458 407 434T385 388T355 350T325 322V318Q346 305 366 290T401 256T427 212T437 155Q437 120 423 90T384 37T322 1T243 -12Q199 -12 162 1T98 38T56 94T40 164Z" />
            <glyph unicode="9" glyph-name="nine" horiz-adv-x="479" d="M226 291Q260 291 301 313T381 388Q378 439 367 480T335 551T285 597T216 613Q189 613 165 601T124 567T97 516T87 452Q87 417 95 388T120 337T163 303T226 291ZM83 80Q104 54 132 41T192 27Q230 27
264 43T324 96T365 193T382 342Q349 302 307 278T220 254Q136 254 90 304T43 452Q43 495 57 532T95 595T150 636T218 651Q314 651 370 574T426 350Q426 249 407 180T355 69T280 7T191 -12Q146 -12 113 5T56 50L83 80Z" />
            <glyph unicode=":" glyph-name="colon" horiz-adv-x="219" d="M67 415Q67 437 80 449T110 461Q127 461 139 449T152 415Q152 394 140 382T110 370Q93 370 80 382T67 415ZM67 33Q67 55 80 67T110 79Q127 79 139 67T152 33Q152 12 140 0T110 -12Q93 -12 80 0T67 33Z" />
            <glyph unicode=";" glyph-name="semicolon" horiz-adv-x="219" d="M67 415Q67 437 80 449T110 461Q127 461 139 449T152 415Q152 394 140 382T110 370Q93 370 80 382T67 415ZM48 -125Q82 -107 103 -77T125 -4Q121 -5 113 -5Q96 -5 84 6T71 37Q71 57 84 68T114
79Q137 79 151 60T165 8Q165 -47 136 -89T62 -155L48 -125Z" />
            <glyph unicode="&lt;" glyph-name="less" horiz-adv-x="479" d="M34 354L445 518V475L213 385L80 334V330L213 279L445 189V146L34 310V354Z" />
            <glyph unicode="=" glyph-name="equal" horiz-adv-x="479" d="M34 451H445V413H34V451ZM34 504H445V466H34V504Z" />
            <glyph unicode="&gt;" glyph-name="greater" horiz-adv-x="479" d="M445 310L34 146V189L266 279L399 330V334L266 385L34 475V518L445 354V310Z" />
            <glyph unicode="?" glyph-name="question" horiz-adv-x="402" d="M163 179Q157 220 165 253T190 315T226 369T264 418T294 469T306 526Q306 549 300 570T279 608T244 633T193 643Q156 643 123 627T64 579L37 604Q66 637 105 659T196 682Q233 682 262 671T311 639T341
590T352 529Q352 495 340 467T309 412T271 361T234 308T208 249T203 179H163ZM144 33Q144 55 156 67T186 79Q203 79 216 67T229 33Q229 12 216 0T186 -12Q169 -12 157 0T144 33Z" />
            <glyph unicode="@" glyph-name="at" horiz-adv-x="814" d="M52 202Q52 300 84 379T171 515T298 602T449 633Q521 633 579 610T678 546T741 446T763 316Q763 252 746 204T702 122T643 73T579 56Q539 56 513 74T482 132H480Q454 103 424 83T358 62Q335 62 314 70T278
96T253 138T244 198Q244 234 256 274T293 347T351 401T430 423Q483 423 513 375H515L524 415H558L522 226Q488 91 582 91Q606 91 631 106T677 149T711 219T725 313Q725 377 706 430T650 520T563 577T446 598Q377 598 313 570T200 491T120 367T90 205Q90 132 112
74T173 -25T268 -88T391 -110Q441 -110 482 -97T559 -62L575 -92Q489 -146 388 -146Q316 -146 255 -123T148 -55T78 54T52 202ZM284 201Q284 144 307 121T364 98Q414 98 472 165L503 338Q485 366 469 376T429 387Q395 387 368 370T323 325T294 265T284 201Z" />
            <glyph unicode="A" glyph-name="A" horiz-adv-x="526" d="M380 265L338 388Q318 447 300 501T265 616H261Q244 555 226 501T188 388L146 265H380ZM393 226H132L54 0H8L240 659H286L518 0H470L393 226Z" />
            <glyph unicode="B" glyph-name="B" horiz-adv-x="578" d="M97 659H275Q375 659 434 621T493 499Q493 447 464 409T376 355V351Q449 340 491 301T533 192Q533 144 516 108T466 48T389 12T288 0H97V659ZM257 369Q359 369 403 401T447 500Q447 564 400 592T262 621H143V369H257ZM276
38Q375 38 431 75T488 192Q488 263 433 297T276 332H143V38H276Z" />
            <glyph unicode="C" glyph-name="C" horiz-adv-x="564" d="M55 331Q55 409 75 472T133 579T222 647T337 671Q394 671 438 647T508 592L480 562Q454 592 418 610T337 629Q283 629 240 608T166 549T119 455T103 331Q103 262 119 207T165 112T237 52T333 30Q384 30
423 50T499 111L527 82Q489 38 442 13T331 -12Q270 -12 219 12T132 80T75 188T55 331Z" />
            <glyph unicode="D" glyph-name="D" horiz-adv-x="604" d="M97 659H250Q326 659 382 636T476 570T531 467T549 332Q549 257 531 196T476 91T383 24T251 0H97V659ZM245 39Q312 39 360 60T440 121T486 213T501 332Q501 396 486 449T440 540T361 599T245 620H143V39H245Z" />
            <glyph unicode="E" glyph-name="E" horiz-adv-x="515" d="M97 659H458V619H143V370H407V330H143V40H468V0H97V659Z" />
            <glyph unicode="F" glyph-name="F" horiz-adv-x="477" d="M97 659H456V619H143V357H408V317H143V0H97V659Z" />
            <glyph unicode="G" glyph-name="G" horiz-adv-x="605" d="M55 331Q55 409 76 472T135 579T227 647T347 671Q380 671 407 664T456 646T495 620T526 592L499 562Q473 590 437 609T347 629Q290 629 245 608T169 549T120 455T103 331Q103 262 119 207T165 112T240
52T341 30Q386 30 425 43T489 80V285H331V324H533V63Q502 30 453 9T337 -12Q274 -12 222 12T133 80T76 188T55 331Z" />
            <glyph unicode="H" glyph-name="H" horiz-adv-x="639" d="M97 659H143V370H496V659H542V0H496V330H143V0H97V659Z" />
            <glyph unicode="I" glyph-name="I" horiz-adv-x="240" d="M97 659H143V0H97V659Z" />
            <glyph unicode="J" glyph-name="J" horiz-adv-x="462" d="M76 108Q100 66 130 48T203 30Q263 30 292 66T321 184V659H367V179Q367 139 358 105T330 44T279 3T203 -12Q148 -12 107 13T41 85L76 108Z" />
            <glyph unicode="K" glyph-name="K" horiz-adv-x="558" d="M97 659H143V293H145L464 659H519L309 415L548 0H495L277 380L143 227V0H97V659Z" />
            <glyph unicode="L" glyph-name="L" horiz-adv-x="467" d="M97 659H143V40H447V0H97V659Z" />
            <glyph unicode="M" glyph-name="M" horiz-adv-x="706" d="M97 659H162L300 272L352 126H356L406 272L544 659H609V0H564V433Q564 474 566 521T570 611H566L514 466L373 72H332L190 466L138 611H134Q136 569 138 522T140 433V0H97V659Z" />
            <glyph unicode="N" glyph-name="N" horiz-adv-x="636" d="M97 659H145L423 194L497 63H501Q499 111 497 159T495 255V659H539V0H491L213 465L139 596H135Q137 548 139 503T141 409V0H97V659Z" />
            <glyph unicode="O" glyph-name="O" horiz-adv-x="652" d="M326 -12Q267 -12 217 12T131 82T75 190T55 332Q55 410 75 472T131 579T217 647T326 671Q386 671 436 648T522 580T578 473T598 332Q598 254 578 191T522 82T436 13T326 -12ZM326 30Q376 30 417 51T487
112T533 207T549 332Q549 400 533 455T488 548T417 608T326 629Q276 629 235 608T164 549T119 455T103 332Q103 263 119 208T164 113T234 52T326 30Z" />
            <glyph unicode="P" glyph-name="P" horiz-adv-x="559" d="M97 659H277Q332 659 375 650T449 618T496 561T512 475Q512 378 450 331T277 283H143V0H97V659ZM266 322Q367 322 416 358T465 475Q465 517 453 544T416 589T354 613T266 620H143V322H266Z" />
            <glyph unicode="Q" glyph-name="Q" horiz-adv-x="652" d="M103 332Q103 263 119 207T164 111T234 49T326 27Q376 27 417 49T487 110T533 206T549 332Q549 400 533 455T488 548T417 608T326 629Q276 629 235 608T164 549T119 455T103 332ZM600 -144Q587 -148 566
-151T519 -155Q436 -155 381 -114T300 -11Q246 -6 201 20T124 91T73 197T55 332Q55 410 75 472T131 579T217 647T326 671Q386 671 436 648T522 580T578 473T598 332Q598 258 580 197T530 92T452 21T351 -11Q374 -61 417 -87T523 -113Q546 -113 561 -111T590 -104L600
-144Z" />
            <glyph unicode="R" glyph-name="R" horiz-adv-x="560" d="M274 341Q362 341 408 376T455 485Q455 559 408 589T274 620H143V341H274ZM462 0L283 303H143V0H97V659H286Q335 659 375 650T443 619T486 565T502 485Q502 406 457 361T333 306L515 0H462Z" />
            <glyph unicode="S" glyph-name="S" horiz-adv-x="521" d="M76 119Q112 78 162 54T269 30Q345 30 389 66T433 162Q433 193 424 214T398 250T361 277T315 300L215 345Q193 354 170 367T127 399T94 445T81 509Q81 545 95 574T135 625T196 659T273 671Q333 671 379
648T456 592L430 561Q401 592 362 610T273 629Q207 629 167 597T127 511Q127 482 138 462T166 428T203 403T241 384L341 340Q369 328 394 313T438 278T468 231T480 165Q480 127 465 95T423 39T356 2T269 -12Q197 -12 141 15T46 87L76 119Z" />
            <glyph unicode="T" glyph-name="T" horiz-adv-x="524" d="M239 619H29V659H495V619H285V0H239V619Z" />
            <glyph unicode="U" glyph-name="U" horiz-adv-x="634" d="M95 659H141V258Q141 192 155 149T194 79T249 41T316 30Q352 30 384 41T441 78T481 148T496 258V659H539V253Q539 176 520 125T470 44T399 1T316 -12Q274 -12 234 0T163 43T114 125T95 253V659Z" />
            <glyph unicode="V" glyph-name="V" horiz-adv-x="491" d="M4 659H53L175 274Q194 214 209 164T245 53H249Q259 83 267 110T284 163T300 217T318 274L440 659H487L271 0H222L4 659Z" />
            <glyph unicode="W" glyph-name="W" horiz-adv-x="770" d="M28 659H76L159 271Q170 217 181 164T204 56H208Q220 110 232 163T259 271L362 659H409L512 271Q526 217 538 164T565 56H569Q580 110 590 163T612 271L695 659H740L593 0H542L422 452Q413 491 404 526T387
601H383Q375 562 365 527T346 452L228 0H178L28 659Z" />
            <glyph unicode="X" glyph-name="X" horiz-adv-x="482" d="M215 341L31 659H81L189 465Q203 442 214 422T243 375H247Q261 402 271 422T296 465L404 659H451L267 339L465 0H415L300 202Q286 227 272 252T239 307H235Q219 277 206 252T179 202L64 0H17L215 341Z" />
            <glyph unicode="Y" glyph-name="Y" horiz-adv-x="447" d="M200 267L3 659H52L152 453Q169 417 185 382T222 311H226Q245 347 263 382T297 453L397 659H444L246 267V0H200V267Z" />
            <glyph unicode="Z" glyph-name="Z" horiz-adv-x="538" d="M50 27L429 619H83V659H487V632L107 40H490V0H50V27Z" />
            <glyph unicode="[" glyph-name="bracketleft" horiz-adv-x="279" d="M98 708H258V679H133V-123H258V-152H98V708Z" />
            <glyph unicode="\" glyph-name="backslash" horiz-adv-x="357" d="M5 710H43L349 -160H311L5 710Z" />
            <glyph unicode="]" glyph-name="bracketright" horiz-adv-x="279" d="M146 -123V679H21V708H181V-152H21V-123H146Z" />
            <glyph unicode="^" glyph-name="asciicircum" horiz-adv-x="479" d="M216 670H262L413 290H370L293 493L241 626H237L186 493L109 290H66L216 670Z" />
            <glyph unicode="_" glyph-name="underscore" horiz-adv-x="500" d="M488 -79V-117H12V-79H488Z" />
            <glyph unicode="`" glyph-name="grave" horiz-adv-x="535" d="M179 708H231L323 572H285L179 708Z" />
            <glyph unicode="a" glyph-name="a" horiz-adv-x="499" d="M65 120Q65 199 140 241T375 301Q376 328 372 355T355 404T320 439T262 453Q213 453 173 434T109 397L89 430Q102 439 120 450T161 470T211 485T267 492Q310 492 339 478T386 438T411 380T419 307V0H382L377
62H375Q338 33 296 11T205 -12Q176 -12 151 -4T107 20T76 61T65 120ZM111 122Q111 70 141 48T212 26Q254 26 292 46T375 104V267Q301 258 251 245T169 214T125 173T111 122Z" />
            <glyph unicode="b" glyph-name="b" horiz-adv-x="544" d="M92 719H136V511L134 417Q171 448 213 470T300 492Q396 492 444 426T492 247Q492 186 475 138T429 57T361 6T280 -12Q245 -12 208 3T136 45H134L129 0H92V719ZM136 89Q176 55 213 41T278 27Q314 27 345
43T398 88T432 157T445 247Q445 291 437 329T410 394T363 437T293 453Q257 453 218 433T136 374V89Z" />
            <glyph unicode="c" glyph-name="c" horiz-adv-x="449" d="M52 239Q52 299 70 346T118 426T187 475T271 492Q321 492 354 474T412 433L386 402Q363 424 335 438T272 453Q235 453 204 438T149 394T112 326T98 239Q98 192 110 153T145 86T200 43T272 27Q310 27 342
43T400 82L423 52Q392 24 354 6T270 -12Q223 -12 184 5T115 54T69 132T52 239Z" />
            <glyph unicode="d" glyph-name="d" horiz-adv-x="544" d="M52 239Q52 297 69 344T115 424T183 474T265 492Q309 492 341 477T410 433L408 521V719H452V0H414L410 62H407Q378 33 339 11T251 -12Q160 -12 106 52T52 239ZM99 239Q99 191 109 152T140 86T189 43T257
27Q297 27 333 47T408 106V391Q370 425 337 439T268 453Q232 453 201 437T148 392T112 324T99 239Z" />
            <glyph unicode="e" glyph-name="e" horiz-adv-x="483" d="M52 239Q52 298 69 345T116 424T183 474T261 492Q347 492 396 434T445 270Q445 261 445 252T443 234H97Q98 189 111 151T147 85T204 42T278 26Q317 26 348 37T407 69L425 35Q396 18 362 3T274 -12Q228
-12 188 5T117 54T70 133T52 239ZM403 268Q403 361 365 407T262 454Q231 454 203 441T153 404T116 346T97 268H403Z" />
            <glyph unicode="f" glyph-name="f" horiz-adv-x="263" d="M276 679Q261 687 247 690T218 693Q180 693 162 665T143 584V480H254V442H143V0H99V442H33V476L99 480V587Q99 659 130 695T218 731Q253 731 288 715L276 679Z" />
            <glyph unicode="g" glyph-name="g" horiz-adv-x="487" d="M94 -94Q94 -139 135 -167T254 -195Q294 -195 327 -185T383 -157T418 -119T431 -74Q431 -34 403 -18T320 -1H217Q209 -1 193 0T157 7Q124 -16 109 -42T94 -94ZM52 -98Q52 -66 71 -36T123 18V22Q105 33
93 52T81 99Q81 131 99 153T133 187V191Q110 211 92 245T73 323Q73 360 86 391T122 444T176 479T242 492Q262 492 278 489T305 480H468V443H356Q379 423 394 392T409 322Q409 285 396 254T361 201T308 166T242 153Q222 153 201 158T162 173Q146 160 135 144T123
104Q123 78 142 60T215 41H318Q399 41 437 15T476 -69Q476 -100 460 -129T415 -181T343 -217T249 -231Q158 -231 105 -195T52 -98ZM242 188Q267 188 289 197T329 225T356 268T366 323Q366 353 356 378T330 420T290 446T242 456Q216 456 194 447T154 420T127 379T117
323Q117 293 127 268T154 225T194 198T242 188Z" />
            <glyph unicode="h" glyph-name="h" horiz-adv-x="528" d="M92 719H136V511V405Q174 443 213 467T302 492Q377 492 412 447T447 308V0H403V302Q403 379 378 415T293 452Q250 452 215 430T136 362V0H92V719Z" />
            <glyph unicode="i" glyph-name="i" horiz-adv-x="229" d="M115 596Q98 596 87 607T75 635Q75 654 86 664T115 675Q132 675 143 665T155 635Q155 618 144 607T115 596ZM92 480H136V0H92V480Z" />
            <glyph unicode="j" glyph-name="j" horiz-adv-x="229" d="M92 480H137V-89Q137 -160 111 -194T29 -229Q12 -229 -5 -226T-33 -217L-22 -181Q-13 -184 0 -187T28 -191Q68 -191 80 -162T92 -86V480ZM115 596Q99 596 87 607T75 635Q75 654 87 664T115 675Q132 675
144 665T156 635Q156 618 144 607T115 596Z" />
            <glyph unicode="k" glyph-name="k" horiz-adv-x="464" d="M92 719H136V189H138L375 480H426L270 290L452 0H403L244 257L136 131V0H92V719Z" />
            <glyph unicode="l" glyph-name="l" horiz-adv-x="237" d="M92 719H136V58Q136 42 142 35T157 27Q160 27 163 27T175 29L183 -7Q176 -9 169 -10T151 -12Q92 -12 92 64V719Z" />
            <glyph unicode="m" glyph-name="m" horiz-adv-x="812" d="M92 480H130L134 406H137Q169 443 208 467T288 492Q346 492 377 466T421 394Q463 439 502 465T584 492Q728 492 728 308V0H683V302Q683 379 657 415T576 452Q511 452 432 362V0H388V302Q388 379 362 415T280
452Q215 452 136 362V0H92V480Z" />
            <glyph unicode="n" glyph-name="n" horiz-adv-x="532" d="M92 480H130L134 406H137Q174 443 213 467T302 492Q377 492 412 447T447 308V0H403V302Q403 379 378 415T293 452Q250 452 215 430T136 362V0H92V480Z" />
            <glyph unicode="o" glyph-name="o" horiz-adv-x="535" d="M52 239Q52 299 69 346T116 426T185 475T267 492Q310 492 349 475T418 426T465 347T483 239Q483 179 466 133T419 54T350 5T267 -12Q224 -12 185 5T117 54T70 132T52 239ZM98 239Q98 192 111 153T146 86T200
43T267 27Q303 27 334 42T388 86T424 153T437 239Q437 287 424 326T389 393T335 437T267 453Q231 453 200 438T147 394T111 326T98 239Z" />
            <glyph unicode="p" glyph-name="p" horiz-adv-x="544" d="M136 -42V-217H92V480H130L134 420H137Q172 448 213 470T300 492Q396 492 444 426T492 247Q492 186 475 138T429 57T361 6T280 -12Q246 -12 210 3T136 47V-42ZM136 89Q178 55 214 41T278 27Q314 27 345
43T398 88T432 157T445 247Q445 291 437 329T410 394T363 437T293 453Q257 453 219 433T136 374V89Z" />
            <glyph unicode="q" glyph-name="q" horiz-adv-x="537" d="M52 239Q52 297 69 344T115 424T183 474T265 492Q309 492 341 477T408 436H410L415 480H452V-217H408V-32L410 61Q378 32 339 10T251 -12Q160 -12 106 52T52 239ZM99 239Q99 191 109 152T140 86T189 43T257
27Q297 27 333 47T408 106V391Q370 425 337 439T268 453Q232 453 201 437T148 392T112 324T99 239Z" />
            <glyph unicode="r" glyph-name="r" horiz-adv-x="317" d="M92 480H130L134 391H137Q161 436 195 464T273 492Q287 492 298 490T321 482L311 442Q299 447 290 448T267 450Q235 450 200 423T136 327V0H92V480Z" />
            <glyph unicode="s" glyph-name="s" horiz-adv-x="405" d="M58 87Q89 61 124 44T211 26Q268 26 296 54T325 121Q325 143 315 160T287 189T250 210T208 227Q181 237 154 248T104 274T69 311T55 364Q55 390 65 413T95 454T143 482T210 492Q248 492 284 478T347 442L323
411Q299 429 272 441T208 454Q180 454 160 447T127 427T107 399T100 367Q100 346 109 332T135 306T171 287T213 270Q241 259 269 248T319 221T356 182T370 123Q370 96 360 72T328 29T277 -1T208 -12Q154 -12 109 7T32 54L58 87Z" />
            <glyph unicode="t" glyph-name="t" horiz-adv-x="312" d="M103 442H28V476L104 480L110 619H148V480H287V442H148V129Q148 106 151 88T164 56T188 35T229 27Q243 27 259 31T289 42L301 6Q280 -2 259 -7T223 -12Q188 -12 165 -2T128 28T109 74T103 133V442Z" />
            <glyph unicode="u" glyph-name="u" horiz-adv-x="529" d="M85 480H129V178Q129 101 154 65T238 28Q281 28 316 51T393 126V480H437V0H400L395 80H393Q358 38 319 13T230 -12Q155 -12 120 33T85 172V480Z" />
            <glyph unicode="v" glyph-name="v" horiz-adv-x="434" d="M12 480H60L168 179Q179 144 192 109T216 41H220Q232 74 244 109T269 179L377 480H422L244 0H192L12 480Z" />
            <glyph unicode="w" glyph-name="w" horiz-adv-x="685" d="M24 480H72L158 169Q167 136 175 105T191 41H195Q203 73 212 104T230 169L317 480H370L457 169Q466 136 475 105T493 41H497Q505 73 514 104T531 169L616 480H661L523 0H465L381 298Q370 333 363 366T344
435H340Q332 400 323 366T302 296L219 0H166L24 480Z" />
            <glyph unicode="x" glyph-name="x" horiz-adv-x="407" d="M177 251L27 480H76L154 358Q166 338 178 319T205 279H209Q222 299 233 318T258 358L333 480H379L230 247L393 0H344L259 131Q245 154 231 176T202 219H198Q184 198 171 176T143 131L61 0H14L177 251Z" />
            <glyph unicode="y" glyph-name="y" horiz-adv-x="436" d="M34 -170Q42 -173 52 -175T73 -178Q118 -178 148 -142T196 -51L209 -9L12 480H60L176 178Q187 148 200 112T228 44H232Q243 76 254 112T276 178L379 480H424L234 -60Q224 -90 210 -118T176 -169T131 -205T73
-219Q46 -219 24 -209L34 -170V-170Z" />
            <glyph unicode="z" glyph-name="z" horiz-adv-x="404" d="M27 24L311 442H58V480H368V457L85 39H378V0H27V24Z" />
            <glyph unicode="{" glyph-name="braceleft" horiz-adv-x="279" d="M258 -123V-152H224Q196 -152 176 -146T141 -126T120 -87T113 -24Q113 32 117 80T121 181Q121 196 118 211T105 237T78 255T35 262V294Q61 294 78 301T104 319T117 344T121 373Q121 427 117 475T113
580Q113 618 120 642T141 681T175 702T224 708H258V679H227Q181 679 166 654T150 576Q150 527 153 483T156 384Q156 339 146 314T105 280V276Q135 267 145 241T156 172Q156 118 153 74T150 -20Q150 -73 165 -98T227 -123H258Z" />
            <glyph unicode="|" glyph-name="bar" horiz-adv-x="226" d="M95 750H131V-250H95V750Z" />
            <glyph unicode="}" glyph-name="braceright" horiz-adv-x="279" d="M52 -123Q98 -123 113 -98T129 -20Q129 29 126 73T123 172Q123 215 134 241T174 276V280Q145 289 134 314T123 384Q123 438 126 482T129 576Q129 629 114 654T52 679H21V708H55Q83 708 103 702T138
682T159 643T166 580Q166 524 162 476T158 373Q158 358 161 344T174 319T201 301T244 294V262Q218 262 201 255T175 237T162 211T158 181Q158 129 162 81T166 -24Q166 -62 159 -86T138 -125T104 -146T55 -152H21V-123H52Z" />
            <glyph unicode="~" glyph-name="asciitilde" horiz-adv-x="479" d="M40 311Q62 353 91 373T150 394Q179 394 202 380T247 349T289 318T331 304Q354 304 373 318T410 367L438 347Q417 306 388 286T329 266Q300 266 277 280T232 311T190 342T148 356Q125 356 106
342T69 293L40 311Z" />
            <glyph unicode="&#xa0;" glyph-name="uni00A0" horiz-adv-x="199" />
            <glyph unicode="&#xa1;" glyph-name="exclamdown" horiz-adv-x="259" d="M152 -119L153 -190H107V-119L113 301H146L152 -119ZM172 448Q172 425 160 413T130 401Q113 401 100 413T87 448Q87 468 100 480T130 492Q147 492 159 480T172 448Z" />
            <glyph unicode="&#xa2;" glyph-name="cent" horiz-adv-x="479" d="M255 502Q223 497 196 481T149 441T118 383T107 311Q107 233 146 182T255 121V502ZM435 144Q406 117 370 100T289 80V-28H255V81Q213 85 178 102T117 148T77 219T62 311Q62 363 77 403T118 473T180
520T255 541V652H289V543Q337 541 369 524T424 483L400 455Q377 475 350 488T289 504V119Q326 121 357 136T412 173L435 144Z" />
            <glyph unicode="&#xa3;" glyph-name="sterling" horiz-adv-x="479" d="M428 40V0H57V27Q113 59 138 111T163 221Q163 240 161 258T154 293H54V326L120 329H144Q133 367 123 404T112 481Q112 560 157 605T282 651Q334 651 368 630T426 580L397 553Q376 578 349
595T282 612Q251 612 228 602T189 574T165 532T157 481Q157 441 167 405T189 329H354V293H197Q201 276 203 259T205 221Q205 159 186 118T133 44V40H428Z" />
            <glyph unicode="&#xa4;" glyph-name="currency" horiz-adv-x="479" d="M30 142L96 209Q78 233 68 263T58 328Q58 364 68 395T96 450L30 518L57 546L123 477Q146 498 176 509T239 521Q271 521 301 510T355 477L422 546L448 518L382 450Q400 426 410 395T420 328Q420
293 410 263T383 209L448 142L422 114L355 182Q332 160 302 149T239 137Q173 137 123 182L57 114L30 142ZM102 328Q102 294 113 266T142 217T186 186T239 174Q267 174 292 185T335 217T365 265T376 328Q376 362 365 391T336 440T292 472T239 484Q211 484 186 473T143
441T113 391T102 328Z" />
            <glyph unicode="&#xa5;" glyph-name="yen" horiz-adv-x="479" d="M78 639L172 446Q188 413 204 380T238 309H242Q261 346 276 379T309 446L403 639H449L275 303H429V270H261V199H429V165H261V0H216V165H50V199H216V270H50V303H202L30 639H78Z" />
            <glyph unicode="&#xa6;" glyph-name="brokenbar" horiz-adv-x="226" d="M95 750H131V279H95V750ZM131 220V-250H95V220H131Z" />
            <glyph unicode="&#xa7;" glyph-name="section" horiz-adv-x="479" d="M312 181Q348 198 367 219T387 281Q387 321 365 346T309 390T237 423T168 459Q134 439 113 416T92 355Q92 316 114 292T170 250T242 217T312 181ZM357 597Q333 617 307 630T242 643Q217 643
199 637T170 620T154 595T148 567Q148 534 169 514T221 477T288 446T356 411T408 360T429 284Q429 234 405 206T342 156Q358 140 367 120T376 72Q376 45 365 22T334 -17T288 -43T233 -52Q181 -52 141 -35T72 11L102 39Q128 15 157 0T233 -15Q279 -15 306 10T333
70Q333 104 312 125T260 163T192 193T124 228T71 277T50 352Q50 400 75 431T139 483Q124 498 115 518T106 564Q106 585 114 606T139 643T181 670T241 681Q283 681 318 666T381 628L357 597Z" />
            <glyph unicode="&#xa8;" glyph-name="dieresis" horiz-adv-x="535" d="M188 598Q172 598 162 608T152 635Q152 650 162 660T188 671Q204 671 214 661T225 635Q225 619 215 609T188 598ZM346 598Q330 598 320 608T309 635Q309 650 319 660T346 671Q362 671 372
661T382 635Q382 619 372 609T346 598Z" />
            <glyph unicode="&#xa9;" glyph-name="copyright" horiz-adv-x="741" d="M51 322Q51 397 76 458T146 562T248 628T371 652Q435 652 493 629T595 562T664 458T690 322Q690 246 665 185T595 80T493 12T371 -12Q306 -12 248 12T146 79T77 184T51 322ZM86 322Q86 254
109 198T171 103T261 41T371 19Q428 19 479 41T570 102T632 198T655 322Q655 389 632 444T570 539T480 600T371 622Q313 622 262 601T171 540T109 445T86 322ZM201 322Q201 365 216 400T255 459T312 496T381 509Q421 509 449 494T501 454L478 428Q455 450 433 461T380
472Q320 472 282 431T244 322Q244 247 280 204T378 161Q414 161 442 175T493 211L513 183Q486 159 455 142T376 124Q340 124 309 137T253 176T215 238T201 322Z" />
            <glyph unicode="&#xaa;" glyph-name="ordfeminine" horiz-adv-x="337" d="M139 261Q96 261 69 285T42 352Q42 405 91 432T248 470Q248 489 245 506T233 535T212 555T178 562Q148 562 118 550T71 525L56 552Q76 566 109 580T182 595Q240 595 262 561T285 469V269H255L249
308H245Q224 290 198 276T139 261ZM148 293Q195 293 248 342V444Q155 434 118 412T81 355Q81 323 99 308T148 293Z" />
            <glyph unicode="&#xab;" glyph-name="guillemotleft" horiz-adv-x="400" d="M43 233V271L180 432L205 411L82 252L205 91L180 72L43 233ZM184 233V271L321 432L346 411L223 252L346 91L321 72L184 233Z" />
            <glyph unicode="&#xac;" glyph-name="logicalnot" horiz-adv-x="479" d="M34 349H445V110H404V311H34V349Z" />
            <glyph unicode="&#xad;" glyph-name="uni00AD" horiz-adv-x="299" d="M40 269H260V230H40V269Z" />
            <glyph unicode="&#xae;" glyph-name="registered" horiz-adv-x="401" d="M200 324Q163 324 130 338T72 377T33 437T18 517Q18 561 32 597T72 658T130 698T200 712Q237 712 270 698T328 659T367 597T382 517Q382 473 368 438T329 377T271 338T200 324ZM200 353Q231
353 259 365T307 399T339 451T351 517Q351 553 339 583T307 636T259 671T200 684Q168 684 141 672T93 637T61 584T49 517Q49 481 61 451T93 400T140 366T200 353ZM132 624H201Q216 624 229 621T254 611T271 591T278 560Q278 541 267 525T238 504L287 418H250L211
494H164V418H132V624ZM193 521Q216 521 230 529T244 558Q244 575 234 585T196 596H164V521H193Z" />
            <glyph unicode="&#xaf;" glyph-name="overscore" horiz-adv-x="535" d="M154 642H380V606H154V642Z" />
            <glyph unicode="&#xb0;" glyph-name="degree" horiz-adv-x="311" d="M156 447Q134 447 114 455T77 478T52 515T42 565Q42 593 51 615T77 652T113 676T156 684Q178 684 198 676T235 653T260 615T270 565Q270 537 261 515T235 478T199 455T156 447ZM156 479Q191
479 213 503T236 565Q236 603 214 628T156 653Q121 653 99 628T76 565Q76 528 98 504T156 479Z" />
            <glyph unicode="&#xb1;" glyph-name="plusminus" horiz-adv-x="479" d="M219 310H34V347H219V550H260V347H445V310H260V109H219V310ZM34 37H445V0H34V37Z" />
            <glyph unicode="&#xb2;" glyph-name="two.sups" horiz-adv-x="362" d="M56 465Q106 511 142 547T202 612T237 665T249 715Q249 758 226 783T163 808Q136 808 113 790T72 746L47 769Q65 799 97 820T167 842Q221 842 254 812T288 719Q288 688 276 660T241 603T188
543T119 474H311V440H56V465Z" />
            <glyph unicode="&#xb3;" glyph-name="three.sups" horiz-adv-x="362" d="M69 525Q87 496 115 479T178 461Q215 461 242 482T269 544Q269 582 232 603T131 624V652Q190 652 221 677T253 736Q253 768 231 788T170 809Q147 809 124 795T81 757L56 779Q77 806 106
824T174 842Q223 842 257 815T292 739Q292 702 271 678T217 640Q235 637 251 629T280 609T300 581T308 543Q308 516 298 495T270 459T228 436T177 428Q131 428 96 450T40 503L69 525Z" />
            <glyph unicode="&#xb4;" glyph-name="acute" horiz-adv-x="535" d="M249 572H211L303 708H355L249 572Z" />
            <glyph unicode="&#xb5;" glyph-name="uni00B5" horiz-adv-x="537" d="M92 480H136V178Q136 101 162 65T246 28Q289 28 323 51T401 126V480H445V0H407L403 80H400Q366 38 329 14T243 -11Q206 -11 180 0T134 44L136 -46V-200H92V480Z" />
            <glyph unicode="&#xb6;" glyph-name="paragraph" horiz-adv-x="515" d="M373 659H419V-80H373V659ZM291 244Q236 244 190 255T111 291T60 355T42 451Q42 507 59 546T107 611T181 647T275 659H319V244H291Z" />
            <glyph unicode="&#xb7;" glyph-name="middot" horiz-adv-x="219" d="M67 322Q67 344 80 356T110 368Q127 368 139 356T152 322Q152 301 140 289T110 277Q93 277 80 289T67 322Z" />
            <glyph unicode="&#xb8;" glyph-name="cedilla" horiz-adv-x="535" d="M268 2H303L274 -54Q298 -62 316 -77T334 -123Q334 -143 324 -157T296 -182T256 -198T209 -208L202 -178Q244 -172 269 -160T295 -127Q295 -104 276 -93T228 -74L268 2Z" />
            <glyph unicode="&#xb9;" glyph-name="one.sups" horiz-adv-x="362" d="M176 764H94V791Q123 797 143 806T181 830H214V440H176V764Z" />
            <glyph unicode="&#xba;" glyph-name="ordmasculine" horiz-adv-x="360" d="M179 261Q149 261 122 272T76 305T45 358T33 428Q33 468 44 499T75 551T122 584T179 595Q209 595 236 584T282 552T313 499T325 428Q325 389 314 358T283 306T236 273T179 261ZM179 294Q227
294 256 331T286 428Q286 488 257 525T179 562Q131 562 102 525T72 428Q72 368 101 331T179 294Z" />
            <glyph unicode="&#xbb;" glyph-name="guillemotright" horiz-adv-x="400" d="M176 252L54 411L78 432L216 271V233L78 72L54 91L176 252ZM317 252L195 411L219 432L357 271V233L219 72L195 91L317 252Z" />
            <glyph unicode="&#xbc;" glyph-name="onequarter" horiz-adv-x="764" d="M156 593H74V620Q103 626 123 635T161 659H194V269H156V593ZM177 -12L545 671H583L216 -12H177ZM625 146V233L629 337H625L569 254L496 146H625ZM719 114H661V0H625V114H448V135L625 390H661V146H719V114Z"
            />
            <glyph unicode="&#xbd;" glyph-name="onehalf" horiz-adv-x="786" d="M156 593H74V620Q103 626 123 635T161 659H194V269H156V593ZM154 -12L522 671H560L193 -12H154ZM480 25Q530 71 566 107T626 172T661 225T673 275Q673 318 650 343T587 368Q560 368 537 350T496
306L471 329Q489 359 521 380T591 402Q645 402 678 372T712 279Q712 248 700 220T665 163T612 103T543 34H735V0H480V25Z" />
            <glyph unicode="&#xbe;" glyph-name="threequarters" horiz-adv-x="783" d="M69 354Q87 325 115 308T178 290Q215 290 242 311T269 373Q269 411 232 432T131 453V481Q190 481 221 506T253 565Q253 597 231 617T170 638Q147 638 124 624T81 586L56 608Q77 635 106
653T174 671Q223 671 257 644T292 568Q292 531 271 507T217 469Q235 466 251 458T280 438T300 410T308 372Q308 345 298 324T270 288T228 265T177 257Q131 257 96 279T40 332L69 354ZM224 -12L592 671H630L263 -12H224ZM644 146V233L648 337H644L588 254L515 146H644ZM738
114H680V0H644V114H467V135L644 390H680V146H738V114Z" />
            <glyph unicode="&#xbf;" glyph-name="questiondown" horiz-adv-x="402" d="M240 301Q245 260 237 227T212 165T176 111T138 62T108 11T96 -46Q96 -69 102 -90T123 -127T158 -153T210 -163Q246 -163 279 -146T338 -99L366 -124Q337 -156 298 -179T207 -202Q170
-202 141 -191T92 -159T62 -110T51 -49Q51 -15 63 13T94 68T132 120T169 172T195 231T199 301H240ZM258 448Q258 425 246 413T216 401Q199 401 187 413T174 448Q174 468 186 480T216 492Q233 492 245 480T258 448Z" />
            <glyph unicode="&#xc0;" glyph-name="Agrave" horiz-adv-x="526" d="M380 265L338 388Q318 447 300 501T265 616H261Q244 555 226 501T188 388L146 265H380ZM393 226H132L54 0H8L240 659H286L518 0H470L393 226ZM150 815H208L300 709H260L150 815Z" />
            <glyph unicode="&#xc1;" glyph-name="Aacute" horiz-adv-x="526" d="M380 265L338 388Q318 447 300 501T265 616H261Q244 555 226 501T188 388L146 265H380ZM393 226H132L54 0H8L240 659H286L518 0H470L393 226ZM266 709H226L318 815H376L266 709Z" />
            <glyph unicode="&#xc2;" glyph-name="Acircumflex" horiz-adv-x="526" d="M380 265L338 388Q318 447 300 501T265 616H261Q244 555 226 501T188 388L146 265H380ZM393 226H132L54 0H8L240 659H286L518 0H470L393 226ZM146 709L242 815H284L380 709H340L265 781H261L186
709H146Z" />
            <glyph unicode="&#xc3;" glyph-name="Atilde" horiz-adv-x="526" d="M380 265L338 388Q318 447 300 501T265 616H261Q244 555 226 501T188 388L146 265H380ZM393 226H132L54 0H8L240 659H286L518 0H470L393 226ZM322 716Q302 716 287 725T258 744T231 764T203
773Q187 773 176 758T162 716H133Q134 733 139 749T153 779T174 800T204 808Q224 808 239 799T267 780T294 761T323 752Q339 752 350 767T364 808H393Q392 791 387 775T373 746T352 724T322 716Z" />
            <glyph unicode="&#xc4;" glyph-name="Adieresis" horiz-adv-x="526" d="M380 265L338 388Q318 447 300 501T265 616H261Q244 555 226 501T188 388L146 265H380ZM393 226H132L54 0H8L240 659H286L518 0H470L393 226ZM184 725Q168 725 158 734T148 761Q148 778 158
788T184 798Q200 798 210 788T221 761Q221 744 211 735T184 725ZM342 725Q326 725 316 734T305 761Q305 778 315 788T342 798Q358 798 368 788T378 761Q378 744 368 735T342 725Z" />
            <glyph unicode="&#xc5;" glyph-name="Aring" horiz-adv-x="526" d="M380 265L338 388Q318 447 300 501T265 616H261Q244 555 226 501T188 388L146 265H380ZM393 226H132L54 0H8L240 659H286L518 0H470L393 226ZM263 700Q228 700 205 722T181 782Q181 819 204 841T263
864Q297 864 321 842T345 782Q345 744 321 722T263 700ZM263 726Q283 726 298 740T314 782Q314 808 299 823T263 838Q241 838 226 823T211 782Q211 754 226 740T263 726Z" />
            <glyph unicode="&#xc6;" glyph-name="AE" horiz-adv-x="809" d="M411 255V619H407Q376 563 346 506T283 388L210 255H411ZM762 40V0H411V217H189L70 0H21L386 659H752V619H457V370H702V330H457V40H762Z" />
            <glyph unicode="&#xc7;" glyph-name="Ccedilla" horiz-adv-x="564" d="M55 331Q55 409 75 472T133 579T222 647T337 671Q394 671 438 647T508 592L480 562Q454 592 418 610T337 629Q283 629 240 608T166 549T119 455T103 331Q103 262 119 207T165 112T237 52T333
30Q384 30 423 50T499 111L527 82Q489 38 442 13T331 -12Q270 -12 219 12T132 80T75 188T55 331ZM331 2H366L337 -54Q361 -62 379 -77T397 -123Q397 -143 387 -157T359 -182T319 -198T272 -208L265 -178Q307 -172 332 -160T358 -127Q358 -104 339 -93T291 -74L331
2Z" />
            <glyph unicode="&#xc8;" glyph-name="Egrave" horiz-adv-x="515" d="M97 659H458V619H143V370H407V330H143V40H468V0H97V659ZM169 815H227L319 709H279L169 815Z" />
            <glyph unicode="&#xc9;" glyph-name="Eacute" horiz-adv-x="515" d="M97 659H458V619H143V370H407V330H143V40H468V0H97V659ZM285 709H245L337 815H395L285 709Z" />
            <glyph unicode="&#xca;" glyph-name="Ecircumflex" horiz-adv-x="515" d="M97 659H458V619H143V370H407V330H143V40H468V0H97V659ZM165 709L261 815H303L399 709H359L284 781H280L205 709H165Z" />
            <glyph unicode="&#xcb;" glyph-name="Edieresis" horiz-adv-x="515" d="M97 659H458V619H143V370H407V330H143V40H468V0H97V659ZM203 725Q187 725 177 734T167 761Q167 778 177 788T203 798Q219 798 229 788T240 761Q240 744 230 735T203 725ZM361 725Q345 725
335 734T324 761Q324 778 334 788T361 798Q377 798 387 788T397 761Q397 744 387 735T361 725Z" />
            <glyph unicode="&#xcc;" glyph-name="Igrave" horiz-adv-x="240" d="M97 659H143V0H97V659ZM7 815H65L157 709H117L7 815Z" />
            <glyph unicode="&#xcd;" glyph-name="Iacute" horiz-adv-x="240" d="M97 659H143V0H97V659ZM123 709H83L175 815H233L123 709Z" />
            <glyph unicode="&#xce;" glyph-name="Icircumflex" horiz-adv-x="240" d="M97 659H143V0H97V659ZM3 709L99 815H141L237 709H197L122 781H118L43 709H3Z" />
            <glyph unicode="&#xcf;" glyph-name="Idieresis" horiz-adv-x="240" d="M97 659H143V0H97V659ZM41 725Q25 725 15 734T5 761Q5 778 15 788T41 798Q57 798 67 788T78 761Q78 744 68 735T41 725ZM199 725Q183 725 173 734T162 761Q162 778 172 788T199 798Q215 798
225 788T235 761Q235 744 225 735T199 725Z" />
            <glyph unicode="&#xd0;" glyph-name="Eth" horiz-adv-x="625" d="M266 39Q333 39 381 60T460 121T507 213T522 332Q522 396 507 449T461 540T381 599T266 620H164V365H327V332H164V39H266ZM270 659Q346 659 402 636T496 570T552 467T570 332Q570 257 552 196T497
91T404 24T271 0H118V332H37V363L118 365V659H270Z" />
            <glyph unicode="&#xd1;" glyph-name="Ntilde" horiz-adv-x="636" d="M97 659H145L423 194L497 63H501Q499 111 497 159T495 255V659H539V0H491L213 465L139 596H135Q137 548 139 503T141 409V0H97V659ZM382 716Q362 716 347 725T318 744T291 764T263 773Q247 773
236 758T222 716H193Q194 733 199 749T213 779T234 800T264 808Q284 808 299 799T327 780T354 761T383 752Q399 752 410 767T424 808H453Q452 791 447 775T433 746T412 724T382 716Z" />
            <glyph unicode="&#xd2;" glyph-name="Ograve" horiz-adv-x="652" d="M326 -12Q267 -12 217 12T131 82T75 190T55 332Q55 410 75 472T131 579T217 647T326 671Q386 671 436 648T522 580T578 473T598 332Q598 254 578 191T522 82T436 13T326 -12ZM326 30Q376 30
417 51T487 112T533 207T549 332Q549 400 533 455T488 548T417 608T326 629Q276 629 235 608T164 549T119 455T103 332Q103 263 119 208T164 113T234 52T326 30ZM213 815H271L363 709H323L213 815Z" />
            <glyph unicode="&#xd3;" glyph-name="Oacute" horiz-adv-x="652" d="M326 -12Q267 -12 217 12T131 82T75 190T55 332Q55 410 75 472T131 579T217 647T326 671Q386 671 436 648T522 580T578 473T598 332Q598 254 578 191T522 82T436 13T326 -12ZM326 30Q376 30
417 51T487 112T533 207T549 332Q549 400 533 455T488 548T417 608T326 629Q276 629 235 608T164 549T119 455T103 332Q103 263 119 208T164 113T234 52T326 30ZM329 709H289L381 815H439L329 709Z" />
            <glyph unicode="&#xd4;" glyph-name="Ocircumflex" horiz-adv-x="652" d="M326 -12Q267 -12 217 12T131 82T75 190T55 332Q55 410 75 472T131 579T217 647T326 671Q386 671 436 648T522 580T578 473T598 332Q598 254 578 191T522 82T436 13T326 -12ZM326 30Q376
30 417 51T487 112T533 207T549 332Q549 400 533 455T488 548T417 608T326 629Q276 629 235 608T164 549T119 455T103 332Q103 263 119 208T164 113T234 52T326 30ZM209 709L305 815H347L443 709H403L328 781H324L249 709H209Z" />
            <glyph unicode="&#xd5;" glyph-name="Otilde" horiz-adv-x="652" d="M326 -12Q267 -12 217 12T131 82T75 190T55 332Q55 410 75 472T131 579T217 647T326 671Q386 671 436 648T522 580T578 473T598 332Q598 254 578 191T522 82T436 13T326 -12ZM326 30Q376 30
417 51T487 112T533 207T549 332Q549 400 533 455T488 548T417 608T326 629Q276 629 235 608T164 549T119 455T103 332Q103 263 119 208T164 113T234 52T326 30ZM385 716Q365 716 350 725T321 744T294 764T266 773Q250 773 239 758T225 716H196Q197 733 202 749T216
779T237 800T267 808Q287 808 302 799T330 780T357 761T386 752Q402 752 413 767T427 808H456Q455 791 450 775T436 746T415 724T385 716Z" />
            <glyph unicode="&#xd6;" glyph-name="Odieresis" horiz-adv-x="652" d="M326 -12Q267 -12 217 12T131 82T75 190T55 332Q55 410 75 472T131 579T217 647T326 671Q386 671 436 648T522 580T578 473T598 332Q598 254 578 191T522 82T436 13T326 -12ZM326 30Q376
30 417 51T487 112T533 207T549 332Q549 400 533 455T488 548T417 608T326 629Q276 629 235 608T164 549T119 455T103 332Q103 263 119 208T164 113T234 52T326 30ZM247 725Q231 725 221 734T211 761Q211 778 221 788T247 798Q263 798 273 788T284 761Q284 744
274 735T247 725ZM405 725Q389 725 379 734T368 761Q368 778 378 788T405 798Q421 798 431 788T441 761Q441 744 431 735T405 725Z" />
            <glyph unicode="&#xd7;" glyph-name="multiply" horiz-adv-x="479" d="M51 163L213 330L51 497L78 525L239 356L401 525L427 497L266 330L427 163L401 135L239 303L78 135L51 163Z" />
            <glyph unicode="&#xd8;" glyph-name="Oslash" horiz-adv-x="652" d="M177 101Q206 67 244 49T330 30Q380 30 421 51T491 112T537 207T553 332Q553 395 540 446T501 535L177 101ZM478 565Q449 596 412 612T330 629Q280 629 239 608T168 549T123 455T107 332Q107
271 119 221T155 132L478 565ZM530 573Q564 529 582 468T601 332Q601 254 581 191T525 82T439 13T330 -12Q276 -12 230 7T149 64L84 -23L56 -1L126 93Q94 138 76 198T58 332Q58 410 78 472T134 579T220 647T330 671Q382 671 426 653T505 601L566 682L595 660L530
573Z" />
            <glyph unicode="&#xd9;" glyph-name="Ugrave" horiz-adv-x="634" d="M95 659H141V258Q141 192 155 149T194 79T249 41T316 30Q352 30 384 41T441 78T481 148T496 258V659H539V253Q539 176 520 125T470 44T399 1T316 -12Q274 -12 234 0T163 43T114 125T95 253V659ZM204
815H262L354 709H314L204 815Z" />
            <glyph unicode="&#xda;" glyph-name="Uacute" horiz-adv-x="634" d="M95 659H141V258Q141 192 155 149T194 79T249 41T316 30Q352 30 384 41T441 78T481 148T496 258V659H539V253Q539 176 520 125T470 44T399 1T316 -12Q274 -12 234 0T163 43T114 125T95 253V659ZM320
709H280L372 815H430L320 709Z" />
            <glyph unicode="&#xdb;" glyph-name="Ucircumflex" horiz-adv-x="634" d="M95 659H141V258Q141 192 155 149T194 79T249 41T316 30Q352 30 384 41T441 78T481 148T496 258V659H539V253Q539 176 520 125T470 44T399 1T316 -12Q274 -12 234 0T163 43T114 125T95
253V659ZM200 709L296 815H338L434 709H394L319 781H315L240 709H200Z" />
            <glyph unicode="&#xdc;" glyph-name="Udieresis" horiz-adv-x="634" d="M95 659H141V258Q141 192 155 149T194 79T249 41T316 30Q352 30 384 41T441 78T481 148T496 258V659H539V253Q539 176 520 125T470 44T399 1T316 -12Q274 -12 234 0T163 43T114 125T95 253V659ZM238
725Q222 725 212 734T202 761Q202 778 212 788T238 798Q254 798 264 788T275 761Q275 744 265 735T238 725ZM396 725Q380 725 370 734T359 761Q359 778 369 788T396 798Q412 798 422 788T432 761Q432 744 422 735T396 725Z" />
            <glyph unicode="&#xdd;" glyph-name="Yacute" horiz-adv-x="447" d="M200 267L3 659H52L152 453Q169 417 185 382T222 311H226Q245 347 263 382T297 453L397 659H444L246 267V0H200V267ZM226 709H186L278 815H336L226 709Z" />
            <glyph unicode="&#xde;" glyph-name="Thorn" horiz-adv-x="563" d="M97 659H143V542H277Q332 542 375 532T449 501T496 444T512 358Q512 261 450 214T277 166H143V0H97V659ZM266 205Q367 205 416 241T465 358Q465 440 416 471T266 503H143V205H266Z" />
            <glyph unicode="&#xdf;" glyph-name="germandbls" horiz-adv-x="542" d="M92 532Q92 625 138 677T263 729Q296 729 321 719T365 690T392 648T402 595Q402 556 387 529T353 478T319 431T303 377Q303 348 318 330T357 299T408 272T458 241T497 196T513 127Q513 97
502 72T472 28T426 -1T367 -12Q328 -12 294 2T231 39L253 72Q282 49 308 38T367 26Q392 26 411 34T442 56T461 88T468 125Q468 160 453 182T414 219T364 247T313 276T275 314T259 373Q259 409 274 435T308 484T341 532T357 591Q357 635 334 663T262 691Q205 691
171 649T136 517V0H92V532Z" />
            <glyph unicode="&#xe0;" glyph-name="agrave" horiz-adv-x="499" d="M65 120Q65 199 140 241T375 301Q376 328 372 355T355 404T320 439T262 453Q213 453 173 434T109 397L89 430Q102 439 120 450T161 470T211 485T267 492Q310 492 339 478T386 438T411 380T419
307V0H382L377 62H375Q338 33 296 11T205 -12Q176 -12 151 -4T107 20T76 61T65 120ZM111 122Q111 70 141 48T212 26Q254 26 292 46T375 104V267Q301 258 251 245T169 214T125 173T111 122ZM174 708H226L318 572H280L174 708Z" />
            <glyph unicode="&#xe1;" glyph-name="aacute" horiz-adv-x="499" d="M65 120Q65 199 140 241T375 301Q376 328 372 355T355 404T320 439T262 453Q213 453 173 434T109 397L89 430Q102 439 120 450T161 470T211 485T267 492Q310 492 339 478T386 438T411 380T419
307V0H382L377 62H375Q338 33 296 11T205 -12Q176 -12 151 -4T107 20T76 61T65 120ZM111 122Q111 70 141 48T212 26Q254 26 292 46T375 104V267Q301 258 251 245T169 214T125 173T111 122ZM244 572H206L298 708H350L244 572Z" />
            <glyph unicode="&#xe2;" glyph-name="acircumflex" horiz-adv-x="499" d="M65 120Q65 199 140 241T375 301Q376 328 372 355T355 404T320 439T262 453Q213 453 173 434T109 397L89 430Q102 439 120 450T161 470T211 485T267 492Q310 492 339 478T386 438T411 380T419
307V0H382L377 62H375Q338 33 296 11T205 -12Q176 -12 151 -4T107 20T76 61T65 120ZM111 122Q111 70 141 48T212 26Q254 26 292 46T375 104V267Q301 258 251 245T169 214T125 173T111 122ZM243 708H281L376 572H339L264 671H260L185 572H148L243 708Z" />
            <glyph unicode="&#xe3;" glyph-name="atilde" horiz-adv-x="499" d="M65 120Q65 199 140 241T375 301Q376 328 372 355T355 404T320 439T262 453Q213 453 173 434T109 397L89 430Q102 439 120 450T161 470T211 485T267 492Q310 492 339 478T386 438T411 380T419
307V0H382L377 62H375Q338 33 296 11T205 -12Q176 -12 151 -4T107 20T76 61T65 120ZM111 122Q111 70 141 48T212 26Q254 26 292 46T375 104V267Q301 258 251 245T169 214T125 173T111 122ZM138 581Q139 597 143 613T155 641T176 662T207 670Q225 670 240 662T268
643T293 624T318 615Q334 615 343 629T356 670H386Q385 654 381 638T369 610T348 589T317 581Q299 581 284 589T257 608T232 627T206 636Q176 636 168 581H138V581Z" />
            <glyph unicode="&#xe4;" glyph-name="adieresis" horiz-adv-x="499" d="M65 120Q65 199 140 241T375 301Q376 328 372 355T355 404T320 439T262 453Q213 453 173 434T109 397L89 430Q102 439 120 450T161 470T211 485T267 492Q310 492 339 478T386 438T411 380T419
307V0H382L377 62H375Q338 33 296 11T205 -12Q176 -12 151 -4T107 20T76 61T65 120ZM111 122Q111 70 141 48T212 26Q254 26 292 46T375 104V267Q301 258 251 245T169 214T125 173T111 122ZM183 598Q167 598 157 608T147 635Q147 650 157 660T183 671Q199 671 209
661T220 635Q220 619 210 609T183 598ZM341 598Q325 598 315 608T304 635Q304 650 314 660T341 671Q357 671 367 661T377 635Q377 619 367 609T341 598Z" />
            <glyph unicode="&#xe5;" glyph-name="aring" horiz-adv-x="499" d="M65 120Q65 199 140 241T375 301Q376 328 372 355T355 404T320 439T262 453Q213 453 173 434T109 397L89 430Q102 439 120 450T161 470T211 485T267 492Q310 492 339 478T386 438T411 380T419
307V0H382L377 62H375Q338 33 296 11T205 -12Q176 -12 151 -4T107 20T76 61T65 120ZM111 122Q111 70 141 48T212 26Q254 26 292 46T375 104V267Q301 258 251 245T169 214T125 173T111 122ZM262 539Q227 539 204 563T180 625Q180 664 203 688T262 712Q297 712 320
688T344 625Q344 587 321 563T262 539ZM262 565Q284 565 299 581T314 625Q314 653 299 669T262 686Q240 686 225 670T210 625Q210 598 225 582T262 565Z" />
            <glyph unicode="&#xe6;" glyph-name="ae" horiz-adv-x="784" d="M111 122Q111 70 141 48T212 26Q231 26 254 32T300 50T347 79T391 119Q380 141 375 173T370 240L369 267Q299 258 250 245T170 214T125 173T111 122ZM89 430Q102 439 120 450T160 470T208 485T261
492Q320 492 354 460T401 372Q427 427 470 459T568 492Q653 492 699 434T746 270Q746 261 746 252T744 234H412Q412 189 425 151T461 86T515 43T583 27Q622 27 651 38T708 70L727 35Q713 26 698 18T665 3T626 -8T579 -12Q547 -12 521 -4T474 19T437 50T407 87Q359
41 305 15T205 -12Q176 -12 151 -4T107 20T76 60T65 119Q65 199 140 241T370 301Q370 328 366 355T350 404T315 439T257 453Q212 453 173 434T109 397L89 430ZM705 268Q705 361 669 407T567 454Q537 454 511 441T464 403T430 344T412 268H705Z" />
            <glyph unicode="&#xe7;" glyph-name="ccedilla" horiz-adv-x="449" d="M52 239Q52 299 70 346T118 426T187 475T271 492Q321 492 354 474T412 433L386 402Q363 424 335 438T272 453Q235 453 204 438T149 394T112 326T98 239Q98 192 110 153T145 86T200 43T272
27Q310 27 342 43T400 82L423 52Q392 24 354 6T270 -12Q223 -12 184 5T115 54T69 132T52 239ZM257 2H292L263 -54Q287 -62 305 -77T323 -123Q323 -143 313 -157T285 -182T245 -198T198 -208L191 -178Q233 -172 258 -160T284 -127Q284 -104 265 -93T217 -74L257
2Z" />
            <glyph unicode="&#xe8;" glyph-name="egrave" horiz-adv-x="483" d="M52 239Q52 298 69 345T116 424T183 474T261 492Q347 492 396 434T445 270Q445 261 445 252T443 234H97Q98 189 111 151T147 85T204 42T278 26Q317 26 348 37T407 69L425 35Q396 18 362 3T274
-12Q228 -12 188 5T117 54T70 133T52 239ZM403 268Q403 361 365 407T262 454Q231 454 203 441T153 404T116 346T97 268H403ZM173 708H225L317 572H279L173 708Z" />
            <glyph unicode="&#xe9;" glyph-name="eacute" horiz-adv-x="483" d="M52 239Q52 298 69 345T116 424T183 474T261 492Q347 492 396 434T445 270Q445 261 445 252T443 234H97Q98 189 111 151T147 85T204 42T278 26Q317 26 348 37T407 69L425 35Q396 18 362 3T274
-12Q228 -12 188 5T117 54T70 133T52 239ZM403 268Q403 361 365 407T262 454Q231 454 203 441T153 404T116 346T97 268H403ZM243 572H205L297 708H349L243 572Z" />
            <glyph unicode="&#xea;" glyph-name="ecircumflex" horiz-adv-x="483" d="M52 239Q52 298 69 345T116 424T183 474T261 492Q347 492 396 434T445 270Q445 261 445 252T443 234H97Q98 189 111 151T147 85T204 42T278 26Q317 26 348 37T407 69L425 35Q396 18 362
3T274 -12Q228 -12 188 5T117 54T70 133T52 239ZM403 268Q403 361 365 407T262 454Q231 454 203 441T153 404T116 346T97 268H403ZM242 708H280L375 572H338L263 671H259L184 572H147L242 708Z" />
            <glyph unicode="&#xeb;" glyph-name="edieresis" horiz-adv-x="483" d="M52 239Q52 298 69 345T116 424T183 474T261 492Q347 492 396 434T445 270Q445 261 445 252T443 234H97Q98 189 111 151T147 85T204 42T278 26Q317 26 348 37T407 69L425 35Q396 18 362 3T274
-12Q228 -12 188 5T117 54T70 133T52 239ZM403 268Q403 361 365 407T262 454Q231 454 203 441T153 404T116 346T97 268H403ZM182 598Q166 598 156 608T146 635Q146 650 156 660T182 671Q198 671 208 661T219 635Q219 619 209 609T182 598ZM340 598Q324 598 314
608T303 635Q303 650 313 660T340 671Q356 671 366 661T376 635Q376 619 366 609T340 598Z" />
            <glyph unicode="&#xec;" glyph-name="igrave" horiz-adv-x="229" d="M92 480H136V0H92V480ZM26 708H78L170 572H132L26 708Z" />
            <glyph unicode="&#xed;" glyph-name="iacute" horiz-adv-x="229" d="M92 480H136V0H92V480ZM96 572H58L150 708H202L96 572Z" />
            <glyph unicode="&#xee;" glyph-name="icircumflex" horiz-adv-x="229" d="M92 480H136V0H92V480ZM95 708H133L228 572H191L116 671H112L37 572H0L95 708Z" />
            <glyph unicode="&#xef;" glyph-name="idieresis" horiz-adv-x="229" d="M92 480H136V0H92V480ZM35 598Q19 598 9 608T-1 635Q-1 650 9 660T35 671Q51 671 61 661T72 635Q72 619 62 609T35 598ZM193 598Q177 598 167 608T156 635Q156 650 166 660T193 671Q209 671
219 661T229 635Q229 619 219 609T193 598Z" />
            <glyph unicode="&#xf0;" glyph-name="eth" horiz-adv-x="535" d="M267 27Q308 27 337 44T386 92T415 163T425 251Q425 283 422 313Q403 341 384 359T345 387T307 400T269 404Q228 404 198 389T146 349T115 290T104 219Q104 177 117 142T152 81T204 41T267 27ZM335
607Q365 577 389 541T432 461T460 365T470 252Q470 192 455 143T414 60T350 7T267 -12Q227 -12 190 4T124 49T78 122T60 219Q60 268 75 309T117 380T183 425T267 442Q310 442 348 423T415 366Q401 440 371 493T299 588L157 514L142 542L274 610Q246 634 215 654T151
694L173 724Q210 704 244 681T311 629L453 703L468 676L335 607Z" />
            <glyph unicode="&#xf1;" glyph-name="ntilde" horiz-adv-x="532" d="M92 480H130L134 406H137Q174 443 213 467T302 492Q377 492 412 447T447 308V0H403V302Q403 379 378 415T293 452Q250 452 215 430T136 362V0H92V480ZM159 581Q160 597 164 613T176 641T197
662T228 670Q246 670 261 662T289 643T314 624T339 615Q355 615 364 629T377 670H407Q406 654 402 638T390 610T369 589T338 581Q320 581 305 589T278 608T253 627T227 636Q197 636 189 581H159V581Z" />
            <glyph unicode="&#xf2;" glyph-name="ograve" horiz-adv-x="535" d="M52 239Q52 299 69 346T116 426T185 475T267 492Q310 492 349 475T418 426T465 347T483 239Q483 179 466 133T419 54T350 5T267 -12Q224 -12 185 5T117 54T70 132T52 239ZM98 239Q98 192 111
153T146 86T200 43T267 27Q303 27 334 42T388 86T424 153T437 239Q437 287 424 326T389 393T335 437T267 453Q231 453 200 438T147 394T111 326T98 239ZM179 708H231L323 572H285L179 708Z" />
            <glyph unicode="&#xf3;" glyph-name="oacute" horiz-adv-x="535" d="M52 239Q52 299 69 346T116 426T185 475T267 492Q310 492 349 475T418 426T465 347T483 239Q483 179 466 133T419 54T350 5T267 -12Q224 -12 185 5T117 54T70 132T52 239ZM98 239Q98 192 111
153T146 86T200 43T267 27Q303 27 334 42T388 86T424 153T437 239Q437 287 424 326T389 393T335 437T267 453Q231 453 200 438T147 394T111 326T98 239ZM249 572H211L303 708H355L249 572Z" />
            <glyph unicode="&#xf4;" glyph-name="ocircumflex" horiz-adv-x="535" d="M52 239Q52 299 69 346T116 426T185 475T267 492Q310 492 349 475T418 426T465 347T483 239Q483 179 466 133T419 54T350 5T267 -12Q224 -12 185 5T117 54T70 132T52 239ZM98 239Q98 192
111 153T146 86T200 43T267 27Q303 27 334 42T388 86T424 153T437 239Q437 287 424 326T389 393T335 437T267 453Q231 453 200 438T147 394T111 326T98 239ZM248 708H286L381 572H344L269 671H265L190 572H153L248 708Z" />
            <glyph unicode="&#xf5;" glyph-name="otilde" horiz-adv-x="535" d="M52 239Q52 299 69 346T116 426T185 475T267 492Q310 492 349 475T418 426T465 347T483 239Q483 179 466 133T419 54T350 5T267 -12Q224 -12 185 5T117 54T70 132T52 239ZM98 239Q98 192 111
153T146 86T200 43T267 27Q303 27 334 42T388 86T424 153T437 239Q437 287 424 326T389 393T335 437T267 453Q231 453 200 438T147 394T111 326T98 239ZM143 581Q144 597 148 613T160 641T181 662T212 670Q230 670 245 662T273 643T298 624T323 615Q339 615 348
629T361 670H391Q390 654 386 638T374 610T353 589T322 581Q304 581 289 589T262 608T237 627T211 636Q181 636 173 581H143V581Z" />
            <glyph unicode="&#xf6;" glyph-name="odieresis" horiz-adv-x="535" d="M52 239Q52 299 69 346T116 426T185 475T267 492Q310 492 349 475T418 426T465 347T483 239Q483 179 466 133T419 54T350 5T267 -12Q224 -12 185 5T117 54T70 132T52 239ZM98 239Q98 192
111 153T146 86T200 43T267 27Q303 27 334 42T388 86T424 153T437 239Q437 287 424 326T389 393T335 437T267 453Q231 453 200 438T147 394T111 326T98 239ZM188 598Q172 598 162 608T152 635Q152 650 162 660T188 671Q204 671 214 661T225 635Q225 619 215 609T188
598ZM346 598Q330 598 320 608T309 635Q309 650 319 660T346 671Q362 671 372 661T382 635Q382 619 372 609T346 598Z" />
            <glyph unicode="&#xf7;" glyph-name="divide" horiz-adv-x="479" d="M239 469Q223 469 212 480T201 510Q201 527 212 538T239 549Q256 549 266 538T277 510Q277 491 267 480T239 469ZM201 150Q201 167 212 178T239 189Q256 189 266 178T277 150Q277 131 267 120T239
109Q223 109 212 120T201 150ZM34 349H445V311H34V349Z" />
            <glyph unicode="&#xf8;" glyph-name="oslash" horiz-adv-x="535" d="M153 76Q200 26 267 26Q303 26 334 41T389 85T425 152T438 238Q438 320 402 376L153 76ZM382 403Q336 454 267 454Q231 454 200 439T146 395T110 327T97 240Q97 159 133 103L382 403ZM431 411Q455
379 469 336T483 239Q483 179 466 133T419 54T350 5T267 -12Q185 -12 126 44L72 -22L46 -1L104 69Q80 101 66 143T52 239Q52 299 69 346T116 426T185 475T267 492Q307 492 343 478T409 436L463 501L489 480L431 411Z" />
            <glyph unicode="&#xf9;" glyph-name="ugrave" horiz-adv-x="529" d="M85 480H129V178Q129 101 154 65T238 28Q281 28 316 51T393 126V480H437V0H400L395 80H393Q358 38 319 13T230 -12Q155 -12 120 33T85 172V480ZM176 708H228L320 572H282L176 708Z" />
            <glyph unicode="&#xfa;" glyph-name="uacute" horiz-adv-x="529" d="M85 480H129V178Q129 101 154 65T238 28Q281 28 316 51T393 126V480H437V0H400L395 80H393Q358 38 319 13T230 -12Q155 -12 120 33T85 172V480ZM246 572H208L300 708H352L246 572Z" />
            <glyph unicode="&#xfb;" glyph-name="ucircumflex" horiz-adv-x="529" d="M85 480H129V178Q129 101 154 65T238 28Q281 28 316 51T393 126V480H437V0H400L395 80H393Q358 38 319 13T230 -12Q155 -12 120 33T85 172V480ZM245 708H283L378 572H341L266 671H262L187
572H150L245 708Z" />
            <glyph unicode="&#xfc;" glyph-name="udieresis" horiz-adv-x="529" d="M85 480H129V178Q129 101 154 65T238 28Q281 28 316 51T393 126V480H437V0H400L395 80H393Q358 38 319 13T230 -12Q155 -12 120 33T85 172V480ZM185 598Q169 598 159 608T149 635Q149 650
159 660T185 671Q201 671 211 661T222 635Q222 619 212 609T185 598ZM343 598Q327 598 317 608T306 635Q306 650 316 660T343 671Q359 671 369 661T379 635Q379 619 369 609T343 598Z" />
            <glyph unicode="&#xfd;" glyph-name="yacute" horiz-adv-x="436" d="M34 -170Q42 -173 52 -175T73 -178Q118 -178 148 -142T196 -51L209 -9L12 480H60L176 178Q187 148 200 112T228 44H232Q243 76 254 112T276 178L379 480H424L234 -60Q224 -90 210 -118T176 -169T131
-205T73 -219Q46 -219 24 -209L34 -170V-170ZM211 572H173L265 708H317L211 572Z" />
            <glyph unicode="&#xfe;" glyph-name="thorn" horiz-adv-x="544" d="M136 -217H92V719H136V512V421Q172 449 213 470T299 492Q347 492 383 475T444 425T480 348T492 247Q492 186 475 138T429 57T361 6T280 -12Q245 -12 210 3T136 46V-42V-217ZM136 89Q178 55 214
41T278 27Q314 27 345 43T398 88T432 157T445 247Q445 291 437 329T410 394T363 437T293 453Q257 453 219 433T136 374V89Z" />
            <glyph unicode="&#xff;" glyph-name="ydieresis" horiz-adv-x="436" d="M34 -170Q42 -173 52 -175T73 -178Q118 -178 148 -142T196 -51L209 -9L12 480H60L176 178Q187 148 200 112T228 44H232Q243 76 254 112T276 178L379 480H424L234 -60Q224 -90 210 -118T176
-169T131 -205T73 -219Q46 -219 24 -209L34 -170V-170ZM150 598Q134 598 124 608T114 635Q114 650 124 660T150 671Q166 671 176 661T187 635Q187 619 177 609T150 598ZM308 598Q292 598 282 608T271 635Q271 650 281 660T308 671Q324 671 334 661T344 635Q344
619 334 609T308 598Z" />
            <glyph unicode="&#x2013;" glyph-name="endash" horiz-adv-x="480" d="M40 268H440V232H40V268Z" />
            <glyph unicode="&#x2014;" glyph-name="emdash" horiz-adv-x="800" d="M40 268H760V232H40V268Z" />
            <glyph unicode="&#x2018;" glyph-name="quoteleft" horiz-adv-x="219" d="M161 680Q128 653 111 626T94 556Q96 557 102 557Q117 557 129 548T142 520Q142 501 131 491T102 480Q82 480 70 497T58 547Q58 601 80 639T143 703L161 680Z" />
            <glyph unicode="&#x2019;" glyph-name="quoteright" horiz-adv-x="219" d="M58 500Q91 527 108 554T125 624Q123 623 117 623Q103 623 91 632T78 660Q78 679 89 689T117 700Q137 700 149 683T162 633Q162 579 140 541T76 477L58 500Z" />
            <glyph unicode="&#x201a;" glyph-name="quotesinglbase" horiz-adv-x="219" d="M58 -107Q91 -80 108 -53T125 17Q123 16 117 16Q103 16 91 25T78 53Q78 72 89 82T117 93Q137 93 149 76T162 26Q162 -28 140 -66T76 -130L58 -107Z" />
            <glyph unicode="&#x201c;" glyph-name="quotedblleft" horiz-adv-x="360" d="M161 680Q128 653 111 626T94 556Q96 557 102 557Q117 557 129 548T142 520Q142 501 131 491T102 480Q82 480 70 497T58 547Q58 601 80 639T143 703L161 680ZM302 680Q269 653 252 626T235
556Q237 557 243 557Q258 557 270 548T283 520Q283 501 272 491T243 480Q223 480 211 497T199 547Q199 601 221 639T284 703L302 680Z" />
            <glyph unicode="&#x201d;" glyph-name="quotedblright" horiz-adv-x="360" d="M58 500Q91 527 108 554T125 624Q123 623 117 623Q103 623 91 632T78 660Q78 679 89 689T117 700Q137 700 149 683T162 633Q162 579 140 541T76 477L58 500ZM199 500Q232 527 249 554T266
624Q264 623 258 623Q244 623 232 632T219 660Q219 679 230 689T258 700Q278 700 290 683T303 633Q303 579 281 541T217 477L199 500Z" />
            <glyph unicode="&#x201e;" glyph-name="quotedblbase" horiz-adv-x="360" d="M58 -107Q91 -80 108 -53T125 17Q123 16 117 16Q103 16 91 25T78 53Q78 72 89 82T117 93Q137 93 149 76T162 26Q162 -28 140 -66T76 -130L58 -107ZM199 -107Q232 -80 249 -53T266 17Q264
16 258 16Q244 16 232 25T219 53Q219 72 230 82T258 93Q278 93 290 76T303 26Q303 -28 281 -66T217 -130L199 -107Z" />
            <glyph unicode="&#x2022;" glyph-name="bullet" horiz-adv-x="281" d="M140 154Q121 154 103 161T71 183T49 218T40 264Q40 289 48 309T71 344T103 366T140 374Q159 374 177 366T210 344T232 310T241 264Q241 238 233 218T210 184T178 162T140 154Z" />
            <glyph unicode="&#x2039;" glyph-name="guilsinglleft" horiz-adv-x="259" d="M43 233V271L180 432L205 411L82 252L205 91L180 72L43 233Z" />
            <glyph unicode="&#x203a;" glyph-name="guilsinglright" horiz-adv-x="259" d="M176 252L54 411L78 432L216 271V233L78 72L54 91L176 252Z" />
        </font>
    </defs>
</svg>
